EESchema Schematic File Version 4
EELAYER 30 0
EELAYER END
$Descr A4 11693 8268
encoding utf-8
Sheet 2 8
Title ""
Date ""
Rev ""
Comp ""
Comment1 ""
Comment2 ""
Comment3 ""
Comment4 ""
$EndDescr
$Comp
L Device:R R40
U 1 1 5DFD2B50
P 7400 1600
F 0 "R40" H 7470 1646 50  0000 L CNN
F 1 "0R01" H 7470 1555 50  0000 L CNN
F 2 "Resistor_SMD:R_2512_6332Metric" V 7330 1600 50  0001 C CNN
F 3 "~" H 7400 1600 50  0001 C CNN
	1    7400 1600
	1    0    0    -1  
$EndComp
$Comp
L antaveiv:ZXGD3003E6TA U3
U 1 1 5DFD6E2B
P 7050 3450
F 0 "U3" H 7100 3931 50  0000 C CNN
F 1 "ZXGD3003E6TA" H 7100 3840 50  0000 C CNN
F 2 "Package_TO_SOT_SMD:SOT-23-6" H 7050 3950 50  0001 C CNN
F 3 "" H 7050 3450 50  0001 C CNN
	1    7050 3450
	1    0    0    -1  
$EndComp
$Comp
L power:+5V #PWR010
U 1 1 5DFD7CBD
P 6500 2700
F 0 "#PWR010" H 6500 2550 50  0001 C CNN
F 1 "+5V" H 6515 2873 50  0000 C CNN
F 2 "" H 6500 2700 50  0001 C CNN
F 3 "" H 6500 2700 50  0001 C CNN
	1    6500 2700
	1    0    0    -1  
$EndComp
$Comp
L Device:C C9
U 1 1 5DFD8C45
P 6500 2950
F 0 "C9" H 6615 2996 50  0000 L CNN
F 1 "4.7uF" H 6615 2905 50  0000 L CNN
F 2 "Capacitor_SMD:C_0805_2012Metric" H 6538 2800 50  0001 C CNN
F 3 "~" H 6500 2950 50  0001 C CNN
	1    6500 2950
	1    0    0    -1  
$EndComp
$Comp
L power:GND #PWR017
U 1 1 5DFDA25D
P 6500 3150
F 0 "#PWR017" H 6500 2900 50  0001 C CNN
F 1 "GND" H 6505 2977 50  0000 C CNN
F 2 "" H 6500 3150 50  0001 C CNN
F 3 "" H 6500 3150 50  0001 C CNN
	1    6500 3150
	1    0    0    -1  
$EndComp
Wire Wire Line
	6500 2700 6500 2750
Wire Wire Line
	6500 2750 6800 2750
Wire Wire Line
	6800 2750 6800 3150
Wire Wire Line
	6800 3150 7050 3150
Connection ~ 6500 2750
Wire Wire Line
	6500 2750 6500 2800
$Comp
L power:-5V #PWR024
U 1 1 5DFDC3D5
P 7050 3850
F 0 "#PWR024" H 7050 3950 50  0001 C CNN
F 1 "-5V" H 7065 4023 50  0000 C CNN
F 2 "" H 7050 3850 50  0001 C CNN
F 3 "" H 7050 3850 50  0001 C CNN
	1    7050 3850
	-1   0    0    1   
$EndComp
Wire Wire Line
	6500 3100 6500 3150
$Comp
L Device:C C11
U 1 1 5DFDC9D2
P 7300 3950
F 0 "C11" H 7415 3996 50  0000 L CNN
F 1 "4.7uF" H 7415 3905 50  0000 L CNN
F 2 "Capacitor_SMD:C_0805_2012Metric" H 7338 3800 50  0001 C CNN
F 3 "~" H 7300 3950 50  0001 C CNN
	1    7300 3950
	1    0    0    -1  
$EndComp
$Comp
L power:GND #PWR026
U 1 1 5DFDCD85
P 7300 4150
F 0 "#PWR026" H 7300 3900 50  0001 C CNN
F 1 "GND" H 7305 3977 50  0000 C CNN
F 2 "" H 7300 4150 50  0001 C CNN
F 3 "" H 7300 4150 50  0001 C CNN
	1    7300 4150
	1    0    0    -1  
$EndComp
Wire Wire Line
	7300 4150 7300 4100
Wire Wire Line
	7300 3800 7050 3800
Wire Wire Line
	7050 3800 7050 3750
Wire Wire Line
	7050 3850 7050 3800
Connection ~ 7050 3800
Wire Wire Line
	6750 3450 6600 3450
Wire Wire Line
	6600 3450 6600 3500
Wire Wire Line
	6600 3550 6750 3550
$Comp
L Device:R R22
U 1 1 5DFDE8C0
P 7650 3350
F 0 "R22" V 7443 3350 50  0000 C CNN
F 1 "R" V 7534 3350 50  0000 C CNN
F 2 "Resistor_SMD:R_0603_1608Metric" V 7580 3350 50  0001 C CNN
F 3 "~" H 7650 3350 50  0001 C CNN
	1    7650 3350
	0    1    1    0   
$EndComp
$Comp
L Device:R R24
U 1 1 5DFDEEFC
P 7650 3550
F 0 "R24" V 7443 3550 50  0000 C CNN
F 1 "R" V 7534 3550 50  0000 C CNN
F 2 "Resistor_SMD:R_0603_1608Metric" V 7580 3550 50  0001 C CNN
F 3 "~" H 7650 3550 50  0001 C CNN
	1    7650 3550
	0    1    1    0   
$EndComp
Wire Wire Line
	7450 3350 7500 3350
Wire Wire Line
	7450 3550 7500 3550
Wire Wire Line
	7400 2350 7400 2450
Connection ~ 7400 2450
Wire Wire Line
	7800 3550 7850 3550
Wire Wire Line
	7800 3350 7850 3350
Wire Wire Line
	7400 1950 7400 1800
Text Notes 7300 900  0    50   ~ 0
10A range
$Comp
L Transistor_FET:Si2319CDS Q2
U 1 1 5DFE6F09
P 8100 1900
F 0 "Q2" V 8442 1900 50  0000 C CNN
F 1 "Si2319CDS" V 8351 1900 50  0000 C CNN
F 2 "Package_TO_SOT_SMD:SOT-23" H 8300 1825 50  0001 L CIN
F 3 "http://www.vishay.com/docs/66709/si2319cd.pdf" H 8100 1900 50  0001 L CNN
	1    8100 1900
	0    -1   -1   0   
$EndComp
Wire Wire Line
	7900 1800 7700 1800
Connection ~ 7400 1800
Wire Wire Line
	7400 1800 7400 1750
Wire Wire Line
	7400 2450 7900 2450
Wire Wire Line
	7700 2150 7850 2150
Wire Wire Line
	8100 2150 8100 2100
Text HLabel 6300 3500 0    50   Input ~ 0
range10A
Wire Wire Line
	6300 3500 6350 3500
Connection ~ 6600 3500
Wire Wire Line
	6600 3500 6600 3550
$Comp
L Transistor_FET:Si2319CDS Q9
U 1 1 5DFF47F4
P 8100 2550
F 0 "Q9" V 8442 2550 50  0000 C CNN
F 1 "Si2319CDS" V 8351 2550 50  0000 C CNN
F 2 "Package_TO_SOT_SMD:SOT-23" H 8300 2475 50  0001 L CIN
F 3 "http://www.vishay.com/docs/66709/si2319cd.pdf" H 8100 2550 50  0001 L CNN
	1    8100 2550
	0    -1   -1   0   
$EndComp
Connection ~ 7850 2150
Wire Wire Line
	7850 2150 8100 2150
Text HLabel 8100 3100 3    50   Input ~ 0
notRange10A
Wire Wire Line
	8100 3100 8100 3000
$Comp
L Device:R R11
U 1 1 5E0023D9
P 9400 1750
F 0 "R11" V 9607 1750 50  0000 C CNN
F 1 "3K" V 9516 1750 50  0000 C CNN
F 2 "Resistor_SMD:R_0603_1608Metric" V 9330 1750 50  0001 C CNN
F 3 "~" H 9400 1750 50  0001 C CNN
	1    9400 1750
	0    -1   -1   0   
$EndComp
$Comp
L Device:R R10
U 1 1 5E004B13
P 9400 1550
F 0 "R10" V 9607 1550 50  0000 C CNN
F 1 "3K" V 9516 1550 50  0000 C CNN
F 2 "Resistor_SMD:R_0603_1608Metric" V 9330 1550 50  0001 C CNN
F 3 "~" H 9400 1550 50  0001 C CNN
	1    9400 1550
	0    -1   -1   0   
$EndComp
$Comp
L Amplifier_Instrumentation:AD8236 U1
U 1 1 5E00DABC
P 10000 1650
F 0 "U1" H 10444 1696 50  0000 L CNN
F 1 "INA827AIDGKR" H 10444 1605 50  0000 L CNN
F 2 "Package_SO:VSSOP-8_3.0x3.0mm_P0.65mm" H 9700 1650 50  0001 C CNN
F 3 "https://www.analog.com/media/en/technical-documentation/data-sheets/AD8236.pdf" H 10350 1250 50  0001 C CNN
	1    10000 1650
	1    0    0    -1  
$EndComp
Wire Wire Line
	8300 2450 8350 2450
Wire Wire Line
	8350 2450 8350 1800
Wire Wire Line
	8350 1800 8300 1800
Connection ~ 8350 1800
Wire Wire Line
	8500 1850 8500 950 
Wire Wire Line
	9200 1550 9250 1550
Wire Wire Line
	9550 1550 9600 1550
Text Notes 6550 800  0    50   ~ 0
in 1A and 10A ranges the Rds is significant \ncompared to the value of the shunt resistor. \nTaking only the voltage drop on the shunt resistor
$Comp
L Device:R R7
U 1 1 5E02A267
P 3950 1200
F 0 "R7" H 4020 1246 50  0000 L CNN
F 1 "1R" H 4020 1155 50  0000 L CNN
F 2 "Resistor_SMD:R_0603_1608Metric" V 3880 1200 50  0001 C CNN
F 3 "~" H 3950 1200 50  0001 C CNN
	1    3950 1200
	1    0    0    1   
$EndComp
Wire Wire Line
	3950 1050 3950 950 
Connection ~ 3950 950 
Wire Wire Line
	3950 950  5350 950 
Wire Wire Line
	3950 1350 3950 1850
Wire Wire Line
	3950 2250 3950 2450
Connection ~ 3950 2450
Wire Wire Line
	3950 2450 5350 2450
$Comp
L Device:R R6
U 1 1 5E03739C
P 3100 1200
F 0 "R6" H 3170 1246 50  0000 L CNN
F 1 "10R" H 3170 1155 50  0000 L CNN
F 2 "Resistor_SMD:R_0603_1608Metric" V 3030 1200 50  0001 C CNN
F 3 "~" H 3100 1200 50  0001 C CNN
	1    3100 1200
	1    0    0    -1  
$EndComp
$Comp
L Device:R R5
U 1 1 5E03767D
P 2300 1200
F 0 "R5" H 2370 1246 50  0000 L CNN
F 1 "100R" H 2370 1155 50  0000 L CNN
F 2 "Resistor_SMD:R_0603_1608Metric" V 2230 1200 50  0001 C CNN
F 3 "~" H 2300 1200 50  0001 C CNN
	1    2300 1200
	1    0    0    -1  
$EndComp
$Comp
L Transistor_FET:Si2319CDS Q4
U 1 1 5E038710
P 2200 2050
F 0 "Q4" H 2404 2096 50  0000 L CNN
F 1 "Si2319CDS" V 2404 2005 50  0000 R BNN
F 2 "Package_TO_SOT_SMD:SOT-23" H 2400 1975 50  0001 L CIN
F 3 "http://www.vishay.com/docs/66709/si2319cd.pdf" H 2200 2050 50  0001 L CNN
	1    2200 2050
	1    0    0    -1  
$EndComp
Wire Wire Line
	3100 1050 3100 950 
Connection ~ 3100 950 
Wire Wire Line
	3100 950  3950 950 
Wire Wire Line
	2300 1050 2300 950 
Connection ~ 2300 950 
Wire Wire Line
	2300 950  3100 950 
Wire Wire Line
	2300 1850 2300 1350
Wire Wire Line
	3100 1850 3100 1350
Wire Wire Line
	3100 2250 3100 2450
Connection ~ 3100 2450
Wire Wire Line
	3100 2450 3950 2450
Wire Wire Line
	2300 2250 2300 2450
Connection ~ 2300 2450
Wire Wire Line
	2300 2450 3100 2450
$Comp
L Device:R R8
U 1 1 5E06128C
P 5350 1200
F 0 "R8" H 5420 1246 50  0000 L CNN
F 1 "0R1" H 5420 1155 50  0000 L CNN
F 2 "Resistor_SMD:R_2512_6332Metric" V 5280 1200 50  0001 C CNN
F 3 "~" H 5350 1200 50  0001 C CNN
	1    5350 1200
	1    0    0    -1  
$EndComp
$Comp
L antaveiv:ZXGD3003E6TA U2
U 1 1 5E0612A0
P 4850 3450
F 0 "U2" H 4900 3931 50  0000 C CNN
F 1 "ZXGD3003E6TA" H 4900 3840 50  0000 C CNN
F 2 "Package_TO_SOT_SMD:SOT-23-6" H 4850 3950 50  0001 C CNN
F 3 "" H 4850 3450 50  0001 C CNN
	1    4850 3450
	1    0    0    -1  
$EndComp
$Comp
L power:+5V #PWR09
U 1 1 5E0612AA
P 4300 2700
F 0 "#PWR09" H 4300 2550 50  0001 C CNN
F 1 "+5V" H 4315 2873 50  0000 C CNN
F 2 "" H 4300 2700 50  0001 C CNN
F 3 "" H 4300 2700 50  0001 C CNN
	1    4300 2700
	1    0    0    -1  
$EndComp
$Comp
L Device:C C8
U 1 1 5E0612B4
P 4300 2950
F 0 "C8" H 4415 2996 50  0000 L CNN
F 1 "4.7uF" H 4415 2905 50  0000 L CNN
F 2 "Capacitor_SMD:C_0805_2012Metric" H 4338 2800 50  0001 C CNN
F 3 "~" H 4300 2950 50  0001 C CNN
	1    4300 2950
	1    0    0    -1  
$EndComp
$Comp
L power:GND #PWR016
U 1 1 5E0612BE
P 4300 3150
F 0 "#PWR016" H 4300 2900 50  0001 C CNN
F 1 "GND" H 4305 2977 50  0000 C CNN
F 2 "" H 4300 3150 50  0001 C CNN
F 3 "" H 4300 3150 50  0001 C CNN
	1    4300 3150
	1    0    0    -1  
$EndComp
Wire Wire Line
	4300 2700 4300 2750
Wire Wire Line
	4300 2750 4600 2750
Wire Wire Line
	4600 2750 4600 3150
Wire Wire Line
	4600 3150 4850 3150
Connection ~ 4300 2750
Wire Wire Line
	4300 2750 4300 2800
$Comp
L power:-5V #PWR023
U 1 1 5E0612CE
P 4850 3850
F 0 "#PWR023" H 4850 3950 50  0001 C CNN
F 1 "-5V" H 4865 4023 50  0000 C CNN
F 2 "" H 4850 3850 50  0001 C CNN
F 3 "" H 4850 3850 50  0001 C CNN
	1    4850 3850
	-1   0    0    1   
$EndComp
Wire Wire Line
	4300 3100 4300 3150
$Comp
L Device:C C10
U 1 1 5E0612D9
P 5100 3950
F 0 "C10" H 5215 3996 50  0000 L CNN
F 1 "4.7uF" H 5215 3905 50  0000 L CNN
F 2 "Capacitor_SMD:C_0805_2012Metric" H 5138 3800 50  0001 C CNN
F 3 "~" H 5100 3950 50  0001 C CNN
	1    5100 3950
	1    0    0    -1  
$EndComp
$Comp
L power:GND #PWR025
U 1 1 5E0612E3
P 5100 4150
F 0 "#PWR025" H 5100 3900 50  0001 C CNN
F 1 "GND" H 5105 3977 50  0000 C CNN
F 2 "" H 5100 4150 50  0001 C CNN
F 3 "" H 5100 4150 50  0001 C CNN
	1    5100 4150
	1    0    0    -1  
$EndComp
Wire Wire Line
	5100 4150 5100 4100
Wire Wire Line
	5100 3800 4850 3800
Wire Wire Line
	4850 3800 4850 3750
Wire Wire Line
	4850 3850 4850 3800
Connection ~ 4850 3800
Wire Wire Line
	4550 3450 4400 3450
Wire Wire Line
	4400 3450 4400 3500
Wire Wire Line
	4400 3550 4550 3550
$Comp
L Device:R R21
U 1 1 5E0612F5
P 5450 3350
F 0 "R21" V 5243 3350 50  0000 C CNN
F 1 "R" V 5334 3350 50  0000 C CNN
F 2 "Resistor_SMD:R_0603_1608Metric" V 5380 3350 50  0001 C CNN
F 3 "~" H 5450 3350 50  0001 C CNN
	1    5450 3350
	0    1    1    0   
$EndComp
$Comp
L Device:R R23
U 1 1 5E0612FF
P 5450 3550
F 0 "R23" V 5243 3550 50  0000 C CNN
F 1 "R" V 5334 3550 50  0000 C CNN
F 2 "Resistor_SMD:R_0603_1608Metric" V 5380 3550 50  0001 C CNN
F 3 "~" H 5450 3550 50  0001 C CNN
	1    5450 3550
	0    1    1    0   
$EndComp
Wire Wire Line
	5250 3350 5300 3350
Wire Wire Line
	5250 3550 5300 3550
Wire Wire Line
	5350 2300 5350 2450
Wire Wire Line
	5600 3550 5650 3550
Wire Wire Line
	5650 3550 5650 3450
Wire Wire Line
	5600 3350 5650 3350
Wire Wire Line
	5350 1900 5350 1750
Wire Wire Line
	5350 950  5350 1050
Text Notes 5250 900  0    50   ~ 0
1A range
$Comp
L Transistor_FET:Si2319CDS Q1
U 1 1 5E061313
P 6050 1850
F 0 "Q1" V 6392 1850 50  0000 C CNN
F 1 "Si2319CDS" V 6301 1850 50  0000 C CNN
F 2 "Package_TO_SOT_SMD:SOT-23" H 6250 1775 50  0001 L CIN
F 3 "http://www.vishay.com/docs/66709/si2319cd.pdf" H 6050 1850 50  0001 L CNN
	1    6050 1850
	0    -1   -1   0   
$EndComp
Wire Wire Line
	5850 1750 5650 1750
Connection ~ 5350 1750
Wire Wire Line
	5350 1750 5350 1350
Wire Wire Line
	5650 2100 5800 2100
Wire Wire Line
	6050 2100 6050 2050
Text HLabel 4050 3500 0    50   Input ~ 0
range1A
Wire Wire Line
	4050 3500 4100 3500
Connection ~ 4400 3500
Wire Wire Line
	4400 3500 4400 3550
Wire Wire Line
	5650 3450 5800 3450
Wire Wire Line
	5800 3450 5800 2100
Connection ~ 5650 3450
Wire Wire Line
	5650 3450 5650 3350
Connection ~ 5800 2100
Wire Wire Line
	5800 2100 6050 2100
Wire Wire Line
	6300 1750 6250 1750
Connection ~ 5350 950 
Connection ~ 5350 2450
Wire Wire Line
	5350 2450 7400 2450
Wire Wire Line
	6300 1750 6300 1000
Wire Wire Line
	6300 1000 8350 1000
$Comp
L Device:R R4
U 1 1 5E09F434
P 1600 1200
F 0 "R4" H 1670 1246 50  0000 L CNN
F 1 "1K" H 1670 1155 50  0000 L CNN
F 2 "Resistor_SMD:R_0603_1608Metric" V 1530 1200 50  0001 C CNN
F 3 "~" H 1600 1200 50  0001 C CNN
	1    1600 1200
	1    0    0    -1  
$EndComp
$Comp
L Transistor_FET:Si2319CDS Q3
U 1 1 5E09FD3D
P 1500 2050
F 0 "Q3" H 1704 2096 50  0000 L CNN
F 1 "Si2319CDS" V 1704 2005 50  0000 R CNN
F 2 "Package_TO_SOT_SMD:SOT-23" H 1700 1975 50  0001 L CIN
F 3 "http://www.vishay.com/docs/66709/si2319cd.pdf" H 1500 2050 50  0001 L CNN
	1    1500 2050
	1    0    0    -1  
$EndComp
Wire Wire Line
	1600 2250 1600 2450
Wire Wire Line
	1600 2450 2300 2450
Wire Wire Line
	1600 1850 1600 1350
Wire Wire Line
	1600 1050 1600 950 
Wire Wire Line
	1600 950  2300 950 
Text Notes 3850 900  0    50   ~ 0
100mA range
Text Notes 2950 900  0    50   ~ 0
10mA range
Text Notes 2100 900  0    50   ~ 0
1mA range
Text Notes 1450 900  0    50   ~ 0
100uA range
$Comp
L power:+24V #PWR02
U 1 1 5E0AF475
P 9900 750
F 0 "#PWR02" H 9900 600 50  0001 C CNN
F 1 "+24V" H 9915 923 50  0000 C CNN
F 2 "" H 9900 750 50  0001 C CNN
F 3 "" H 9900 750 50  0001 C CNN
	1    9900 750 
	1    0    0    -1  
$EndComp
$Comp
L power:-5V #PWR08
U 1 1 5E0AFCCB
P 9900 2450
F 0 "#PWR08" H 9900 2550 50  0001 C CNN
F 1 "-5V" H 9915 2623 50  0000 C CNN
F 2 "" H 9900 2450 50  0001 C CNN
F 3 "" H 9900 2450 50  0001 C CNN
	1    9900 2450
	-1   0    0    1   
$EndComp
$Comp
L Device:C C2
U 1 1 5E0B041F
P 10400 1000
F 0 "C2" H 10515 1046 50  0000 L CNN
F 1 "1uF" H 10515 955 50  0000 L CNN
F 2 "Capacitor_SMD:C_0603_1608Metric" H 10438 850 50  0001 C CNN
F 3 "~" H 10400 1000 50  0001 C CNN
	1    10400 1000
	1    0    0    -1  
$EndComp
$Comp
L Device:C C3
U 1 1 5E0B0D58
P 10850 1000
F 0 "C3" H 10965 1046 50  0000 L CNN
F 1 "4.7uF" H 10965 955 50  0000 L CNN
F 2 "Capacitor_SMD:C_0805_2012Metric" H 10888 850 50  0001 C CNN
F 3 "~" H 10850 1000 50  0001 C CNN
	1    10850 1000
	1    0    0    -1  
$EndComp
$Comp
L Device:C C1
U 1 1 5E0B15BD
P 10000 1000
F 0 "C1" H 10115 1046 50  0000 L CNN
F 1 "0.1uF" H 10115 955 50  0000 L CNN
F 2 "Capacitor_SMD:C_0603_1608Metric" H 10038 850 50  0001 C CNN
F 3 "~" H 10000 1000 50  0001 C CNN
	1    10000 1000
	1    0    0    -1  
$EndComp
$Comp
L Device:C C6
U 1 1 5E0B3E88
P 10500 2600
F 0 "C6" H 10615 2646 50  0000 L CNN
F 1 "1uF" H 10615 2555 50  0000 L CNN
F 2 "Capacitor_SMD:C_0603_1608Metric" H 10538 2450 50  0001 C CNN
F 3 "~" H 10500 2600 50  0001 C CNN
	1    10500 2600
	1    0    0    -1  
$EndComp
$Comp
L Device:C C7
U 1 1 5E0B3E92
P 10850 2600
F 0 "C7" H 10965 2646 50  0000 L CNN
F 1 "4.7uF" H 10965 2555 50  0000 L CNN
F 2 "Capacitor_SMD:C_0805_2012Metric" H 10888 2450 50  0001 C CNN
F 3 "~" H 10850 2600 50  0001 C CNN
	1    10850 2600
	1    0    0    -1  
$EndComp
$Comp
L Device:C C5
U 1 1 5E0B3E9C
P 10100 2600
F 0 "C5" H 10215 2646 50  0000 L CNN
F 1 "0.1uF" H 10215 2555 50  0000 L CNN
F 2 "Capacitor_SMD:C_0603_1608Metric" H 10138 2450 50  0001 C CNN
F 3 "~" H 10100 2600 50  0001 C CNN
	1    10100 2600
	1    0    0    -1  
$EndComp
$Comp
L power:GND #PWR011
U 1 1 5E0C2258
P 10100 2850
F 0 "#PWR011" H 10100 2600 50  0001 C CNN
F 1 "GND" H 10105 2677 50  0000 C CNN
F 2 "" H 10100 2850 50  0001 C CNN
F 3 "" H 10100 2850 50  0001 C CNN
	1    10100 2850
	1    0    0    -1  
$EndComp
Wire Wire Line
	10100 2750 10100 2800
Wire Wire Line
	10100 2800 10500 2800
Wire Wire Line
	10850 2800 10850 2750
Connection ~ 10100 2800
Wire Wire Line
	10100 2800 10100 2850
Wire Wire Line
	10500 2750 10500 2800
Connection ~ 10500 2800
Wire Wire Line
	10500 2800 10850 2800
Wire Wire Line
	10850 2450 10850 2400
Wire Wire Line
	10850 2400 10500 2400
Wire Wire Line
	9900 2400 9900 1950
Wire Wire Line
	9900 2450 9900 2400
Connection ~ 9900 2400
Wire Wire Line
	10100 2450 10100 2400
Connection ~ 10100 2400
Wire Wire Line
	10100 2400 9900 2400
Wire Wire Line
	10500 2450 10500 2400
Connection ~ 10500 2400
Wire Wire Line
	10500 2400 10100 2400
Wire Wire Line
	9900 750  9900 800 
Wire Wire Line
	9900 800  10000 800 
Wire Wire Line
	10850 800  10850 850 
Connection ~ 9900 800 
Wire Wire Line
	9900 800  9900 1350
Wire Wire Line
	10400 850  10400 800 
Connection ~ 10400 800 
Wire Wire Line
	10400 800  10850 800 
Wire Wire Line
	10000 850  10000 800 
Connection ~ 10000 800 
Wire Wire Line
	10000 800  10400 800 
$Comp
L power:GND #PWR03
U 1 1 5E0F48C6
P 10000 1250
F 0 "#PWR03" H 10000 1000 50  0001 C CNN
F 1 "GND" H 10005 1077 50  0000 C CNN
F 2 "" H 10000 1250 50  0001 C CNN
F 3 "" H 10000 1250 50  0001 C CNN
	1    10000 1250
	1    0    0    -1  
$EndComp
Wire Wire Line
	10000 1150 10000 1200
Wire Wire Line
	10000 1200 10400 1200
Wire Wire Line
	10850 1200 10850 1150
Connection ~ 10000 1200
Wire Wire Line
	10000 1200 10000 1250
Wire Wire Line
	10400 1150 10400 1200
Connection ~ 10400 1200
Wire Wire Line
	10400 1200 10850 1200
Wire Wire Line
	10100 1950 10100 2050
Wire Wire Line
	10100 2050 10350 2050
Text HLabel 10500 2050 2    50   Input ~ 0
reference
Wire Wire Line
	2000 2050 2000 2550
Text HLabel 3200 2750 3    50   Input ~ 0
range100mA
Text HLabel 2350 2750 3    50   Input ~ 0
range10mA
Text HLabel 1550 2800 3    50   Input ~ 0
range1mA
Text HLabel 850  2800 3    50   Input ~ 0
range100uA
Wire Wire Line
	9600 1750 9550 1750
Wire Wire Line
	9250 1750 9200 1750
Wire Wire Line
	9200 1750 9200 1550
Wire Wire Line
	8350 1000 8350 1450
$Comp
L Device:R R12
U 1 1 5E1520E6
P 8700 1850
F 0 "R12" V 8907 1850 50  0000 C CNN
F 1 "TBD" V 8816 1850 50  0000 C CNN
F 2 "Resistor_SMD:R_0603_1608Metric" V 8630 1850 50  0001 C CNN
F 3 "~" H 8700 1850 50  0001 C CNN
	1    8700 1850
	0    -1   -1   0   
$EndComp
$Comp
L Device:R R3
U 1 1 5E1525A7
P 8700 1450
F 0 "R3" V 8907 1450 50  0000 C CNN
F 1 "TBD" V 8816 1450 50  0000 C CNN
F 2 "Resistor_SMD:R_0603_1608Metric" V 8630 1450 50  0001 C CNN
F 3 "~" H 8700 1450 50  0001 C CNN
	1    8700 1450
	0    -1   -1   0   
$EndComp
Wire Wire Line
	8850 1850 8900 1850
Wire Wire Line
	9600 1450 8900 1450
Wire Wire Line
	8350 1450 8550 1450
Connection ~ 8350 1450
Wire Wire Line
	8350 1450 8350 1800
Wire Wire Line
	8500 1850 8550 1850
$Comp
L Device:C C4
U 1 1 5E1723C0
P 8900 1650
F 0 "C4" H 9015 1696 50  0000 L CNN
F 1 "TBD" H 9015 1605 50  0000 L CNN
F 2 "Capacitor_SMD:C_0603_1608Metric" H 8938 1500 50  0001 C CNN
F 3 "~" H 8900 1650 50  0001 C CNN
	1    8900 1650
	1    0    0    -1  
$EndComp
Wire Wire Line
	8900 1500 8900 1450
Connection ~ 8900 1450
Wire Wire Line
	8900 1450 8850 1450
Wire Wire Line
	8900 1800 8900 1850
Connection ~ 8900 1850
Wire Wire Line
	8900 1850 9600 1850
$Comp
L Connector:TestPoint_Alt TP3
U 1 1 5E182537
P 7700 1750
F 0 "TP3" H 7758 1822 50  0000 L CNN
F 1 "TestPoint_Alt" H 7758 1777 50  0001 L CNN
F 2 "TestPoint:TestPoint_Pad_D1.0mm" H 7900 1750 50  0001 C CNN
F 3 "~" H 7900 1750 50  0001 C CNN
	1    7700 1750
	1    0    0    -1  
$EndComp
Wire Wire Line
	7700 1750 7700 1800
Connection ~ 7700 1800
Wire Wire Line
	7700 1800 7400 1800
$Comp
L Connector:TestPoint_Alt TP14
U 1 1 5E1A74AE
P 8200 3000
F 0 "TP14" H 8258 3072 50  0000 L CNN
F 1 "TestPoint_Alt" H 8258 3027 50  0001 L CNN
F 2 "TestPoint:TestPoint_Pad_D1.0mm" H 8400 3000 50  0001 C CNN
F 3 "~" H 8400 3000 50  0001 C CNN
	1    8200 3000
	1    0    0    -1  
$EndComp
Wire Wire Line
	8200 3000 8100 3000
Connection ~ 8100 3000
Wire Wire Line
	8100 3000 8100 2750
$Comp
L Connector:TestPoint_Alt TP16
U 1 1 5E1C1C3E
P 6500 3550
F 0 "TP16" H 6442 3622 50  0000 R CNN
F 1 "TestPoint_Alt" H 6558 3577 50  0001 L CNN
F 2 "TestPoint:TestPoint_Pad_D1.0mm" H 6700 3550 50  0001 C CNN
F 3 "~" H 6700 3550 50  0001 C CNN
	1    6500 3550
	-1   0    0    1   
$EndComp
$Comp
L Connector:TestPoint_Alt TP15
U 1 1 5E1C238F
P 4250 3550
F 0 "TP15" H 4192 3622 50  0000 R CNN
F 1 "TestPoint_Alt" H 4308 3577 50  0001 L CNN
F 2 "TestPoint:TestPoint_Pad_D1.0mm" H 4450 3550 50  0001 C CNN
F 3 "~" H 4450 3550 50  0001 C CNN
	1    4250 3550
	-1   0    0    1   
$EndComp
Wire Wire Line
	4250 3550 4250 3500
Connection ~ 4250 3500
Wire Wire Line
	4250 3500 4400 3500
Wire Wire Line
	6500 3550 6500 3500
Connection ~ 6500 3500
Wire Wire Line
	6500 3500 6600 3500
$Comp
L Connector:TestPoint_Alt TP12
U 1 1 5E1CF781
P 7850 2100
F 0 "TP12" H 7908 2172 50  0000 L CNN
F 1 "TestPoint_Alt" H 7908 2127 50  0001 L CNN
F 2 "TestPoint:TestPoint_Pad_D1.0mm" H 8050 2100 50  0001 C CNN
F 3 "~" H 8050 2100 50  0001 C CNN
	1    7850 2100
	1    0    0    -1  
$EndComp
Wire Wire Line
	7850 2100 7850 2150
$Comp
L Connector:TestPoint_Alt TP10
U 1 1 5E1D8098
P 10350 2000
F 0 "TP10" H 10408 2072 50  0000 L CNN
F 1 "TestPoint_Alt" H 10408 2027 50  0001 L CNN
F 2 "TestPoint:TestPoint_Pad_D1.0mm" H 10550 2000 50  0001 C CNN
F 3 "~" H 10550 2000 50  0001 C CNN
	1    10350 2000
	1    0    0    -1  
$EndComp
Wire Wire Line
	10350 2000 10350 2050
Connection ~ 10350 2050
Wire Wire Line
	10350 2050 10500 2050
$Comp
L Connector:TestPoint_Alt TP11
U 1 1 5E1E363F
P 5800 2050
F 0 "TP11" H 5858 2122 50  0000 L CNN
F 1 "TestPoint_Alt" H 5858 2077 50  0001 L CNN
F 2 "TestPoint:TestPoint_Pad_D1.0mm" H 6000 2050 50  0001 C CNN
F 3 "~" H 6000 2050 50  0001 C CNN
	1    5800 2050
	1    0    0    -1  
$EndComp
Wire Wire Line
	5800 2050 5800 2100
$Comp
L Connector:TestPoint_Alt TP4
U 1 1 5E1EB3C5
P 5650 1750
F 0 "TP4" H 5708 1822 50  0000 L CNN
F 1 "TestPoint_Alt" H 5708 1777 50  0001 L CNN
F 2 "TestPoint:TestPoint_Pad_D1.0mm" H 5850 1750 50  0001 C CNN
F 3 "~" H 5850 1750 50  0001 C CNN
	1    5650 1750
	1    0    0    -1  
$EndComp
Connection ~ 5650 1750
Wire Wire Line
	5650 1750 5350 1750
$Comp
L Connector:TestPoint_Alt TP13
U 1 1 5E1EDCEC
P 8400 2450
F 0 "TP13" H 8458 2522 50  0000 L CNN
F 1 "TestPoint_Alt" H 8458 2477 50  0001 L CNN
F 2 "TestPoint:TestPoint_Pad_D1.0mm" H 8600 2450 50  0001 C CNN
F 3 "~" H 8600 2450 50  0001 C CNN
	1    8400 2450
	1    0    0    -1  
$EndComp
Wire Wire Line
	8400 2450 8350 2450
Connection ~ 8350 2450
$Comp
L Connector:TestPoint_Alt TP1
U 1 1 5E1F5EB7
P 8900 1400
F 0 "TP1" H 8958 1472 50  0000 L CNN
F 1 "TestPoint_Alt" H 8958 1427 50  0001 L CNN
F 2 "TestPoint:TestPoint_Pad_D1.0mm" H 9100 1400 50  0001 C CNN
F 3 "~" H 9100 1400 50  0001 C CNN
	1    8900 1400
	1    0    0    -1  
$EndComp
Wire Wire Line
	8900 1400 8900 1450
$Comp
L Connector:TestPoint_Alt TP5
U 1 1 5E1FD94E
P 8900 1900
F 0 "TP5" H 8842 1972 50  0000 R CNN
F 1 "TestPoint_Alt" H 8958 1927 50  0001 L CNN
F 2 "TestPoint:TestPoint_Pad_D1.0mm" H 9100 1900 50  0001 C CNN
F 3 "~" H 9100 1900 50  0001 C CNN
	1    8900 1900
	-1   0    0    1   
$EndComp
Wire Wire Line
	8900 1850 8900 1900
$Comp
L Connector:TestPoint_Alt TP9
U 1 1 5E208BBF
P 3650 2000
F 0 "TP9" H 3708 2072 50  0000 L CNN
F 1 "TestPoint_Alt" H 3708 2027 50  0001 L CNN
F 2 "TestPoint:TestPoint_Pad_D1.0mm" H 3850 2000 50  0001 C CNN
F 3 "~" H 3850 2000 50  0001 C CNN
	1    3650 2000
	1    0    0    -1  
$EndComp
$Comp
L Connector:TestPoint_Alt TP8
U 1 1 5E211200
P 2800 2000
F 0 "TP8" H 2858 2072 50  0000 L CNN
F 1 "TestPoint_Alt" H 2858 2027 50  0001 L CNN
F 2 "TestPoint:TestPoint_Pad_D1.0mm" H 3000 2000 50  0001 C CNN
F 3 "~" H 3000 2000 50  0001 C CNN
	1    2800 2000
	1    0    0    -1  
$EndComp
$Comp
L Connector:TestPoint_Alt TP7
U 1 1 5E2115D1
P 2000 2000
F 0 "TP7" H 2058 2072 50  0000 L CNN
F 1 "TestPoint_Alt" H 2058 2027 50  0001 L CNN
F 2 "TestPoint:TestPoint_Pad_D1.0mm" H 2200 2000 50  0001 C CNN
F 3 "~" H 2200 2000 50  0001 C CNN
	1    2000 2000
	1    0    0    -1  
$EndComp
$Comp
L Connector:TestPoint_Alt TP6
U 1 1 5E211A76
P 1300 2000
F 0 "TP6" H 1358 2072 50  0000 L CNN
F 1 "TestPoint_Alt" H 1358 2027 50  0001 L CNN
F 2 "TestPoint:TestPoint_Pad_D1.0mm" H 1500 2000 50  0001 C CNN
F 3 "~" H 1500 2000 50  0001 C CNN
	1    1300 2000
	1    0    0    -1  
$EndComp
Wire Wire Line
	1300 2000 1300 2050
Connection ~ 1300 2050
Wire Wire Line
	2000 2050 2000 2000
Connection ~ 2000 2050
Wire Wire Line
	10400 1650 11150 1650
$Comp
L Amplifier_Operational:MCP6001-OT U4
U 1 1 5E346AE0
P 2700 4600
F 0 "U4" H 2700 5081 50  0000 C CNN
F 1 "TS321AILT" H 2700 4990 50  0000 C CNN
F 2 "Package_TO_SOT_SMD:SOT-23-5" H 2600 4400 50  0001 L CNN
F 3 "http://ww1.microchip.com/downloads/en/DeviceDoc/21733j.pdf" H 2700 4800 50  0001 C CNN
	1    2700 4600
	-1   0    0    -1  
$EndComp
$Comp
L power:-5V #PWR031
U 1 1 5E358386
P 2800 5250
F 0 "#PWR031" H 2800 5350 50  0001 C CNN
F 1 "-5V" H 2815 5423 50  0000 C CNN
F 2 "" H 2800 5250 50  0001 C CNN
F 3 "" H 2800 5250 50  0001 C CNN
	1    2800 5250
	-1   0    0    1   
$EndComp
$Comp
L Device:C C16
U 1 1 5E358CE7
P 2550 5150
F 0 "C16" H 2665 5196 50  0000 L CNN
F 1 "0.1uF" H 2665 5105 50  0000 L CNN
F 2 "Capacitor_SMD:C_0603_1608Metric" H 2588 5000 50  0001 C CNN
F 3 "~" H 2550 5150 50  0001 C CNN
	1    2550 5150
	1    0    0    -1  
$EndComp
$Comp
L Device:C C15
U 1 1 5E35940F
P 2200 5150
F 0 "C15" H 2315 5196 50  0000 L CNN
F 1 "1uF" H 2315 5105 50  0000 L CNN
F 2 "Capacitor_SMD:C_0603_1608Metric" H 2238 5000 50  0001 C CNN
F 3 "~" H 2200 5150 50  0001 C CNN
	1    2200 5150
	1    0    0    -1  
$EndComp
Wire Wire Line
	2800 4900 2800 4950
Wire Wire Line
	2800 4950 2550 4950
Wire Wire Line
	2200 4950 2200 5000
Wire Wire Line
	2550 5000 2550 4950
Connection ~ 2550 4950
Wire Wire Line
	2550 4950 2200 4950
Wire Wire Line
	2800 5250 2800 4950
Connection ~ 2800 4950
$Comp
L power:GND #PWR032
U 1 1 5E37DCDB
P 2550 5400
F 0 "#PWR032" H 2550 5150 50  0001 C CNN
F 1 "GND" H 2555 5227 50  0000 C CNN
F 2 "" H 2550 5400 50  0001 C CNN
F 3 "" H 2550 5400 50  0001 C CNN
	1    2550 5400
	1    0    0    -1  
$EndComp
Wire Wire Line
	2550 5350 2200 5350
Wire Wire Line
	2200 5350 2200 5300
Wire Wire Line
	2550 5400 2550 5350
Wire Wire Line
	2550 5350 2550 5300
Connection ~ 2550 5350
Wire Wire Line
	3000 4700 3050 4700
Wire Wire Line
	3050 4700 3050 5600
Wire Wire Line
	3050 5600 2050 5600
Wire Wire Line
	2050 5600 2050 4600
Wire Wire Line
	2050 4600 2400 4600
$Comp
L Device:R R27
U 1 1 5E3AAC01
P 1850 4600
F 0 "R27" V 2057 4600 50  0000 C CNN
F 1 "TBD" V 1966 4600 50  0000 C CNN
F 2 "Resistor_SMD:R_0603_1608Metric" V 1780 4600 50  0001 C CNN
F 3 "~" H 1850 4600 50  0001 C CNN
	1    1850 4600
	0    -1   -1   0   
$EndComp
$Comp
L Device:C C14
U 1 1 5E3AB478
P 1600 4800
F 0 "C14" H 1715 4846 50  0000 L CNN
F 1 "TBD" H 1715 4755 50  0000 L CNN
F 2 "Capacitor_SMD:C_0603_1608Metric" H 1638 4650 50  0001 C CNN
F 3 "~" H 1600 4800 50  0001 C CNN
	1    1600 4800
	1    0    0    -1  
$EndComp
$Comp
L power:GND #PWR030
U 1 1 5E3ABCF3
P 1600 5000
F 0 "#PWR030" H 1600 4750 50  0001 C CNN
F 1 "GND" H 1605 4827 50  0000 C CNN
F 2 "" H 1600 5000 50  0001 C CNN
F 3 "" H 1600 5000 50  0001 C CNN
	1    1600 5000
	1    0    0    -1  
$EndComp
Wire Wire Line
	2000 4600 2050 4600
Connection ~ 2050 4600
Wire Wire Line
	1700 4600 1600 4600
Wire Wire Line
	1600 4650 1600 4600
Connection ~ 1600 4600
Wire Wire Line
	1600 4600 1450 4600
Wire Wire Line
	1600 5000 1600 4950
$Comp
L Amplifier_Operational:MCP6001-OT U5
U 1 1 5E3FE446
P 2750 6750
F 0 "U5" H 2750 7231 50  0000 C CNN
F 1 "TS321AILT" H 2750 7140 50  0000 C CNN
F 2 "Package_TO_SOT_SMD:SOT-23-5" H 2650 6550 50  0001 L CNN
F 3 "http://ww1.microchip.com/downloads/en/DeviceDoc/21733j.pdf" H 2750 6950 50  0001 C CNN
	1    2750 6750
	-1   0    0    -1  
$EndComp
$Comp
L power:-5V #PWR036
U 1 1 5E3FE450
P 2850 7400
F 0 "#PWR036" H 2850 7500 50  0001 C CNN
F 1 "-5V" H 2865 7573 50  0000 C CNN
F 2 "" H 2850 7400 50  0001 C CNN
F 3 "" H 2850 7400 50  0001 C CNN
	1    2850 7400
	-1   0    0    1   
$EndComp
$Comp
L Device:C C21
U 1 1 5E3FE45A
P 2600 7300
F 0 "C21" H 2715 7346 50  0000 L CNN
F 1 "0.1uF" H 2715 7255 50  0000 L CNN
F 2 "Capacitor_SMD:C_0603_1608Metric" H 2638 7150 50  0001 C CNN
F 3 "~" H 2600 7300 50  0001 C CNN
	1    2600 7300
	1    0    0    -1  
$EndComp
$Comp
L Device:C C20
U 1 1 5E3FE464
P 2250 7300
F 0 "C20" H 2365 7346 50  0000 L CNN
F 1 "1uF" H 2365 7255 50  0000 L CNN
F 2 "Capacitor_SMD:C_0603_1608Metric" H 2288 7150 50  0001 C CNN
F 3 "~" H 2250 7300 50  0001 C CNN
	1    2250 7300
	1    0    0    -1  
$EndComp
Wire Wire Line
	2850 7050 2850 7100
Wire Wire Line
	2850 7100 2600 7100
Wire Wire Line
	2250 7100 2250 7150
Wire Wire Line
	2600 7150 2600 7100
Connection ~ 2600 7100
Wire Wire Line
	2600 7100 2250 7100
Wire Wire Line
	2850 7400 2850 7100
Connection ~ 2850 7100
$Comp
L power:GND #PWR037
U 1 1 5E3FE476
P 2600 7550
F 0 "#PWR037" H 2600 7300 50  0001 C CNN
F 1 "GND" H 2605 7377 50  0000 C CNN
F 2 "" H 2600 7550 50  0001 C CNN
F 3 "" H 2600 7550 50  0001 C CNN
	1    2600 7550
	1    0    0    -1  
$EndComp
Wire Wire Line
	2600 7500 2250 7500
Wire Wire Line
	2250 7500 2250 7450
Wire Wire Line
	2600 7550 2600 7500
Wire Wire Line
	2600 7500 2600 7450
Connection ~ 2600 7500
Wire Wire Line
	3050 6850 3100 6850
Wire Wire Line
	3100 6850 3100 7750
Wire Wire Line
	3100 7750 2100 7750
Wire Wire Line
	2100 7750 2100 6750
Wire Wire Line
	2100 6750 2450 6750
$Comp
L Device:R R28
U 1 1 5E3FE48A
P 1900 6750
F 0 "R28" V 2107 6750 50  0000 C CNN
F 1 "TBD" V 2016 6750 50  0000 C CNN
F 2 "Resistor_SMD:R_0603_1608Metric" V 1830 6750 50  0001 C CNN
F 3 "~" H 1900 6750 50  0001 C CNN
	1    1900 6750
	0    -1   -1   0   
$EndComp
$Comp
L Device:C C19
U 1 1 5E3FE494
P 1650 6950
F 0 "C19" H 1765 6996 50  0000 L CNN
F 1 "TBD" H 1765 6905 50  0000 L CNN
F 2 "Capacitor_SMD:C_0603_1608Metric" H 1688 6800 50  0001 C CNN
F 3 "~" H 1650 6950 50  0001 C CNN
	1    1650 6950
	1    0    0    -1  
$EndComp
$Comp
L power:GND #PWR035
U 1 1 5E3FE49E
P 1650 7150
F 0 "#PWR035" H 1650 6900 50  0001 C CNN
F 1 "GND" H 1655 6977 50  0000 C CNN
F 2 "" H 1650 7150 50  0001 C CNN
F 3 "" H 1650 7150 50  0001 C CNN
	1    1650 7150
	1    0    0    -1  
$EndComp
Wire Wire Line
	2050 6750 2100 6750
Connection ~ 2100 6750
Wire Wire Line
	1750 6750 1650 6750
Wire Wire Line
	1650 6800 1650 6750
Connection ~ 1650 6750
Wire Wire Line
	1650 6750 1500 6750
Wire Wire Line
	1650 7150 1650 7100
Text HLabel 1450 4600 0    50   Output ~ 0
currentMeas1
Text HLabel 1500 6750 0    50   Output ~ 0
currentMeas2
$Comp
L Device:C C12
U 1 1 5E48E818
P 3050 4000
F 0 "C12" H 3165 4046 50  0000 L CNN
F 1 "0.1uF" H 3165 3955 50  0000 L CNN
F 2 "Capacitor_SMD:C_0603_1608Metric" H 3088 3850 50  0001 C CNN
F 3 "~" H 3050 4000 50  0001 C CNN
	1    3050 4000
	1    0    0    -1  
$EndComp
$Comp
L Device:C C13
U 1 1 5E48EE18
P 3500 4000
F 0 "C13" H 3615 4046 50  0000 L CNN
F 1 "1uF" H 3615 3955 50  0000 L CNN
F 2 "Capacitor_SMD:C_0603_1608Metric" H 3538 3850 50  0001 C CNN
F 3 "~" H 3500 4000 50  0001 C CNN
	1    3500 4000
	1    0    0    -1  
$EndComp
$Comp
L power:GND #PWR027
U 1 1 5E48F466
P 3500 4250
F 0 "#PWR027" H 3500 4000 50  0001 C CNN
F 1 "GND" H 3505 4077 50  0000 C CNN
F 2 "" H 3500 4250 50  0001 C CNN
F 3 "" H 3500 4250 50  0001 C CNN
	1    3500 4250
	1    0    0    -1  
$EndComp
Wire Wire Line
	3500 4250 3500 4200
Wire Wire Line
	3500 4200 3050 4200
Wire Wire Line
	3050 4200 3050 4150
Wire Wire Line
	3500 4200 3500 4150
$Comp
L power:+5V #PWR022
U 1 1 5E4AD5FE
P 2800 3750
F 0 "#PWR022" H 2800 3600 50  0001 C CNN
F 1 "+5V" H 2815 3923 50  0000 C CNN
F 2 "" H 2800 3750 50  0001 C CNN
F 3 "" H 2800 3750 50  0001 C CNN
	1    2800 3750
	1    0    0    -1  
$EndComp
Wire Wire Line
	3500 3850 3500 3800
Wire Wire Line
	3500 3800 3050 3800
Wire Wire Line
	2800 3800 2800 3750
Wire Wire Line
	2800 3800 2800 4300
Wire Wire Line
	3050 3800 3050 3850
Connection ~ 3050 3800
Wire Wire Line
	3050 3800 2800 3800
$Comp
L Device:C C17
U 1 1 5E4DE7B5
P 3100 6150
F 0 "C17" H 3215 6196 50  0000 L CNN
F 1 "0.1uF" H 3215 6105 50  0000 L CNN
F 2 "Capacitor_SMD:C_0603_1608Metric" H 3138 6000 50  0001 C CNN
F 3 "~" H 3100 6150 50  0001 C CNN
	1    3100 6150
	1    0    0    -1  
$EndComp
$Comp
L Device:C C18
U 1 1 5E4DE7BF
P 3550 6150
F 0 "C18" H 3665 6196 50  0000 L CNN
F 1 "1uF" H 3665 6105 50  0000 L CNN
F 2 "Capacitor_SMD:C_0603_1608Metric" H 3588 6000 50  0001 C CNN
F 3 "~" H 3550 6150 50  0001 C CNN
	1    3550 6150
	1    0    0    -1  
$EndComp
$Comp
L power:GND #PWR034
U 1 1 5E4DE7C9
P 3550 6400
F 0 "#PWR034" H 3550 6150 50  0001 C CNN
F 1 "GND" H 3555 6227 50  0000 C CNN
F 2 "" H 3550 6400 50  0001 C CNN
F 3 "" H 3550 6400 50  0001 C CNN
	1    3550 6400
	1    0    0    -1  
$EndComp
Wire Wire Line
	3550 6400 3550 6350
Wire Wire Line
	3550 6350 3100 6350
Wire Wire Line
	3100 6350 3100 6300
Connection ~ 3550 6350
Wire Wire Line
	3550 6350 3550 6300
$Comp
L power:+5V #PWR033
U 1 1 5E4DE7D8
P 2850 5900
F 0 "#PWR033" H 2850 5750 50  0001 C CNN
F 1 "+5V" H 2865 6073 50  0000 C CNN
F 2 "" H 2850 5900 50  0001 C CNN
F 3 "" H 2850 5900 50  0001 C CNN
	1    2850 5900
	1    0    0    -1  
$EndComp
Wire Wire Line
	3550 6000 3550 5950
Wire Wire Line
	3550 5950 3100 5950
Wire Wire Line
	2850 5950 2850 5900
Wire Wire Line
	2850 5950 2850 6450
Connection ~ 2850 5950
Wire Wire Line
	3100 5950 3100 6000
Connection ~ 3100 5950
Wire Wire Line
	3100 5950 2850 5950
Wire Wire Line
	3850 6650 3850 6300
Wire Wire Line
	3000 4500 3850 4500
Wire Wire Line
	3050 6650 3850 6650
Wire Wire Line
	11150 6300 3850 6300
Connection ~ 3850 6300
Wire Wire Line
	3850 6300 3850 4500
Text Notes 4000 6200 0    50   ~ 0
buffered twice to have two ADC inputs\none is clocked as fast as possible and uses MCU ADC watchdog to do range switching\nanother has a bigger low-pass filter and is used for regular sampling
$Comp
L Connector:TestPoint_Alt TP2
U 1 1 5E52F189
P 11150 1650
F 0 "TP2" H 11208 1722 50  0000 L CNN
F 1 "TestPoint_Alt" H 11208 1677 50  0001 L CNN
F 2 "TestPoint:TestPoint_Pad_D1.0mm" H 11350 1650 50  0001 C CNN
F 3 "~" H 11350 1650 50  0001 C CNN
	1    11150 1650
	1    0    0    -1  
$EndComp
Connection ~ 11150 1650
$Comp
L Connector:TestPoint_Alt TP17
U 1 1 5E530CC5
P 1600 4550
F 0 "TP17" H 1658 4622 50  0000 L CNN
F 1 "TestPoint_Alt" H 1658 4577 50  0001 L CNN
F 2 "TestPoint:TestPoint_Pad_D1.0mm" H 1800 4550 50  0001 C CNN
F 3 "~" H 1800 4550 50  0001 C CNN
	1    1600 4550
	1    0    0    -1  
$EndComp
Wire Wire Line
	1600 4550 1600 4600
$Comp
L Connector:TestPoint_Alt TP18
U 1 1 5E54F835
P 1650 6700
F 0 "TP18" H 1708 6772 50  0000 L CNN
F 1 "TestPoint_Alt" H 1708 6727 50  0001 L CNN
F 2 "TestPoint:TestPoint_Pad_D1.0mm" H 1850 6700 50  0001 C CNN
F 3 "~" H 1850 6700 50  0001 C CNN
	1    1650 6700
	1    0    0    -1  
$EndComp
Wire Wire Line
	1650 6700 1650 6750
Text HLabel 800  950  0    50   Input ~ 0
DUT-
Text HLabel 800  2450 0    50   Input ~ 0
PSU-
Wire Wire Line
	800  2450 1600 2450
Connection ~ 1600 2450
Wire Wire Line
	800  950  1600 950 
Connection ~ 1600 950 
$Comp
L Device:LED D5
U 1 1 5E79F2E5
P 950 3350
F 0 "D5" V 897 3233 50  0000 R CNN
F 1 "LED" V 988 3233 50  0000 R CNN
F 2 "LED_SMD:LED_0603_1608Metric" H 950 3350 50  0001 C CNN
F 3 "~" H 950 3350 50  0001 C CNN
	1    950  3350
	0    -1   1    0   
$EndComp
Connection ~ 3500 4200
Connection ~ 2800 3800
Wire Wire Line
	11150 1650 11150 6300
$Comp
L Transistor_FET:Si2319CDS Q10
U 1 1 5E8C2C98
P 1200 2750
F 0 "Q10" H 1404 2796 50  0000 L CNN
F 1 "Si2319CDS" H 1404 2705 50  0001 L CNN
F 2 "Package_TO_SOT_SMD:SOT-23" H 1400 2675 50  0001 L CIN
F 3 "http://www.vishay.com/docs/66709/si2319cd.pdf" H 1200 2750 50  0001 L CNN
	1    1200 2750
	1    0    0    -1  
$EndComp
$Comp
L power:+3V0 #PWR012
U 1 1 5E8DC4A9
P 1300 3000
F 0 "#PWR012" H 1300 2850 50  0001 C CNN
F 1 "+3V0" H 1315 3173 50  0000 C CNN
F 2 "" H 1300 3000 50  0001 C CNN
F 3 "" H 1300 3000 50  0001 C CNN
	1    1300 3000
	-1   0    0    1   
$EndComp
Wire Wire Line
	1300 3000 1300 2950
$Comp
L power:+3V0 #PWR018
U 1 1 5E98AFA0
P 950 3550
F 0 "#PWR018" H 950 3400 50  0001 C CNN
F 1 "+3V0" H 965 3723 50  0000 C CNN
F 2 "" H 950 3550 50  0001 C CNN
F 3 "" H 950 3550 50  0001 C CNN
	1    950  3550
	-1   0    0    1   
$EndComp
Wire Wire Line
	950  3500 950  3550
$Comp
L Device:R R17
U 1 1 5E9B5A74
P 950 3000
F 0 "R17" V 1157 3000 50  0000 C CNN
F 1 "10K" V 1066 3000 50  0000 C CNN
F 2 "Resistor_SMD:R_0603_1608Metric" V 880 3000 50  0001 C CNN
F 3 "~" H 950 3000 50  0001 C CNN
	1    950  3000
	1    0    0    -1  
$EndComp
Wire Wire Line
	950  3150 950  3200
Wire Wire Line
	950  2750 950  2850
$Comp
L power:-5V #PWR04
U 1 1 5E9F1549
P 1200 1700
F 0 "#PWR04" H 1200 1800 50  0001 C CNN
F 1 "-5V" H 1215 1873 50  0000 C CNN
F 2 "" H 1200 1700 50  0001 C CNN
F 3 "" H 1200 1700 50  0001 C CNN
	1    1200 1700
	1    0    0    -1  
$EndComp
$Comp
L Device:R R13
U 1 1 5E9F2350
P 1200 1900
F 0 "R13" V 1407 1900 50  0000 C CNN
F 1 "10K" V 1316 1900 50  0000 C CNN
F 2 "Resistor_SMD:R_0603_1608Metric" V 1130 1900 50  0001 C CNN
F 3 "~" H 1200 1900 50  0001 C CNN
	1    1200 1900
	-1   0    0    1   
$EndComp
Wire Wire Line
	1200 1750 1200 1700
Wire Wire Line
	950  2750 1000 2750
Wire Wire Line
	850  2800 850  2750
Wire Wire Line
	850  2750 950  2750
Connection ~ 950  2750
Wire Wire Line
	1200 2050 1300 2050
Wire Wire Line
	1300 2050 1300 2550
$Comp
L Device:LED D6
U 1 1 5EABA8D0
P 1650 3350
F 0 "D6" V 1597 3233 50  0000 R CNN
F 1 "LED" V 1688 3233 50  0000 R CNN
F 2 "LED_SMD:LED_0603_1608Metric" H 1650 3350 50  0001 C CNN
F 3 "~" H 1650 3350 50  0001 C CNN
	1    1650 3350
	0    -1   1    0   
$EndComp
$Comp
L Transistor_FET:Si2319CDS Q11
U 1 1 5EABA8DA
P 1900 2750
F 0 "Q11" H 2104 2796 50  0000 L CNN
F 1 "Si2319CDS" H 2104 2705 50  0001 L CNN
F 2 "Package_TO_SOT_SMD:SOT-23" H 2100 2675 50  0001 L CIN
F 3 "http://www.vishay.com/docs/66709/si2319cd.pdf" H 1900 2750 50  0001 L CNN
	1    1900 2750
	1    0    0    -1  
$EndComp
$Comp
L power:+3V0 #PWR013
U 1 1 5EABA8E4
P 2000 3000
F 0 "#PWR013" H 2000 2850 50  0001 C CNN
F 1 "+3V0" H 2015 3173 50  0000 C CNN
F 2 "" H 2000 3000 50  0001 C CNN
F 3 "" H 2000 3000 50  0001 C CNN
	1    2000 3000
	-1   0    0    1   
$EndComp
Wire Wire Line
	2000 3000 2000 2950
$Comp
L power:+3V0 #PWR019
U 1 1 5EABA8EF
P 1650 3550
F 0 "#PWR019" H 1650 3400 50  0001 C CNN
F 1 "+3V0" H 1665 3723 50  0000 C CNN
F 2 "" H 1650 3550 50  0001 C CNN
F 3 "" H 1650 3550 50  0001 C CNN
	1    1650 3550
	-1   0    0    1   
$EndComp
Wire Wire Line
	1650 3500 1650 3550
$Comp
L Device:R R18
U 1 1 5EABA8FA
P 1650 3000
F 0 "R18" V 1857 3000 50  0000 C CNN
F 1 "10K" V 1766 3000 50  0000 C CNN
F 2 "Resistor_SMD:R_0603_1608Metric" V 1580 3000 50  0001 C CNN
F 3 "~" H 1650 3000 50  0001 C CNN
	1    1650 3000
	1    0    0    -1  
$EndComp
Wire Wire Line
	1650 3150 1650 3200
Wire Wire Line
	1650 2750 1650 2850
Wire Wire Line
	1650 2750 1700 2750
Wire Wire Line
	1550 2800 1550 2750
Wire Wire Line
	1550 2750 1650 2750
Connection ~ 1650 2750
Wire Wire Line
	2800 2000 2800 2050
Wire Wire Line
	3650 2000 3650 2050
$Comp
L Transistor_FET:Si2319CDS Q5
U 1 1 5EADC4FE
P 3000 2050
F 0 "Q5" H 3204 2096 50  0000 L CNN
F 1 "Si2319CDS" V 3204 2005 50  0000 R BNN
F 2 "Package_TO_SOT_SMD:SOT-23" H 3200 1975 50  0001 L CIN
F 3 "http://www.vishay.com/docs/66709/si2319cd.pdf" H 3000 2050 50  0001 L CNN
	1    3000 2050
	1    0    0    -1  
$EndComp
Connection ~ 2800 2050
Wire Wire Line
	2800 2050 2800 2550
$Comp
L Transistor_FET:Si2319CDS Q6
U 1 1 5EADCF74
P 3850 2050
F 0 "Q6" H 4054 2096 50  0000 L CNN
F 1 "Si2319CDS" V 4054 2005 50  0000 R BNN
F 2 "Package_TO_SOT_SMD:SOT-23" H 4050 1975 50  0001 L CIN
F 3 "http://www.vishay.com/docs/66709/si2319cd.pdf" H 3850 2050 50  0001 L CNN
	1    3850 2050
	1    0    0    -1  
$EndComp
Connection ~ 3650 2050
Wire Wire Line
	3650 2050 3650 2550
$Comp
L power:-5V #PWR05
U 1 1 5EADF05C
P 1900 1700
F 0 "#PWR05" H 1900 1800 50  0001 C CNN
F 1 "-5V" H 1915 1873 50  0000 C CNN
F 2 "" H 1900 1700 50  0001 C CNN
F 3 "" H 1900 1700 50  0001 C CNN
	1    1900 1700
	1    0    0    -1  
$EndComp
$Comp
L Device:R R14
U 1 1 5EADF066
P 1900 1900
F 0 "R14" V 2107 1900 50  0000 C CNN
F 1 "10K" V 2016 1900 50  0000 C CNN
F 2 "Resistor_SMD:R_0603_1608Metric" V 1830 1900 50  0001 C CNN
F 3 "~" H 1900 1900 50  0001 C CNN
	1    1900 1900
	-1   0    0    1   
$EndComp
Wire Wire Line
	1900 1750 1900 1700
Wire Wire Line
	1900 2050 2000 2050
$Comp
L power:-5V #PWR06
U 1 1 5EAFD05A
P 2700 1700
F 0 "#PWR06" H 2700 1800 50  0001 C CNN
F 1 "-5V" H 2715 1873 50  0000 C CNN
F 2 "" H 2700 1700 50  0001 C CNN
F 3 "" H 2700 1700 50  0001 C CNN
	1    2700 1700
	1    0    0    -1  
$EndComp
$Comp
L Device:R R15
U 1 1 5EAFD060
P 2700 1900
F 0 "R15" V 2907 1900 50  0000 C CNN
F 1 "10K" V 2816 1900 50  0000 C CNN
F 2 "Resistor_SMD:R_0603_1608Metric" V 2630 1900 50  0001 C CNN
F 3 "~" H 2700 1900 50  0001 C CNN
	1    2700 1900
	-1   0    0    1   
$EndComp
Wire Wire Line
	2700 1750 2700 1700
Wire Wire Line
	2700 2050 2800 2050
$Comp
L power:-5V #PWR07
U 1 1 5EB11246
P 3550 1700
F 0 "#PWR07" H 3550 1800 50  0001 C CNN
F 1 "-5V" H 3565 1873 50  0000 C CNN
F 2 "" H 3550 1700 50  0001 C CNN
F 3 "" H 3550 1700 50  0001 C CNN
	1    3550 1700
	1    0    0    -1  
$EndComp
$Comp
L Device:R R16
U 1 1 5EB1124C
P 3550 1900
F 0 "R16" V 3757 1900 50  0000 C CNN
F 1 "10K" V 3666 1900 50  0000 C CNN
F 2 "Resistor_SMD:R_0603_1608Metric" V 3480 1900 50  0001 C CNN
F 3 "~" H 3550 1900 50  0001 C CNN
	1    3550 1900
	-1   0    0    1   
$EndComp
Wire Wire Line
	3550 1750 3550 1700
Wire Wire Line
	3550 2050 3650 2050
$Comp
L Device:LED D7
U 1 1 5EB68909
P 2450 3350
F 0 "D7" V 2397 3233 50  0000 R CNN
F 1 "LED" V 2488 3233 50  0000 R CNN
F 2 "LED_SMD:LED_0603_1608Metric" H 2450 3350 50  0001 C CNN
F 3 "~" H 2450 3350 50  0001 C CNN
	1    2450 3350
	0    -1   1    0   
$EndComp
$Comp
L Transistor_FET:Si2319CDS Q12
U 1 1 5EB68913
P 2700 2750
F 0 "Q12" H 2904 2796 50  0000 L CNN
F 1 "Si2319CDS" H 2904 2705 50  0001 L CNN
F 2 "Package_TO_SOT_SMD:SOT-23" H 2900 2675 50  0001 L CIN
F 3 "http://www.vishay.com/docs/66709/si2319cd.pdf" H 2700 2750 50  0001 L CNN
	1    2700 2750
	1    0    0    -1  
$EndComp
$Comp
L power:+3V0 #PWR014
U 1 1 5EB6891D
P 2800 3000
F 0 "#PWR014" H 2800 2850 50  0001 C CNN
F 1 "+3V0" H 2815 3173 50  0000 C CNN
F 2 "" H 2800 3000 50  0001 C CNN
F 3 "" H 2800 3000 50  0001 C CNN
	1    2800 3000
	-1   0    0    1   
$EndComp
Wire Wire Line
	2800 3000 2800 2950
$Comp
L power:+3V0 #PWR020
U 1 1 5EB68928
P 2450 3550
F 0 "#PWR020" H 2450 3400 50  0001 C CNN
F 1 "+3V0" H 2465 3723 50  0000 C CNN
F 2 "" H 2450 3550 50  0001 C CNN
F 3 "" H 2450 3550 50  0001 C CNN
	1    2450 3550
	-1   0    0    1   
$EndComp
Wire Wire Line
	2450 3500 2450 3550
$Comp
L Device:R R19
U 1 1 5EB68933
P 2450 3000
F 0 "R19" V 2657 3000 50  0000 C CNN
F 1 "10K" V 2566 3000 50  0000 C CNN
F 2 "Resistor_SMD:R_0603_1608Metric" V 2380 3000 50  0001 C CNN
F 3 "~" H 2450 3000 50  0001 C CNN
	1    2450 3000
	1    0    0    -1  
$EndComp
Wire Wire Line
	2450 3150 2450 3200
Wire Wire Line
	2450 2750 2450 2850
Wire Wire Line
	2450 2750 2500 2750
Wire Wire Line
	2350 2750 2450 2750
Connection ~ 2450 2750
$Comp
L Device:LED D8
U 1 1 5EB91F68
P 3300 3350
F 0 "D8" V 3247 3233 50  0000 R CNN
F 1 "LED" V 3338 3233 50  0000 R CNN
F 2 "LED_SMD:LED_0603_1608Metric" H 3300 3350 50  0001 C CNN
F 3 "~" H 3300 3350 50  0001 C CNN
	1    3300 3350
	0    -1   1    0   
$EndComp
$Comp
L Transistor_FET:Si2319CDS Q13
U 1 1 5EB91F72
P 3550 2750
F 0 "Q13" H 3754 2796 50  0000 L CNN
F 1 "Si2319CDS" H 3754 2705 50  0001 L CNN
F 2 "Package_TO_SOT_SMD:SOT-23" H 3750 2675 50  0001 L CIN
F 3 "http://www.vishay.com/docs/66709/si2319cd.pdf" H 3550 2750 50  0001 L CNN
	1    3550 2750
	1    0    0    -1  
$EndComp
$Comp
L power:+3V0 #PWR015
U 1 1 5EB91F7C
P 3650 3000
F 0 "#PWR015" H 3650 2850 50  0001 C CNN
F 1 "+3V0" H 3665 3173 50  0000 C CNN
F 2 "" H 3650 3000 50  0001 C CNN
F 3 "" H 3650 3000 50  0001 C CNN
	1    3650 3000
	-1   0    0    1   
$EndComp
Wire Wire Line
	3650 3000 3650 2950
$Comp
L power:+3V0 #PWR021
U 1 1 5EB91F87
P 3300 3550
F 0 "#PWR021" H 3300 3400 50  0001 C CNN
F 1 "+3V0" H 3315 3723 50  0000 C CNN
F 2 "" H 3300 3550 50  0001 C CNN
F 3 "" H 3300 3550 50  0001 C CNN
	1    3300 3550
	-1   0    0    1   
$EndComp
Wire Wire Line
	3300 3500 3300 3550
$Comp
L Device:R R20
U 1 1 5EB91F92
P 3300 3000
F 0 "R20" V 3507 3000 50  0000 C CNN
F 1 "10K" V 3416 3000 50  0000 C CNN
F 2 "Resistor_SMD:R_0603_1608Metric" V 3230 3000 50  0001 C CNN
F 3 "~" H 3300 3000 50  0001 C CNN
	1    3300 3000
	1    0    0    -1  
$EndComp
Wire Wire Line
	3300 3150 3300 3200
Wire Wire Line
	3300 2750 3300 2850
Wire Wire Line
	3300 2750 3350 2750
Wire Wire Line
	3200 2750 3300 2750
Connection ~ 3300 2750
Connection ~ 7850 3350
Wire Wire Line
	7850 3350 7850 2150
Wire Wire Line
	7850 3350 7850 3550
$Comp
L Device:R R25
U 1 1 5EC67156
P 4100 3700
F 0 "R25" V 4307 3700 50  0000 C CNN
F 1 "10K" V 4216 3700 50  0000 C CNN
F 2 "Resistor_SMD:R_0603_1608Metric" V 4030 3700 50  0001 C CNN
F 3 "~" H 4100 3700 50  0001 C CNN
	1    4100 3700
	-1   0    0    1   
$EndComp
$Comp
L Device:LED D9
U 1 1 5EC67F66
P 4100 4050
F 0 "D9" V 4047 3933 50  0000 R CNN
F 1 "LED" V 4138 3933 50  0000 R CNN
F 2 "LED_SMD:LED_0603_1608Metric" H 4100 4050 50  0001 C CNN
F 3 "~" H 4100 4050 50  0001 C CNN
	1    4100 4050
	0    -1   1    0   
$EndComp
$Comp
L power:+3V0 #PWR028
U 1 1 5EC68A08
P 4100 4250
F 0 "#PWR028" H 4100 4100 50  0001 C CNN
F 1 "+3V0" H 4115 4423 50  0000 C CNN
F 2 "" H 4100 4250 50  0001 C CNN
F 3 "" H 4100 4250 50  0001 C CNN
	1    4100 4250
	-1   0    0    1   
$EndComp
Wire Wire Line
	4100 4250 4100 4200
Wire Wire Line
	4100 3900 4100 3850
Wire Wire Line
	4100 3550 4100 3500
Connection ~ 4100 3500
Wire Wire Line
	4100 3500 4250 3500
$Comp
L Device:R R26
U 1 1 5ECB0273
P 6350 3700
F 0 "R26" V 6557 3700 50  0000 C CNN
F 1 "10K" V 6466 3700 50  0000 C CNN
F 2 "Resistor_SMD:R_0603_1608Metric" V 6280 3700 50  0001 C CNN
F 3 "~" H 6350 3700 50  0001 C CNN
	1    6350 3700
	-1   0    0    1   
$EndComp
$Comp
L Device:LED D10
U 1 1 5ECB0A2F
P 6350 4050
F 0 "D10" V 6297 3933 50  0000 R CNN
F 1 "LED" V 6388 3933 50  0000 R CNN
F 2 "LED_SMD:LED_0603_1608Metric" H 6350 4050 50  0001 C CNN
F 3 "~" H 6350 4050 50  0001 C CNN
	1    6350 4050
	0    -1   1    0   
$EndComp
$Comp
L power:+3V0 #PWR029
U 1 1 5ECB1338
P 6350 4250
F 0 "#PWR029" H 6350 4100 50  0001 C CNN
F 1 "+3V0" H 6365 4423 50  0000 C CNN
F 2 "" H 6350 4250 50  0001 C CNN
F 3 "" H 6350 4250 50  0001 C CNN
	1    6350 4250
	-1   0    0    1   
$EndComp
Wire Wire Line
	6350 4250 6350 4200
Wire Wire Line
	6350 3900 6350 3850
Wire Wire Line
	6350 3550 6350 3500
Connection ~ 6350 3500
Wire Wire Line
	6350 3500 6500 3500
Wire Wire Line
	5350 950  7050 950 
$Comp
L Device:R R38
U 1 1 5F25E6F6
P 7400 1200
F 0 "R38" H 7470 1246 50  0000 L CNN
F 1 "0R01" H 7470 1155 50  0000 L CNN
F 2 "Resistor_SMD:R_2512_6332Metric" V 7330 1200 50  0001 C CNN
F 3 "~" H 7400 1200 50  0001 C CNN
	1    7400 1200
	1    0    0    -1  
$EndComp
$Comp
L Device:R R37
U 1 1 5F25EC2E
P 7050 1200
F 0 "R37" H 7120 1246 50  0000 L CNN
F 1 "0R01" H 7120 1155 50  0000 L CNN
F 2 "Resistor_SMD:R_2512_6332Metric" V 6980 1200 50  0001 C CNN
F 3 "~" H 7050 1200 50  0001 C CNN
	1    7050 1200
	1    0    0    -1  
$EndComp
$Comp
L Device:R R39
U 1 1 5F25F124
P 7050 1600
F 0 "R39" H 7120 1646 50  0000 L CNN
F 1 "0R01" H 7120 1555 50  0000 L CNN
F 2 "Resistor_SMD:R_2512_6332Metric" V 6980 1600 50  0001 C CNN
F 3 "~" H 7050 1600 50  0001 C CNN
	1    7050 1600
	1    0    0    -1  
$EndComp
Wire Wire Line
	7400 1800 7050 1800
Wire Wire Line
	7050 1800 7050 1750
Wire Wire Line
	7400 1450 7400 1400
Wire Wire Line
	7050 1450 7050 1400
Wire Wire Line
	7050 1400 7400 1400
Connection ~ 7050 1400
Wire Wire Line
	7050 1400 7050 1350
Connection ~ 7400 1400
Wire Wire Line
	7400 1400 7400 1350
Wire Wire Line
	7050 1050 7050 950 
Connection ~ 7050 950 
Wire Wire Line
	7050 950  7400 950 
Wire Wire Line
	7400 1050 7400 950 
Connection ~ 7400 950 
Wire Wire Line
	7400 950  8500 950 
$Comp
L Transistor_FET:PSMN5R2-60YL Q8
U 1 1 5E31B744
P 7500 2150
F 0 "Q8" H 7705 2196 50  0000 L CNN
F 1 "BUK9Y2R8-40H" H 7705 2105 50  0000 L CNN
F 2 "Package_TO_SOT_SMD:LFPAK56" H 7650 2150 50  0001 C CNN
F 3 "https://assets.nexperia.com/documents/data-sheet/PSMN5R2-60YL.pdf" H 7500 2150 50  0001 C CNN
	1    7500 2150
	-1   0    0    -1  
$EndComp
$Comp
L Transistor_FET:PSMN5R2-60YL Q7
U 1 1 5E368511
P 5450 2100
F 0 "Q7" H 5655 2146 50  0000 L CNN
F 1 "BUK9Y2R8-40H" H 5655 2055 50  0000 L CNN
F 2 "Package_TO_SOT_SMD:LFPAK56" H 5600 2100 50  0001 C CNN
F 3 "https://assets.nexperia.com/documents/data-sheet/PSMN5R2-60YL.pdf" H 5450 2100 50  0001 C CNN
	1    5450 2100
	-1   0    0    -1  
$EndComp
$EndSCHEMATC
