EESchema Schematic File Version 4
EELAYER 30 0
EELAYER END
$Descr A4 11693 8268
encoding utf-8
Sheet 3 8
Title ""
Date ""
Rev ""
Comp ""
Comment1 ""
Comment2 ""
Comment3 ""
Comment4 ""
$EndDescr
Text HLabel 1550 2750 0    60   Input ~ 0
IsolatedPower12V
Text HLabel 1550 3150 0    60   Input ~ 0
IsolatedPowerGnd
$Comp
L antaveiv:B1212S U6
U 1 1 5DB5EC41
P 4650 2800
F 0 "U6" H 4650 2600 39  0000 C CNN
F 1 "B1212S" H 4650 3000 39  0001 C CNN
F 2 "kicad-footprints-antaveiv:DCDC_B_S-1W" H 3750 3100 39  0001 C CNN
F 3 "" H 3750 3100 39  0001 C CNN
	1    4650 2800
	1    0    0    -1  
$EndComp
$Comp
L antaveiv:B1212S U8
U 1 1 5DB5ED12
P 4650 4050
F 0 "U8" H 4650 3850 39  0000 C CNN
F 1 "B1212S" H 4650 4250 39  0001 C CNN
F 2 "kicad-footprints-antaveiv:DCDC_B_S-1W" H 3750 4350 39  0001 C CNN
F 3 "" H 3750 4350 39  0001 C CNN
	1    4650 4050
	1    0    0    -1  
$EndComp
Wire Wire Line
	5600 4350 5600 4400
$Comp
L Device:CP C22
U 1 1 5DB5EF59
P 2150 2950
F 0 "C22" H 2175 3050 50  0000 L CNN
F 1 "220uF 50V" H 2175 2850 50  0000 L CNN
F 2 "Capacitor_SMD:CP_Elec_8x5.4" H 2188 2800 50  0001 C CNN
F 3 "" H 2150 2950 50  0001 C CNN
	1    2150 2950
	1    0    0    -1  
$EndComp
Wire Wire Line
	2150 2800 2150 2750
Connection ~ 2150 2750
Wire Wire Line
	5600 3100 5600 3150
Wire Wire Line
	5100 4000 5150 4000
$Comp
L power:GND #PWR042
U 1 1 5DB5F0DB
P 7250 4500
F 0 "#PWR042" H 7250 4250 50  0001 C CNN
F 1 "GND" H 7250 4350 50  0000 C CNN
F 2 "" H 7250 4500 50  0001 C CNN
F 3 "" H 7250 4500 50  0001 C CNN
	1    7250 4500
	1    0    0    -1  
$EndComp
Connection ~ 5600 4400
Wire Wire Line
	5100 3150 5150 3150
$Comp
L Device:C C23
U 1 1 5DB7457A
P 3850 2950
F 0 "C23" H 3875 3050 50  0000 L CNN
F 1 "2.2uF 35V" H 3875 2850 50  0000 L CNN
F 2 "Capacitor_SMD:C_0805_2012Metric" H 3888 2800 50  0001 C CNN
F 3 "" H 3850 2950 50  0001 C CNN
	1    3850 2950
	1    0    0    -1  
$EndComp
Text Notes 3850 2500 1    60   ~ 0
2.2uF at 12V supply is recommended by MORNSUN
$Comp
L Device:C C27
U 1 1 5DB7486F
P 3850 4200
F 0 "C27" H 3875 4300 50  0000 L CNN
F 1 "2.2uF 35V" H 3875 4100 50  0000 L CNN
F 2 "Capacitor_SMD:C_0805_2012Metric" H 3888 4050 50  0001 C CNN
F 3 "" H 3850 4200 50  0001 C CNN
	1    3850 4200
	1    0    0    -1  
$EndComp
Wire Wire Line
	1600 4400 1650 4400
Wire Wire Line
	3850 4400 3850 4350
Wire Wire Line
	3600 4000 3850 4000
Wire Wire Line
	3850 4000 3850 4050
Wire Wire Line
	1550 3150 1650 3150
Wire Wire Line
	3850 3150 3850 3100
Wire Wire Line
	3600 2750 3850 2750
Wire Wire Line
	3850 2750 3850 2800
$Comp
L Device:Ferrite_Bead FB1
U 1 1 5DB74A64
P 3450 2750
F 0 "FB1" V 3300 2775 50  0000 C CNN
F 1 "Ferrite_Bead" V 3600 2750 50  0000 C CNN
F 2 "Resistor_SMD:R_0603_1608Metric" V 3380 2750 50  0001 C CNN
F 3 "" H 3450 2750 50  0001 C CNN
	1    3450 2750
	0    1    1    0   
$EndComp
$Comp
L Device:Ferrite_Bead FB3
U 1 1 5DB74AEB
P 3450 4000
F 0 "FB3" V 3300 4025 50  0000 C CNN
F 1 "Ferrite_Bead" V 3600 4000 50  0000 C CNN
F 2 "Resistor_SMD:R_0603_1608Metric" V 3380 4000 50  0001 C CNN
F 3 "" H 3450 4000 50  0001 C CNN
	1    3450 4000
	0    1    1    0   
$EndComp
Connection ~ 3850 2750
Connection ~ 3850 4000
Connection ~ 3850 3150
Wire Wire Line
	1650 3150 1650 4400
Connection ~ 1650 3150
Connection ~ 1650 4400
Connection ~ 3850 4400
Wire Wire Line
	2150 3100 2150 3150
Connection ~ 2150 3150
Wire Wire Line
	3100 4000 3300 4000
Connection ~ 3100 2750
$Comp
L Device:C C29
U 1 1 5DB74F7E
P 5600 4200
F 0 "C29" H 5625 4300 50  0000 L CNN
F 1 "2.2uF 35V" H 5625 4100 50  0000 L CNN
F 2 "Capacitor_SMD:C_0805_2012Metric" H 5638 4050 50  0001 C CNN
F 3 "" H 5600 4200 50  0001 C CNN
	1    5600 4200
	1    0    0    -1  
$EndComp
$Comp
L Device:C C25
U 1 1 5DB74FE2
P 5600 2950
F 0 "C25" H 5625 3050 50  0000 L CNN
F 1 "2.2uF 35V" H 5625 2850 50  0000 L CNN
F 2 "Capacitor_SMD:C_0805_2012Metric" H 5638 2800 50  0001 C CNN
F 3 "" H 5600 2950 50  0001 C CNN
	1    5600 2950
	1    0    0    -1  
$EndComp
Wire Wire Line
	5100 2750 5150 2750
Wire Wire Line
	5600 2750 5600 2800
Connection ~ 5600 3150
Connection ~ 5600 4000
$Comp
L Device:Ferrite_Bead FB2
U 1 1 5DB75410
P 6950 2750
F 0 "FB2" V 6800 2775 50  0000 C CNN
F 1 "Ferrite_Bead" V 7100 2750 50  0000 C CNN
F 2 "Resistor_SMD:R_0603_1608Metric" V 6880 2750 50  0001 C CNN
F 3 "" H 6950 2750 50  0001 C CNN
	1    6950 2750
	0    1    1    0   
$EndComp
$Comp
L Device:Ferrite_Bead FB4
U 1 1 5DB75556
P 6750 4000
F 0 "FB4" V 6600 4025 50  0000 C CNN
F 1 "Ferrite_Bead" V 6900 4000 50  0000 C CNN
F 2 "Resistor_SMD:R_0603_1608Metric" V 6680 4000 50  0001 C CNN
F 3 "" H 6750 4000 50  0001 C CNN
	1    6750 4000
	0    1    1    0   
$EndComp
Connection ~ 5600 2750
$Comp
L power:+12V #PWR039
U 1 1 5DB7580C
P 7250 3950
F 0 "#PWR039" H 7250 3800 50  0001 C CNN
F 1 "+12V" H 7250 4090 50  0000 C CNN
F 2 "" H 7250 3950 50  0001 C CNN
F 3 "" H 7250 3950 50  0001 C CNN
	1    7250 3950
	1    0    0    -1  
$EndComp
Wire Wire Line
	6900 4000 7050 4000
$Comp
L power:+24V #PWR038
U 1 1 5DB758A2
P 7550 2750
F 0 "#PWR038" H 7550 2600 50  0001 C CNN
F 1 "+24V" H 7550 2890 50  0000 C CNN
F 2 "" H 7550 2750 50  0001 C CNN
F 3 "" H 7550 2750 50  0001 C CNN
	1    7550 2750
	1    0    0    -1  
$EndComp
Wire Wire Line
	7550 2750 7300 2750
$Comp
L Device:R_Small R29
U 1 1 5DC36F32
P 6400 2950
F 0 "R29" V 6480 2950 50  0000 C CNN
F 1 "1K" V 6400 2950 50  0000 C CNN
F 2 "Resistor_SMD:R_0603_1608Metric" V 6330 2950 50  0001 C CNN
F 3 "" H 6400 2950 50  0001 C CNN
	1    6400 2950
	1    0    0    -1  
$EndComp
Connection ~ 6400 2750
$Comp
L Device:R_Small R30
U 1 1 5DC370A5
P 6400 4200
F 0 "R30" V 6480 4200 50  0000 C CNN
F 1 "1K" V 6400 4200 50  0000 C CNN
F 2 "Resistor_SMD:R_0603_1608Metric" V 6330 4200 50  0001 C CNN
F 3 "" H 6400 4200 50  0001 C CNN
	1    6400 4200
	1    0    0    -1  
$EndComp
Connection ~ 6400 4000
Text Notes 6400 2600 1    60   ~ 0
provide some load to converter, needs at least 10% load
$Comp
L Device:C C30
U 1 1 5DC37CD9
P 6100 4200
F 0 "C30" H 6125 4300 50  0000 L CNN
F 1 "10nF" H 6125 4100 50  0000 L CNN
F 2 "Capacitor_SMD:C_0603_1608Metric" H 6138 4050 50  0001 C CNN
F 3 "" H 6100 4200 50  0001 C CNN
	1    6100 4200
	1    0    0    -1  
$EndComp
$Comp
L Device:C C26
U 1 1 5DC37D5F
P 6100 2950
F 0 "C26" H 6125 3050 50  0000 L CNN
F 1 "10nF" H 6125 2850 50  0000 L CNN
F 2 "Capacitor_SMD:C_0603_1608Metric" H 6138 2800 50  0001 C CNN
F 3 "" H 6100 2950 50  0001 C CNN
	1    6100 2950
	1    0    0    -1  
$EndComp
Wire Wire Line
	6100 2750 6100 2800
Connection ~ 6100 2750
Wire Wire Line
	6100 3100 6100 3150
Connection ~ 6100 3150
Wire Wire Line
	6100 4000 6100 4050
Connection ~ 6100 4000
Wire Wire Line
	7250 3950 7250 4000
$Comp
L Device:C C31
U 1 1 5DC829BF
P 7250 4200
F 0 "C31" H 7275 4300 50  0000 L CNN
F 1 "0.1uF" H 7275 4100 50  0000 L CNN
F 2 "Capacitor_SMD:C_0603_1608Metric" H 7288 4050 50  0001 C CNN
F 3 "" H 7250 4200 50  0001 C CNN
	1    7250 4200
	1    0    0    -1  
$EndComp
Connection ~ 7250 4000
Wire Wire Line
	7250 4000 7250 4050
Wire Wire Line
	7750 4300 7750 4450
Wire Wire Line
	7250 4350 7250 4450
$Comp
L Device:C C32
U 1 1 5DC82EF1
P 8500 4200
F 0 "C32" H 8525 4300 50  0000 L CNN
F 1 "1uF" H 8525 4100 50  0000 L CNN
F 2 "Capacitor_SMD:C_0603_1608Metric" H 8538 4050 50  0001 C CNN
F 3 "" H 8500 4200 50  0001 C CNN
	1    8500 4200
	1    0    0    -1  
$EndComp
Wire Wire Line
	8750 4000 8750 3950
Wire Wire Line
	8500 4000 8500 4050
Connection ~ 8500 4000
$Comp
L power:+5V #PWR040
U 1 1 5DC8315F
P 8750 3950
F 0 "#PWR040" H 8750 3800 50  0001 C CNN
F 1 "+5V" H 8750 4090 50  0000 C CNN
F 2 "" H 8750 3950 50  0001 C CNN
F 3 "" H 8750 3950 50  0001 C CNN
	1    8750 3950
	1    0    0    -1  
$EndComp
$Comp
L Connector_Generic:Conn_01x01 J6
U 1 1 5DDD76B3
P 1400 4400
F 0 "J6" H 1400 4500 50  0000 C CNN
F 1 "Conn_01x01" H 1400 4300 50  0000 C CNN
F 2 "Connector_PinHeader_2.54mm:PinHeader_1x01_P2.54mm_Vertical" H 1400 4400 50  0001 C CNN
F 3 "" H 1400 4400 50  0001 C CNN
	1    1400 4400
	-1   0    0    1   
$EndComp
Text Notes 1100 4650 0    60   ~ 0
test point
$Comp
L Regulator_Linear:LD3985G18R_TSOT23 U9
U 1 1 5DDECE47
P 9300 4100
F 0 "U9" H 9140 4320 50  0000 C CNN
F 1 "LD3985G18R_TSOT23" H 9300 4320 50  0000 L CNN
F 2 "Package_TO_SOT_SMD:TSOT-23-5" H 9300 4425 50  0001 C CIN
F 3 "" H 9300 4150 50  0001 C CNN
	1    9300 4100
	1    0    0    -1  
$EndComp
$Comp
L Device:C C34
U 1 1 5DDECF5F
P 9750 4250
F 0 "C34" H 9775 4350 50  0000 L CNN
F 1 "10nF" H 9775 4150 50  0000 L CNN
F 2 "Capacitor_SMD:C_0603_1608Metric" H 9788 4100 50  0001 C CNN
F 3 "" H 9750 4250 50  0001 C CNN
	1    9750 4250
	1    0    0    -1  
$EndComp
Wire Wire Line
	9750 4400 9750 4450
Wire Wire Line
	9600 4100 9750 4100
$Comp
L Device:C C33
U 1 1 5DDED750
P 10550 4200
F 0 "C33" H 10575 4300 50  0000 L CNN
F 1 "1uF" H 10575 4100 50  0000 L CNN
F 2 "Capacitor_SMD:C_0603_1608Metric" H 10588 4050 50  0001 C CNN
F 3 "" H 10550 4200 50  0001 C CNN
	1    10550 4200
	1    0    0    1   
$EndComp
Wire Wire Line
	9600 4000 10200 4000
Wire Wire Line
	10550 4050 10550 4000
Connection ~ 10550 4000
Wire Wire Line
	10550 4450 10550 4350
Wire Wire Line
	5600 4450 6100 4450
Connection ~ 9750 4450
Wire Wire Line
	9300 4400 9300 4450
Connection ~ 9300 4450
$Comp
L Connector:TestPoint_Alt TP19
U 1 1 5DDEE4E4
P 7300 2700
F 0 "TP19" H 7300 3000 50  0000 C BNN
F 1 "TEST" H 7300 2950 50  0000 C CNN
F 2 "TestPoint:TestPoint_Pad_D1.0mm" H 7300 2700 50  0001 C CNN
F 3 "" H 7300 2700 50  0001 C CNN
	1    7300 2700
	1    0    0    -1  
$EndComp
Wire Wire Line
	7300 2700 7300 2750
Connection ~ 7300 2750
Connection ~ 8750 4000
$Comp
L power:+3V0 #PWR041
U 1 1 5DDEE876
P 10750 4000
F 0 "#PWR041" H 10750 3850 50  0001 C CNN
F 1 "+3V0" H 10750 4140 50  0000 C CNN
F 2 "" H 10750 4000 50  0000 C CNN
F 3 "" H 10750 4000 50  0000 C CNN
	1    10750 4000
	1    0    0    -1  
$EndComp
Wire Wire Line
	8050 4000 8200 4000
Wire Wire Line
	5600 4400 5150 4400
Wire Wire Line
	7250 4500 7250 4450
Connection ~ 7250 4450
Connection ~ 7750 4450
Wire Wire Line
	8500 4350 8500 4450
Connection ~ 8500 4450
Wire Wire Line
	9000 4100 8950 4100
Wire Wire Line
	8950 4100 8950 4000
Connection ~ 8950 4000
Wire Wire Line
	2150 2750 2550 2750
Wire Wire Line
	5600 4400 5600 4450
Wire Wire Line
	3850 2750 4200 2750
Wire Wire Line
	3850 4000 4200 4000
Wire Wire Line
	3850 3150 4200 3150
Wire Wire Line
	1650 3150 2150 3150
Wire Wire Line
	3850 4400 4200 4400
Wire Wire Line
	2150 3150 3850 3150
Wire Wire Line
	3100 2750 3300 2750
Wire Wire Line
	5600 3150 5600 4000
Wire Wire Line
	5600 4000 6100 4000
Wire Wire Line
	5600 4000 5600 4050
Wire Wire Line
	5600 2750 6100 2750
Wire Wire Line
	6400 2750 6800 2750
Wire Wire Line
	6400 4000 6600 4000
Wire Wire Line
	6100 2750 6400 2750
Wire Wire Line
	6100 3150 6400 3150
Wire Wire Line
	6100 4000 6400 4000
Wire Wire Line
	7250 4000 7450 4000
Wire Wire Line
	8500 4000 8750 4000
Wire Wire Line
	10550 4000 10750 4000
Wire Wire Line
	9750 4450 10200 4450
Wire Wire Line
	9300 4450 9750 4450
Wire Wire Line
	7300 2750 7100 2750
Wire Wire Line
	8750 4000 8950 4000
Wire Wire Line
	7250 4450 7750 4450
Wire Wire Line
	7750 4450 8200 4450
Wire Wire Line
	8500 4450 9300 4450
Wire Wire Line
	8950 4000 9000 4000
Connection ~ 6400 4450
Wire Wire Line
	6400 4450 7250 4450
Wire Wire Line
	6100 4450 6100 4350
Connection ~ 6100 4450
Wire Wire Line
	6100 4450 6400 4450
$Comp
L Connector:TestPoint_Alt TP20
U 1 1 5DEC2D65
P 7050 3950
F 0 "TP20" H 7050 4250 50  0000 C BNN
F 1 "TEST" H 7050 4200 50  0000 C CNN
F 2 "TestPoint:TestPoint_Pad_D1.0mm" H 7050 3950 50  0001 C CNN
F 3 "" H 7050 3950 50  0001 C CNN
	1    7050 3950
	1    0    0    -1  
$EndComp
Wire Wire Line
	7050 3950 7050 4000
Connection ~ 7050 4000
Wire Wire Line
	7050 4000 7250 4000
Wire Wire Line
	6400 2750 6400 2850
Wire Wire Line
	6400 3050 6400 3150
Wire Wire Line
	6400 4000 6400 4100
Wire Wire Line
	6400 4300 6400 4450
$Comp
L Connector:TestPoint_Alt TP21
U 1 1 5E62B5F3
P 8950 4000
F 0 "TP21" H 8950 4300 50  0000 C BNN
F 1 "TEST" H 8950 4250 50  0000 C CNN
F 2 "TestPoint:TestPoint_Pad_D1.0mm" H 8950 4000 50  0001 C CNN
F 3 "" H 8950 4000 50  0001 C CNN
	1    8950 4000
	1    0    0    -1  
$EndComp
$Comp
L Connector:TestPoint_Alt TP22
U 1 1 5E62BB9E
P 10550 4000
F 0 "TP22" H 10550 4300 50  0000 C BNN
F 1 "TEST" H 10550 4250 50  0000 C CNN
F 2 "TestPoint:TestPoint_Pad_D1.0mm" H 10550 4000 50  0001 C CNN
F 3 "" H 10550 4000 50  0001 C CNN
	1    10550 4000
	1    0    0    -1  
$EndComp
$Comp
L Device:CP C24
U 1 1 5E64266E
P 5150 2950
F 0 "C24" H 5175 3050 50  0000 L CNN
F 1 "10uF 50V" H 5175 2850 50  0000 L CNN
F 2 "Capacitor_SMD:CP_Elec_5x5.8" H 5188 2800 50  0001 C CNN
F 3 "" H 5150 2950 50  0001 C CNN
	1    5150 2950
	1    0    0    -1  
$EndComp
$Comp
L Device:CP C28
U 1 1 5E642F47
P 5150 4200
F 0 "C28" H 5175 4300 50  0000 L CNN
F 1 "10uF 50V" H 5175 4100 50  0000 L CNN
F 2 "Capacitor_SMD:CP_Elec_5x5.8" H 5188 4050 50  0001 C CNN
F 3 "" H 5150 4200 50  0001 C CNN
	1    5150 4200
	1    0    0    -1  
$EndComp
Wire Wire Line
	5150 2800 5150 2750
Connection ~ 5150 2750
Wire Wire Line
	5150 2750 5600 2750
Wire Wire Line
	5150 3100 5150 3150
Connection ~ 5150 3150
Wire Wire Line
	5150 3150 5600 3150
Wire Wire Line
	5150 4050 5150 4000
Connection ~ 5150 4000
Wire Wire Line
	5150 4000 5600 4000
Wire Wire Line
	5150 4350 5150 4400
Connection ~ 5150 4400
Wire Wire Line
	5150 4400 5100 4400
$Comp
L Device:CP C35
U 1 1 5E66EA87
P 10200 4250
F 0 "C35" H 10225 4350 50  0000 L CNN
F 1 "10uF 50V" H 10225 4150 50  0000 L CNN
F 2 "Capacitor_SMD:CP_Elec_5x5.8" H 10238 4100 50  0001 C CNN
F 3 "" H 10200 4250 50  0001 C CNN
	1    10200 4250
	1    0    0    -1  
$EndComp
Wire Wire Line
	10200 4100 10200 4000
Connection ~ 10200 4000
Wire Wire Line
	10200 4000 10550 4000
Wire Wire Line
	10200 4400 10200 4450
Connection ~ 10200 4450
Wire Wire Line
	10200 4450 10550 4450
$Comp
L Device:CP C54
U 1 1 5F44B37F
P 8200 4200
F 0 "C54" H 8225 4300 50  0000 L CNN
F 1 "10uF 50V" H 8225 4100 50  0000 L CNN
F 2 "Capacitor_SMD:CP_Elec_5x5.8" H 8238 4050 50  0001 C CNN
F 3 "" H 8200 4200 50  0001 C CNN
	1    8200 4200
	1    0    0    -1  
$EndComp
Wire Wire Line
	8200 4350 8200 4450
Connection ~ 8200 4450
Wire Wire Line
	8200 4450 8500 4450
Wire Wire Line
	8200 4050 8200 4000
Connection ~ 8200 4000
Wire Wire Line
	8200 4000 8500 4000
$Comp
L power:-5V #PWR0103
U 1 1 5F834FF4
P 6850 5150
F 0 "#PWR0103" H 6850 5250 50  0001 C CNN
F 1 "-5V" H 6850 5300 50  0000 C CNN
F 2 "" H 6850 5150 50  0001 C CNN
F 3 "" H 6850 5150 50  0001 C CNN
	1    6850 5150
	1    0    0    -1  
$EndComp
$Comp
L Device:C C55
U 1 1 5F835392
P 6850 5350
F 0 "C55" H 6875 5450 50  0000 L CNN
F 1 "10nF" H 6875 5250 50  0000 L CNN
F 2 "Capacitor_SMD:C_0603_1608Metric" H 6888 5200 50  0001 C CNN
F 3 "" H 6850 5350 50  0001 C CNN
	1    6850 5350
	1    0    0    -1  
$EndComp
$Comp
L power:GND #PWR0109
U 1 1 5F83580D
P 6850 5550
F 0 "#PWR0109" H 6850 5300 50  0001 C CNN
F 1 "GND" H 6850 5400 50  0000 C CNN
F 2 "" H 6850 5550 50  0001 C CNN
F 3 "" H 6850 5550 50  0001 C CNN
	1    6850 5550
	1    0    0    -1  
$EndComp
Wire Wire Line
	6850 5150 6850 5200
Wire Wire Line
	6850 5500 6850 5550
Wire Wire Line
	7150 5500 7150 5550
Wire Wire Line
	7150 5150 7150 5200
$Comp
L power:GND #PWR0110
U 1 1 5F83FB7D
P 7150 5550
F 0 "#PWR0110" H 7150 5300 50  0001 C CNN
F 1 "GND" H 7150 5400 50  0000 C CNN
F 2 "" H 7150 5550 50  0001 C CNN
F 3 "" H 7150 5550 50  0001 C CNN
	1    7150 5550
	1    0    0    -1  
$EndComp
$Comp
L Device:C C56
U 1 1 5F83FB73
P 7150 5350
F 0 "C56" H 7175 5450 50  0000 L CNN
F 1 "10nF" H 7175 5250 50  0000 L CNN
F 2 "Capacitor_SMD:C_0603_1608Metric" H 7188 5200 50  0001 C CNN
F 3 "" H 7150 5350 50  0001 C CNN
	1    7150 5350
	1    0    0    -1  
$EndComp
$Comp
L power:-5V #PWR0111
U 1 1 5F83FB69
P 7150 5150
F 0 "#PWR0111" H 7150 5250 50  0001 C CNN
F 1 "-5V" H 7150 5300 50  0000 C CNN
F 2 "" H 7150 5150 50  0001 C CNN
F 3 "" H 7150 5150 50  0001 C CNN
	1    7150 5150
	1    0    0    -1  
$EndComp
Wire Wire Line
	7450 5500 7450 5550
Wire Wire Line
	7450 5150 7450 5200
$Comp
L power:GND #PWR0112
U 1 1 5F858D11
P 7450 5550
F 0 "#PWR0112" H 7450 5300 50  0001 C CNN
F 1 "GND" H 7450 5400 50  0000 C CNN
F 2 "" H 7450 5550 50  0001 C CNN
F 3 "" H 7450 5550 50  0001 C CNN
	1    7450 5550
	1    0    0    -1  
$EndComp
$Comp
L Device:C C57
U 1 1 5F858D1B
P 7450 5350
F 0 "C57" H 7475 5450 50  0000 L CNN
F 1 "10nF" H 7475 5250 50  0000 L CNN
F 2 "Capacitor_SMD:C_0603_1608Metric" H 7488 5200 50  0001 C CNN
F 3 "" H 7450 5350 50  0001 C CNN
	1    7450 5350
	1    0    0    -1  
$EndComp
$Comp
L power:-5V #PWR0113
U 1 1 5F858D25
P 7450 5150
F 0 "#PWR0113" H 7450 5250 50  0001 C CNN
F 1 "-5V" H 7450 5300 50  0000 C CNN
F 2 "" H 7450 5150 50  0001 C CNN
F 3 "" H 7450 5150 50  0001 C CNN
	1    7450 5150
	1    0    0    -1  
$EndComp
$Comp
L Device:C C65
U 1 1 5F869354
P 7900 5350
F 0 "C65" H 7925 5450 50  0000 L CNN
F 1 "10nF" H 7925 5250 50  0000 L CNN
F 2 "Capacitor_SMD:C_0603_1608Metric" H 7938 5200 50  0001 C CNN
F 3 "" H 7900 5350 50  0001 C CNN
	1    7900 5350
	1    0    0    -1  
$EndComp
$Comp
L power:GND #PWR0114
U 1 1 5F86935E
P 7900 5550
F 0 "#PWR0114" H 7900 5300 50  0001 C CNN
F 1 "GND" H 7900 5400 50  0000 C CNN
F 2 "" H 7900 5550 50  0001 C CNN
F 3 "" H 7900 5550 50  0001 C CNN
	1    7900 5550
	1    0    0    -1  
$EndComp
Wire Wire Line
	7900 5150 7900 5200
Wire Wire Line
	7900 5500 7900 5550
Wire Wire Line
	8200 5500 8200 5550
Wire Wire Line
	8200 5150 8200 5200
$Comp
L power:GND #PWR0115
U 1 1 5F86936C
P 8200 5550
F 0 "#PWR0115" H 8200 5300 50  0001 C CNN
F 1 "GND" H 8200 5400 50  0000 C CNN
F 2 "" H 8200 5550 50  0001 C CNN
F 3 "" H 8200 5550 50  0001 C CNN
	1    8200 5550
	1    0    0    -1  
$EndComp
$Comp
L Device:C C66
U 1 1 5F869376
P 8200 5350
F 0 "C66" H 8225 5450 50  0000 L CNN
F 1 "10nF" H 8225 5250 50  0000 L CNN
F 2 "Capacitor_SMD:C_0603_1608Metric" H 8238 5200 50  0001 C CNN
F 3 "" H 8200 5350 50  0001 C CNN
	1    8200 5350
	1    0    0    -1  
$EndComp
Wire Wire Line
	8500 5500 8500 5550
Wire Wire Line
	8500 5150 8500 5200
$Comp
L power:GND #PWR0116
U 1 1 5F86938C
P 8500 5550
F 0 "#PWR0116" H 8500 5300 50  0001 C CNN
F 1 "GND" H 8500 5400 50  0000 C CNN
F 2 "" H 8500 5550 50  0001 C CNN
F 3 "" H 8500 5550 50  0001 C CNN
	1    8500 5550
	1    0    0    -1  
$EndComp
$Comp
L Device:C C67
U 1 1 5F869396
P 8500 5350
F 0 "C67" H 8525 5450 50  0000 L CNN
F 1 "10nF" H 8525 5250 50  0000 L CNN
F 2 "Capacitor_SMD:C_0603_1608Metric" H 8538 5200 50  0001 C CNN
F 3 "" H 8500 5350 50  0001 C CNN
	1    8500 5350
	1    0    0    -1  
$EndComp
$Comp
L power:+3V0 #PWR0117
U 1 1 5F8744EE
P 7900 5150
F 0 "#PWR0117" H 7900 5000 50  0001 C CNN
F 1 "+3V0" H 7900 5290 50  0000 C CNN
F 2 "" H 7900 5150 50  0000 C CNN
F 3 "" H 7900 5150 50  0000 C CNN
	1    7900 5150
	1    0    0    -1  
$EndComp
$Comp
L power:+3V0 #PWR0118
U 1 1 5F874A4A
P 8200 5150
F 0 "#PWR0118" H 8200 5000 50  0001 C CNN
F 1 "+3V0" H 8200 5290 50  0000 C CNN
F 2 "" H 8200 5150 50  0000 C CNN
F 3 "" H 8200 5150 50  0000 C CNN
	1    8200 5150
	1    0    0    -1  
$EndComp
$Comp
L power:+3V0 #PWR0119
U 1 1 5F874E8B
P 8500 5150
F 0 "#PWR0119" H 8500 5000 50  0001 C CNN
F 1 "+3V0" H 8500 5290 50  0000 C CNN
F 2 "" H 8500 5150 50  0000 C CNN
F 3 "" H 8500 5150 50  0000 C CNN
	1    8500 5150
	1    0    0    -1  
$EndComp
$Comp
L Device:C C68
U 1 1 5F87979C
P 8950 5350
F 0 "C68" H 8975 5450 50  0000 L CNN
F 1 "10nF" H 8975 5250 50  0000 L CNN
F 2 "Capacitor_SMD:C_0603_1608Metric" H 8988 5200 50  0001 C CNN
F 3 "" H 8950 5350 50  0001 C CNN
	1    8950 5350
	1    0    0    -1  
$EndComp
$Comp
L power:GND #PWR0120
U 1 1 5F8797A6
P 8950 5550
F 0 "#PWR0120" H 8950 5300 50  0001 C CNN
F 1 "GND" H 8950 5400 50  0000 C CNN
F 2 "" H 8950 5550 50  0001 C CNN
F 3 "" H 8950 5550 50  0001 C CNN
	1    8950 5550
	1    0    0    -1  
$EndComp
Wire Wire Line
	8950 5150 8950 5200
Wire Wire Line
	8950 5500 8950 5550
Wire Wire Line
	9250 5500 9250 5550
Wire Wire Line
	9250 5150 9250 5200
$Comp
L power:GND #PWR0121
U 1 1 5F8797B4
P 9250 5550
F 0 "#PWR0121" H 9250 5300 50  0001 C CNN
F 1 "GND" H 9250 5400 50  0000 C CNN
F 2 "" H 9250 5550 50  0001 C CNN
F 3 "" H 9250 5550 50  0001 C CNN
	1    9250 5550
	1    0    0    -1  
$EndComp
$Comp
L Device:C C69
U 1 1 5F8797BE
P 9250 5350
F 0 "C69" H 9275 5450 50  0000 L CNN
F 1 "10nF" H 9275 5250 50  0000 L CNN
F 2 "Capacitor_SMD:C_0603_1608Metric" H 9288 5200 50  0001 C CNN
F 3 "" H 9250 5350 50  0001 C CNN
	1    9250 5350
	1    0    0    -1  
$EndComp
Wire Wire Line
	9550 5500 9550 5550
Wire Wire Line
	9550 5150 9550 5200
$Comp
L power:GND #PWR0122
U 1 1 5F8797CA
P 9550 5550
F 0 "#PWR0122" H 9550 5300 50  0001 C CNN
F 1 "GND" H 9550 5400 50  0000 C CNN
F 2 "" H 9550 5550 50  0001 C CNN
F 3 "" H 9550 5550 50  0001 C CNN
	1    9550 5550
	1    0    0    -1  
$EndComp
$Comp
L Device:C C70
U 1 1 5F8797D4
P 9550 5350
F 0 "C70" H 9575 5450 50  0000 L CNN
F 1 "10nF" H 9575 5250 50  0000 L CNN
F 2 "Capacitor_SMD:C_0603_1608Metric" H 9588 5200 50  0001 C CNN
F 3 "" H 9550 5350 50  0001 C CNN
	1    9550 5350
	1    0    0    -1  
$EndComp
$Comp
L power:+5V #PWR0123
U 1 1 5F882804
P 8950 5150
F 0 "#PWR0123" H 8950 5000 50  0001 C CNN
F 1 "+5V" H 8950 5290 50  0000 C CNN
F 2 "" H 8950 5150 50  0001 C CNN
F 3 "" H 8950 5150 50  0001 C CNN
	1    8950 5150
	1    0    0    -1  
$EndComp
$Comp
L power:+5V #PWR0124
U 1 1 5F8845A5
P 9250 5150
F 0 "#PWR0124" H 9250 5000 50  0001 C CNN
F 1 "+5V" H 9250 5290 50  0000 C CNN
F 2 "" H 9250 5150 50  0001 C CNN
F 3 "" H 9250 5150 50  0001 C CNN
	1    9250 5150
	1    0    0    -1  
$EndComp
$Comp
L power:+5V #PWR0125
U 1 1 5F8849A1
P 9550 5150
F 0 "#PWR0125" H 9550 5000 50  0001 C CNN
F 1 "+5V" H 9550 5290 50  0000 C CNN
F 2 "" H 9550 5150 50  0001 C CNN
F 3 "" H 9550 5150 50  0001 C CNN
	1    9550 5150
	1    0    0    -1  
$EndComp
$Comp
L Device:C C71
U 1 1 5F888871
P 10000 5350
F 0 "C71" H 10025 5450 50  0000 L CNN
F 1 "10nF" H 10025 5250 50  0000 L CNN
F 2 "Capacitor_SMD:C_0603_1608Metric" H 10038 5200 50  0001 C CNN
F 3 "" H 10000 5350 50  0001 C CNN
	1    10000 5350
	1    0    0    -1  
$EndComp
$Comp
L power:GND #PWR0126
U 1 1 5F88887B
P 10000 5550
F 0 "#PWR0126" H 10000 5300 50  0001 C CNN
F 1 "GND" H 10000 5400 50  0000 C CNN
F 2 "" H 10000 5550 50  0001 C CNN
F 3 "" H 10000 5550 50  0001 C CNN
	1    10000 5550
	1    0    0    -1  
$EndComp
Wire Wire Line
	10000 5150 10000 5200
Wire Wire Line
	10000 5500 10000 5550
Wire Wire Line
	10300 5500 10300 5550
Wire Wire Line
	10300 5150 10300 5200
$Comp
L power:GND #PWR0127
U 1 1 5F888889
P 10300 5550
F 0 "#PWR0127" H 10300 5300 50  0001 C CNN
F 1 "GND" H 10300 5400 50  0000 C CNN
F 2 "" H 10300 5550 50  0001 C CNN
F 3 "" H 10300 5550 50  0001 C CNN
	1    10300 5550
	1    0    0    -1  
$EndComp
$Comp
L Device:C C72
U 1 1 5F888893
P 10300 5350
F 0 "C72" H 10325 5450 50  0000 L CNN
F 1 "10nF" H 10325 5250 50  0000 L CNN
F 2 "Capacitor_SMD:C_0603_1608Metric" H 10338 5200 50  0001 C CNN
F 3 "" H 10300 5350 50  0001 C CNN
	1    10300 5350
	1    0    0    -1  
$EndComp
Wire Wire Line
	10600 5500 10600 5550
Wire Wire Line
	10600 5150 10600 5200
$Comp
L power:GND #PWR0128
U 1 1 5F88889F
P 10600 5550
F 0 "#PWR0128" H 10600 5300 50  0001 C CNN
F 1 "GND" H 10600 5400 50  0000 C CNN
F 2 "" H 10600 5550 50  0001 C CNN
F 3 "" H 10600 5550 50  0001 C CNN
	1    10600 5550
	1    0    0    -1  
$EndComp
$Comp
L Device:C C73
U 1 1 5F8888A9
P 10600 5350
F 0 "C73" H 10625 5450 50  0000 L CNN
F 1 "10nF" H 10625 5250 50  0000 L CNN
F 2 "Capacitor_SMD:C_0603_1608Metric" H 10638 5200 50  0001 C CNN
F 3 "" H 10600 5350 50  0001 C CNN
	1    10600 5350
	1    0    0    -1  
$EndComp
$Comp
L power:+24V #PWR0129
U 1 1 5F894BE5
P 10000 5150
F 0 "#PWR0129" H 10000 5000 50  0001 C CNN
F 1 "+24V" H 10000 5290 50  0000 C CNN
F 2 "" H 10000 5150 50  0001 C CNN
F 3 "" H 10000 5150 50  0001 C CNN
	1    10000 5150
	1    0    0    -1  
$EndComp
$Comp
L power:+24V #PWR0130
U 1 1 5F8952E2
P 10300 5150
F 0 "#PWR0130" H 10300 5000 50  0001 C CNN
F 1 "+24V" H 10300 5290 50  0000 C CNN
F 2 "" H 10300 5150 50  0001 C CNN
F 3 "" H 10300 5150 50  0001 C CNN
	1    10300 5150
	1    0    0    -1  
$EndComp
$Comp
L power:+24V #PWR0131
U 1 1 5F89583C
P 10600 5150
F 0 "#PWR0131" H 10600 5000 50  0001 C CNN
F 1 "+24V" H 10600 5290 50  0000 C CNN
F 2 "" H 10600 5150 50  0001 C CNN
F 3 "" H 10600 5150 50  0001 C CNN
	1    10600 5150
	1    0    0    -1  
$EndComp
Wire Wire Line
	5600 3150 6100 3150
$Comp
L Regulator_Linear:LD1117S50TR_SOT223 U7
U 1 1 5E162AF5
P 7750 4000
F 0 "U7" H 7750 4242 50  0000 C CNN
F 1 "LD1117S50TR_SOT223" H 7750 4151 50  0000 C CNN
F 2 "Package_TO_SOT_SMD:SOT-223-3_TabPin2" H 7750 4200 50  0001 C CNN
F 3 "http://www.st.com/st-web-ui/static/active/en/resource/technical/document/datasheet/CD00000544.pdf" H 7850 3750 50  0001 C CNN
	1    7750 4000
	1    0    0    -1  
$EndComp
$Comp
L Device:Polyfuse_Small F1
U 1 1 5E2279DC
P 2650 2750
F 0 "F1" V 2445 2750 50  0000 C CNN
F 1 "100mA" V 2536 2750 50  0000 C CNN
F 2 "Fuse:Fuse_1210_3225Metric_Pad1.42x2.65mm_HandSolder" H 2700 2550 50  0001 L CNN
F 3 "~" H 2650 2750 50  0001 C CNN
	1    2650 2750
	0    1    1    0   
$EndComp
Wire Wire Line
	2750 2750 3100 2750
Wire Wire Line
	3100 2750 3100 4000
Wire Wire Line
	1650 4400 3850 4400
Wire Wire Line
	1550 2750 2150 2750
$Comp
L Device:R_Small R1
U 1 1 5E2BCB62
P 1900 5400
F 0 "R1" V 1980 5400 50  0000 C CNN
F 1 "10K" V 1900 5400 50  0000 C CNN
F 2 "Resistor_SMD:R_0603_1608Metric" V 1830 5400 50  0001 C CNN
F 3 "" H 1900 5400 50  0001 C CNN
	1    1900 5400
	1    0    0    -1  
$EndComp
$Comp
L power:+24V #PWR043
U 1 1 5E2BD047
P 1900 5300
F 0 "#PWR043" H 1900 5150 50  0001 C CNN
F 1 "+24V" H 1900 5440 50  0000 C CNN
F 2 "" H 1900 5300 50  0001 C CNN
F 3 "" H 1900 5300 50  0001 C CNN
	1    1900 5300
	1    0    0    -1  
$EndComp
$Comp
L Device:R_Small R53
U 1 1 5E2BE356
P 1900 5600
F 0 "R53" V 1980 5600 50  0000 C CNN
F 1 "10K" V 1900 5600 50  0000 C CNN
F 2 "Resistor_SMD:R_0603_1608Metric" V 1830 5600 50  0001 C CNN
F 3 "" H 1900 5600 50  0001 C CNN
	1    1900 5600
	1    0    0    -1  
$EndComp
$Comp
L Device:R_Small R58
U 1 1 5E2BE726
P 1900 5800
F 0 "R58" V 1980 5800 50  0000 C CNN
F 1 "4K7" V 1900 5800 50  0000 C CNN
F 2 "Resistor_SMD:R_0603_1608Metric" V 1830 5800 50  0001 C CNN
F 3 "" H 1900 5800 50  0001 C CNN
	1    1900 5800
	1    0    0    -1  
$EndComp
$Comp
L Device:LED D3
U 1 1 5E2BF0E2
P 1900 6050
F 0 "D3" V 1939 5933 50  0000 R CNN
F 1 "LED" V 1848 5933 50  0000 R CNN
F 2 "LED_SMD:LED_0603_1608Metric" H 1900 6050 50  0001 C CNN
F 3 "~" H 1900 6050 50  0001 C CNN
	1    1900 6050
	0    -1   -1   0   
$EndComp
$Comp
L power:GND #PWR048
U 1 1 5E2C03A7
P 1900 6200
F 0 "#PWR048" H 1900 5950 50  0001 C CNN
F 1 "GND" H 1900 6050 50  0000 C CNN
F 2 "" H 1900 6200 50  0001 C CNN
F 3 "" H 1900 6200 50  0001 C CNN
	1    1900 6200
	1    0    0    -1  
$EndComp
$Comp
L Device:R_Small R2
U 1 1 5E2C8475
P 2300 5400
F 0 "R2" V 2380 5400 50  0000 C CNN
F 1 "10K" V 2300 5400 50  0000 C CNN
F 2 "Resistor_SMD:R_0603_1608Metric" V 2230 5400 50  0001 C CNN
F 3 "" H 2300 5400 50  0001 C CNN
	1    2300 5400
	1    0    0    -1  
$EndComp
$Comp
L Device:R_Small R54
U 1 1 5E2C8489
P 2300 5600
F 0 "R54" V 2380 5600 50  0000 C CNN
F 1 "1K" V 2300 5600 50  0000 C CNN
F 2 "Resistor_SMD:R_0603_1608Metric" V 2230 5600 50  0001 C CNN
F 3 "" H 2300 5600 50  0001 C CNN
	1    2300 5600
	1    0    0    -1  
$EndComp
$Comp
L Device:R_Small R73
U 1 1 5E2C8493
P 2300 5800
F 0 "R73" V 2380 5800 50  0000 C CNN
F 1 "1K" V 2300 5800 50  0000 C CNN
F 2 "Resistor_SMD:R_0603_1608Metric" V 2230 5800 50  0001 C CNN
F 3 "" H 2300 5800 50  0001 C CNN
	1    2300 5800
	1    0    0    -1  
$EndComp
$Comp
L Device:LED D4
U 1 1 5E2C849D
P 2300 6050
F 0 "D4" V 2339 5933 50  0000 R CNN
F 1 "LED" V 2248 5933 50  0000 R CNN
F 2 "LED_SMD:LED_0603_1608Metric" H 2300 6050 50  0001 C CNN
F 3 "~" H 2300 6050 50  0001 C CNN
	1    2300 6050
	0    -1   -1   0   
$EndComp
$Comp
L power:GND #PWR049
U 1 1 5E2C84A7
P 2300 6200
F 0 "#PWR049" H 2300 5950 50  0001 C CNN
F 1 "GND" H 2300 6050 50  0000 C CNN
F 2 "" H 2300 6200 50  0001 C CNN
F 3 "" H 2300 6200 50  0001 C CNN
	1    2300 6200
	1    0    0    -1  
$EndComp
$Comp
L power:+12V #PWR044
U 1 1 5E2CFD37
P 2300 5300
F 0 "#PWR044" H 2300 5150 50  0001 C CNN
F 1 "+12V" H 2300 5440 50  0000 C CNN
F 2 "" H 2300 5300 50  0001 C CNN
F 3 "" H 2300 5300 50  0001 C CNN
	1    2300 5300
	1    0    0    -1  
$EndComp
$Comp
L Device:LED D28
U 1 1 5E2D3702
P 2700 6050
F 0 "D28" V 2739 5933 50  0000 R CNN
F 1 "LED" V 2648 5933 50  0000 R CNN
F 2 "LED_SMD:LED_0603_1608Metric" H 2700 6050 50  0001 C CNN
F 3 "~" H 2700 6050 50  0001 C CNN
	1    2700 6050
	0    -1   -1   0   
$EndComp
$Comp
L power:GND #PWR050
U 1 1 5E2D370C
P 2700 6200
F 0 "#PWR050" H 2700 5950 50  0001 C CNN
F 1 "GND" H 2700 6050 50  0000 C CNN
F 2 "" H 2700 6200 50  0001 C CNN
F 3 "" H 2700 6200 50  0001 C CNN
	1    2700 6200
	1    0    0    -1  
$EndComp
$Comp
L Device:R_Small R55
U 1 1 5E2DBD39
P 2700 5600
F 0 "R55" V 2780 5600 50  0000 C CNN
F 1 "4K7" V 2700 5600 50  0000 C CNN
F 2 "Resistor_SMD:R_0603_1608Metric" V 2630 5600 50  0001 C CNN
F 3 "" H 2700 5600 50  0001 C CNN
	1    2700 5600
	1    0    0    -1  
$EndComp
Wire Wire Line
	2700 5500 2700 5300
Wire Wire Line
	2700 5700 2700 5900
$Comp
L power:+5V #PWR045
U 1 1 5E2E5DCA
P 2700 5300
F 0 "#PWR045" H 2700 5150 50  0001 C CNN
F 1 "+5V" H 2700 5440 50  0000 C CNN
F 2 "" H 2700 5300 50  0001 C CNN
F 3 "" H 2700 5300 50  0001 C CNN
	1    2700 5300
	1    0    0    -1  
$EndComp
$Comp
L Device:LED D30
U 1 1 5E2EBFCB
P 3450 6050
F 0 "D30" V 3397 6128 50  0000 L CNN
F 1 "LED" V 3488 6128 50  0000 L CNN
F 2 "LED_SMD:LED_0603_1608Metric" H 3450 6050 50  0001 C CNN
F 3 "~" H 3450 6050 50  0001 C CNN
	1    3450 6050
	0    1    1    0   
$EndComp
$Comp
L power:GND #PWR096
U 1 1 5E2EBFD5
P 3450 6200
F 0 "#PWR096" H 3450 5950 50  0001 C CNN
F 1 "GND" H 3450 6050 50  0000 C CNN
F 2 "" H 3450 6200 50  0001 C CNN
F 3 "" H 3450 6200 50  0001 C CNN
	1    3450 6200
	1    0    0    -1  
$EndComp
$Comp
L Device:R_Small R57
U 1 1 5E2EBFDF
P 3450 5600
F 0 "R57" V 3530 5600 50  0000 C CNN
F 1 "4K7" V 3450 5600 50  0000 C CNN
F 2 "Resistor_SMD:R_0603_1608Metric" V 3380 5600 50  0001 C CNN
F 3 "" H 3450 5600 50  0001 C CNN
	1    3450 5600
	1    0    0    -1  
$EndComp
Wire Wire Line
	3450 5500 3450 5300
Wire Wire Line
	3450 5700 3450 5900
$Comp
L power:-5V #PWR047
U 1 1 5E2F3417
P 3450 5300
F 0 "#PWR047" H 3450 5400 50  0001 C CNN
F 1 "-5V" H 3450 5450 50  0000 C CNN
F 2 "" H 3450 5300 50  0001 C CNN
F 3 "" H 3450 5300 50  0001 C CNN
	1    3450 5300
	1    0    0    -1  
$EndComp
$Comp
L Device:LED D29
U 1 1 5E309EF5
P 3100 6050
F 0 "D29" V 3139 5933 50  0000 R CNN
F 1 "LED" V 3048 5933 50  0000 R CNN
F 2 "LED_SMD:LED_0603_1608Metric" H 3100 6050 50  0001 C CNN
F 3 "~" H 3100 6050 50  0001 C CNN
	1    3100 6050
	0    -1   -1   0   
$EndComp
$Comp
L power:GND #PWR052
U 1 1 5E309EFF
P 3100 6200
F 0 "#PWR052" H 3100 5950 50  0001 C CNN
F 1 "GND" H 3100 6050 50  0000 C CNN
F 2 "" H 3100 6200 50  0001 C CNN
F 3 "" H 3100 6200 50  0001 C CNN
	1    3100 6200
	1    0    0    -1  
$EndComp
$Comp
L Device:R_Small R56
U 1 1 5E309F09
P 3100 5600
F 0 "R56" V 3180 5600 50  0000 C CNN
F 1 "3K" V 3100 5600 50  0000 C CNN
F 2 "Resistor_SMD:R_0603_1608Metric" V 3030 5600 50  0001 C CNN
F 3 "" H 3100 5600 50  0001 C CNN
	1    3100 5600
	1    0    0    -1  
$EndComp
Wire Wire Line
	3100 5500 3100 5300
Wire Wire Line
	3100 5700 3100 5900
$Comp
L power:+3V0 #PWR046
U 1 1 5E318DF2
P 3100 5300
F 0 "#PWR046" H 3100 5150 50  0001 C CNN
F 1 "+3V0" H 3100 5440 50  0000 C CNN
F 2 "" H 3100 5300 50  0000 C CNN
F 3 "" H 3100 5300 50  0000 C CNN
	1    3100 5300
	1    0    0    -1  
$EndComp
$EndSCHEMATC
