EESchema Schematic File Version 4
EELAYER 30 0
EELAYER END
$Descr A4 11693 8268
encoding utf-8
Sheet 5 8
Title ""
Date ""
Rev ""
Comp ""
Comment1 ""
Comment2 ""
Comment3 ""
Comment4 ""
$EndDescr
$Comp
L Isolator:ISO7320C U12
U 1 1 5DC8FCA0
P 4450 2200
F 0 "U12" H 4450 2625 50  0000 C CNN
F 1 "SI8621AB-B-IS" H 4450 2550 50  0000 C CNN
F 2 "Package_SO:SOIC-8_3.9x4.9mm_P1.27mm" H 4450 1850 50  0001 C CIN
F 3 "" H 4450 2200 50  0001 C CNN
	1    4450 2200
	1    0    0    -1  
$EndComp
$Comp
L power:+3V0 #PWR053
U 1 1 5DC3952E
P 4000 1950
F 0 "#PWR053" H 4000 1800 50  0001 C CNN
F 1 "+3V0" H 4000 2090 50  0000 C CNN
F 2 "" H 4000 1950 50  0000 C CNN
F 3 "" H 4000 1950 50  0000 C CNN
	1    4000 1950
	1    0    0    -1  
$EndComp
$Comp
L power:GND #PWR054
U 1 1 5DC8FCA2
P 3550 2100
F 0 "#PWR054" H 3550 1850 50  0001 C CNN
F 1 "GND" H 3550 1950 50  0000 C CNN
F 2 "" H 3550 2100 50  0001 C CNN
F 3 "" H 3550 2100 50  0001 C CNN
	1    3550 2100
	1    0    0    -1  
$EndComp
Text Notes 4100 2600 0    60   ~ 0
isolated TTL UART
$Comp
L cp2102:CP2102 U13
U 1 1 5DC39530
P 7950 4300
F 0 "U13" H 7950 4300 60  0000 C CNN
F 1 "CP2102" H 7900 5300 60  0000 C CNN
F 2 "Package_DFN_QFN:QFN-28-1EP_5x5mm_P0.5mm_EP3.35x3.35mm" H 7950 4300 60  0001 C CNN
F 3 "" H 7950 4300 60  0001 C CNN
	1    7950 4300
	1    0    0    -1  
$EndComp
$Comp
L Connector:USB_OTG J9
U 1 1 5DC39531
P 6050 4250
F 0 "J9" H 5850 4700 50  0000 L CNN
F 1 "USB_OTG" H 5850 4600 50  0000 L CNN
F 2 "kicad-footprints-antaveiv:USB_Micro-B" H 6200 4200 50  0001 C CNN
F 3 "" H 6200 4200 50  0001 C CNN
	1    6050 4250
	1    0    0    -1  
$EndComp
$Comp
L Device:C_Small C44
U 1 1 5DC39532
P 7500 5250
F 0 "C44" H 7510 5320 50  0000 L CNN
F 1 "4.7uF" H 7510 5170 50  0000 L CNN
F 2 "Capacitor_SMD:C_0805_2012Metric" H 7500 5250 50  0001 C CNN
F 3 "" H 7500 5250 50  0001 C CNN
	1    7500 5250
	1    0    0    -1  
$EndComp
$Comp
L Device:C_Small C43
U 1 1 5DC39533
P 7250 5250
F 0 "C43" H 7260 5320 50  0000 L CNN
F 1 "0.1uF" H 7260 5170 50  0000 L CNN
F 2 "Capacitor_SMD:C_0603_1608Metric" H 7250 5250 50  0001 C CNN
F 3 "" H 7250 5250 50  0001 C CNN
	1    7250 5250
	1    0    0    -1  
$EndComp
$Comp
L power:GNDD #PWR059
U 1 1 5DC39534
P 6050 4700
F 0 "#PWR059" H 6050 4450 50  0001 C CNN
F 1 "GNDD" H 6050 4550 50  0000 C CNN
F 2 "" H 6050 4700 50  0001 C CNN
F 3 "" H 6050 4700 50  0001 C CNN
	1    6050 4700
	1    0    0    -1  
$EndComp
$Comp
L power:GNDD #PWR061
U 1 1 5DC39535
P 7250 5450
F 0 "#PWR061" H 7250 5200 50  0001 C CNN
F 1 "GNDD" H 7250 5300 50  0000 C CNN
F 2 "" H 7250 5450 50  0001 C CNN
F 3 "" H 7250 5450 50  0001 C CNN
	1    7250 5450
	1    0    0    -1  
$EndComp
$Comp
L power:GNDD #PWR058
U 1 1 5DC39536
P 7050 4050
F 0 "#PWR058" H 7050 3800 50  0001 C CNN
F 1 "GNDD" H 7050 3900 50  0000 C CNN
F 2 "" H 7050 4050 50  0001 C CNN
F 3 "" H 7050 4050 50  0001 C CNN
	1    7050 4050
	1    0    0    -1  
$EndComp
$Comp
L power:GNDD #PWR057
U 1 1 5DC39537
P 7350 3350
F 0 "#PWR057" H 7350 3100 50  0001 C CNN
F 1 "GNDD" H 7350 3200 50  0000 C CNN
F 2 "" H 7350 3350 50  0001 C CNN
F 3 "" H 7350 3350 50  0001 C CNN
	1    7350 3350
	1    0    0    -1  
$EndComp
$Comp
L power:GNDD #PWR062
U 1 1 5DC39539
P 6500 5950
F 0 "#PWR062" H 6500 5700 50  0001 C CNN
F 1 "GNDD" H 6500 5800 50  0000 C CNN
F 2 "" H 6500 5950 50  0001 C CNN
F 3 "" H 6500 5950 50  0001 C CNN
	1    6500 5950
	1    0    0    -1  
$EndComp
Text Notes 6600 5950 0    60   ~ 0
ESD
Text Label 6750 4450 0    60   ~ 0
USB_3V
Text Label 7800 5450 0    60   ~ 0
USB_3V
Text Label 4900 2300 0    60   ~ 0
PC_RX
Text Label 4900 2400 0    60   ~ 0
PC_TX
$Comp
L Device:C_Small C42
U 1 1 5DC3953A
P 6900 4600
F 0 "C42" H 6910 4670 50  0000 L CNN
F 1 "4.7uF" H 6910 4520 50  0000 L CNN
F 2 "Capacitor_SMD:C_0805_2012Metric" H 6900 4600 50  0001 C CNN
F 3 "" H 6900 4600 50  0001 C CNN
	1    6900 4600
	1    0    0    -1  
$EndComp
$Comp
L Device:C_Small C41
U 1 1 5DC3953B
P 6650 4600
F 0 "C41" H 6660 4670 50  0000 L CNN
F 1 "0.1uF" H 6660 4520 50  0000 L CNN
F 2 "Capacitor_SMD:C_0603_1608Metric" H 6650 4600 50  0001 C CNN
F 3 "" H 6650 4600 50  0001 C CNN
	1    6650 4600
	1    0    0    -1  
$EndComp
$Comp
L power:GNDD #PWR060
U 1 1 5DC3953C
P 6650 4800
F 0 "#PWR060" H 6650 4550 50  0001 C CNN
F 1 "GNDD" H 6650 4650 50  0000 C CNN
F 2 "" H 6650 4800 50  0001 C CNN
F 3 "" H 6650 4800 50  0001 C CNN
	1    6650 4800
	1    0    0    -1  
$EndComp
$Comp
L Connector:TestPoint_Alt TP30
U 1 1 5DC3953D
P 2850 2450
F 0 "TP30" H 2850 2750 50  0000 C BNN
F 1 "TEST" H 2850 2700 50  0000 C CNN
F 2 "TestPoint:TestPoint_Pad_D1.0mm" H 2850 2450 50  0001 C CNN
F 3 "" H 2850 2450 50  0001 C CNN
	1    2850 2450
	-1   0    0    1   
$EndComp
$Comp
L Connector:TestPoint_Alt TP29
U 1 1 5DC3953E
P 2850 2250
F 0 "TP29" H 2850 2550 50  0000 C BNN
F 1 "TEST" H 2850 2500 50  0000 C CNN
F 2 "TestPoint:TestPoint_Pad_D1.0mm" H 2850 2250 50  0001 C CNN
F 3 "" H 2850 2250 50  0001 C CNN
	1    2850 2250
	1    0    0    -1  
$EndComp
$Comp
L Connector:TestPoint_Alt TP32
U 1 1 5DC3953F
P 8100 3200
F 0 "TP32" H 8100 3500 50  0000 C BNN
F 1 "TEST" H 8100 3450 50  0000 C CNN
F 2 "TestPoint:TestPoint_Pad_D1.0mm" H 8100 3200 50  0001 C CNN
F 3 "" H 8100 3200 50  0001 C CNN
	1    8100 3200
	1    0    0    -1  
$EndComp
$Comp
L Connector:TestPoint_Alt TP31
U 1 1 5DC39540
P 7650 3200
F 0 "TP31" H 7650 3500 50  0000 C BNN
F 1 "TEST" H 7650 3450 50  0000 C CNN
F 2 "TestPoint:TestPoint_Pad_D1.0mm" H 7650 3200 50  0001 C CNN
F 3 "" H 7650 3200 50  0001 C CNN
	1    7650 3200
	1    0    0    -1  
$EndComp
NoConn ~ 8650 3900
NoConn ~ 8650 4000
NoConn ~ 8650 4100
NoConn ~ 8650 4200
NoConn ~ 8650 4300
NoConn ~ 8650 4400
NoConn ~ 8650 4500
NoConn ~ 7250 3950
NoConn ~ 7250 4050
NoConn ~ 7650 3450
NoConn ~ 7750 3450
NoConn ~ 8050 3450
NoConn ~ 8150 3450
Wire Wire Line
	4050 2000 4000 2000
Wire Wire Line
	4000 2000 4000 1950
Wire Wire Line
	3550 2100 4050 2100
Wire Wire Line
	4850 2400 7850 2400
Wire Wire Line
	4850 2300 7950 2300
Wire Wire Line
	4850 2100 5450 2100
Wire Wire Line
	5700 3700 5700 5100
Wire Wire Line
	5700 3700 6450 3700
Wire Wire Line
	6450 3650 6450 3700
Wire Wire Line
	6050 4650 5950 4650
Wire Wire Line
	6050 4650 6050 4700
Wire Wire Line
	7250 5350 7250 5400
Wire Wire Line
	7250 5400 7500 5400
Wire Wire Line
	7500 5400 7500 5350
Connection ~ 7250 5400
Wire Wire Line
	7250 4550 7250 5100
Wire Wire Line
	7500 5100 7500 5150
Wire Wire Line
	7700 5100 7700 5050
Wire Wire Line
	5700 5100 6600 5100
Wire Wire Line
	6350 4350 6500 4350
Wire Wire Line
	6350 4250 6400 4250
Wire Wire Line
	7050 4050 7200 4050
Wire Wire Line
	7200 4050 7200 4150
Wire Wire Line
	7200 4150 7250 4150
Wire Wire Line
	7350 3250 7350 3300
Wire Wire Line
	7350 3300 7550 3300
Wire Wire Line
	7550 3300 7550 3450
Wire Wire Line
	6500 5900 6500 5950
Wire Wire Line
	6650 4450 6900 4450
Connection ~ 7250 5100
Connection ~ 7500 5100
Wire Wire Line
	7950 2300 7950 3200
Wire Wire Line
	7850 2400 7850 3200
Wire Wire Line
	6650 4700 6650 4750
Wire Wire Line
	6650 4750 6900 4750
Wire Wire Line
	6900 4750 6900 4700
Connection ~ 6650 4750
Wire Wire Line
	6900 4500 6900 4450
Connection ~ 6900 4450
Wire Wire Line
	6650 4500 6650 4450
Wire Wire Line
	2850 2450 2850 2400
Connection ~ 2850 2400
Wire Wire Line
	2850 2250 2850 2300
Connection ~ 2850 2300
Wire Wire Line
	7850 3200 7650 3200
Wire Wire Line
	7950 3200 8100 3200
Wire Wire Line
	6450 4050 6350 4050
$Comp
L power:GNDD #PWR055
U 1 1 5DC39541
P 5450 2100
F 0 "#PWR055" H 5450 1850 50  0001 C CNN
F 1 "GNDD" H 5450 1950 50  0000 C CNN
F 2 "" H 5450 2100 50  0001 C CNN
F 3 "" H 5450 2100 50  0001 C CNN
	1    5450 2100
	1    0    0    -1  
$EndComp
Connection ~ 7850 3200
Connection ~ 7950 3200
$Comp
L power:GND #PWR056
U 1 1 5DC39543
P 2200 3000
F 0 "#PWR056" H 2200 2750 50  0001 C CNN
F 1 "GND" H 2200 2850 50  0000 C CNN
F 2 "" H 2200 3000 50  0001 C CNN
F 3 "" H 2200 3000 50  0001 C CNN
	1    2200 3000
	1    0    0    -1  
$EndComp
Wire Wire Line
	2200 3000 2200 2850
Wire Wire Line
	2200 2850 2500 2850
Wire Wire Line
	2500 2850 2500 3000
Text Notes 3750 2700 0    60   ~ 0
Tested, seems ok up to 12MBaud
Text Label 5100 2000 0    60   ~ 0
USB_3V
Wire Wire Line
	4850 2000 5000 2000
$Comp
L Device:R_Small R34
U 1 1 5DC39544
P 7800 5200
F 0 "R34" H 7830 5220 50  0000 L CNN
F 1 "10K" H 7830 5160 50  0000 L CNN
F 2 "Resistor_SMD:R_0603_1608Metric" H 7800 5200 50  0001 C CNN
F 3 "" H 7800 5200 50  0001 C CNN
	1    7800 5200
	1    0    0    -1  
$EndComp
Wire Wire Line
	7800 5450 7800 5300
Wire Wire Line
	7800 5100 7800 5050
Text Notes 5450 1950 0    60   ~ 0
VBus can be used too
$Comp
L Connector:TestPoint_Alt TP28
U 1 1 5DC39545
P 5000 1950
F 0 "TP28" H 5000 2250 50  0000 C BNN
F 1 "TEST" H 5000 2200 50  0000 C CNN
F 2 "TestPoint:TestPoint_Pad_D1.0mm" H 5000 1950 50  0001 C CNN
F 3 "" H 5000 1950 50  0001 C CNN
	1    5000 1950
	1    0    0    -1  
$EndComp
Wire Wire Line
	5000 1950 5000 2000
Connection ~ 5000 2000
$Comp
L Connector:TestPoint_Alt TP34
U 1 1 5DC39546
P 6450 3650
F 0 "TP34" H 6450 3950 50  0000 C BNN
F 1 "TEST" H 6450 3900 50  0000 C CNN
F 2 "TestPoint:TestPoint_Pad_D1.0mm" H 6450 3650 50  0001 C CNN
F 3 "" H 6450 3650 50  0001 C CNN
	1    6450 3650
	1    0    0    -1  
$EndComp
Connection ~ 6450 3700
$Comp
L Connector:TestPoint_Alt TP33
U 1 1 5DC39547
P 7350 3250
F 0 "TP33" H 7350 3550 50  0000 C BNN
F 1 "TEST" H 7350 3500 50  0000 C CNN
F 2 "TestPoint:TestPoint_Pad_1.0x1.0mm" H 7350 3250 50  0001 C CNN
F 3 "" H 7350 3250 50  0001 C CNN
	1    7350 3250
	1    0    0    -1  
$EndComp
Connection ~ 7350 3300
Wire Wire Line
	6400 5500 6400 4250
Connection ~ 6400 4250
Wire Wire Line
	6600 5500 6600 5100
Connection ~ 6600 5100
Wire Wire Line
	6500 5500 6500 4350
Connection ~ 6500 4350
Text Label 5850 3700 0    60   ~ 0
USB_5V
NoConn ~ 6350 4450
NoConn ~ 8000 5050
NoConn ~ 8100 5050
Text HLabel 2350 2400 0    60   Output ~ 0
RX
Text HLabel 2350 2300 0    60   Input ~ 0
TX
Wire Wire Line
	7250 5400 7250 5450
Wire Wire Line
	7250 5100 7250 5150
Wire Wire Line
	7250 5100 7500 5100
Wire Wire Line
	7500 5100 7700 5100
Wire Wire Line
	6650 4750 6650 4800
Wire Wire Line
	6900 4450 7250 4450
Wire Wire Line
	2850 2400 4050 2400
Wire Wire Line
	2850 2300 4050 2300
Wire Wire Line
	7850 3200 7850 3450
Wire Wire Line
	7950 3200 7950 3450
Wire Wire Line
	5000 2000 5100 2000
Wire Wire Line
	6450 3700 6450 4050
Wire Wire Line
	7350 3300 7350 3350
Wire Wire Line
	6400 4250 7250 4250
Wire Wire Line
	6600 5100 7250 5100
Wire Wire Line
	6500 4350 7250 4350
Text Label 6600 4250 0    60   ~ 0
D+
Text Label 6600 4350 0    60   ~ 0
D-
Text Notes 8900 4250 0    60   ~ 0
TODO: change to symbol from official library
Wire Wire Line
	2350 2400 2700 2400
Wire Wire Line
	2350 2300 2600 2300
$Comp
L Connector_Generic:Conn_01x03 J8
U 1 1 5DC39542
P 2600 3200
F 0 "J8" H 2600 3400 50  0000 C CNN
F 1 "Conn_01x03" H 2600 3000 50  0000 C CNN
F 2 "Connector_PinHeader_2.54mm:PinHeader_1x03_P2.54mm_Vertical" H 2600 3200 50  0001 C CNN
F 3 "" H 2600 3200 50  0001 C CNN
	1    2600 3200
	0    -1   1    0   
$EndComp
Wire Wire Line
	2700 3000 2700 2400
Connection ~ 2700 2400
Wire Wire Line
	2700 2400 2850 2400
Wire Wire Line
	2600 3000 2600 2300
Connection ~ 2600 2300
Wire Wire Line
	2600 2300 2850 2300
$Comp
L Device:D_TVS D11
U 1 1 5F596600
P 6400 5650
F 0 "D11" V 6400 5571 50  0000 R CNN
F 1 "CGA0402MLC-05G" V 6355 5571 50  0001 R CNN
F 2 "Resistor_SMD:R_0402_1005Metric" H 6400 5650 50  0001 C CNN
F 3 "~" H 6400 5650 50  0001 C CNN
	1    6400 5650
	0    -1   -1   0   
$EndComp
$Comp
L Device:D_TVS D14
U 1 1 5F5975C0
P 6500 5650
F 0 "D14" V 6500 5571 50  0000 R CNN
F 1 "CGA0402MLC-05G" V 6455 5571 50  0001 R CNN
F 2 "Resistor_SMD:R_0402_1005Metric" H 6500 5650 50  0001 C CNN
F 3 "~" H 6500 5650 50  0001 C CNN
	1    6500 5650
	0    -1   -1   0   
$EndComp
$Comp
L Device:D_TVS D15
U 1 1 5F5978E5
P 6600 5650
F 0 "D15" V 6646 5571 50  0000 R CNN
F 1 "CGA0402MLC-05G" V 6555 5571 50  0000 R CNN
F 2 "Resistor_SMD:R_0402_1005Metric" H 6600 5650 50  0001 C CNN
F 3 "~" H 6600 5650 50  0001 C CNN
	1    6600 5650
	0    -1   -1   0   
$EndComp
Wire Wire Line
	6400 5800 6400 5900
Wire Wire Line
	6400 5900 6500 5900
Wire Wire Line
	6500 5900 6500 5800
Connection ~ 6500 5900
Wire Wire Line
	6600 5900 6600 5800
Wire Wire Line
	6500 5900 6600 5900
$EndSCHEMATC
