EESchema Schematic File Version 4
EELAYER 30 0
EELAYER END
$Descr A3 16535 11693
encoding utf-8
Sheet 6 8
Title ""
Date ""
Rev ""
Comp ""
Comment1 ""
Comment2 ""
Comment3 ""
Comment4 ""
$EndDescr
$Comp
L power:GND #PWR085
U 1 1 5DC5B48A
P 8250 6750
F 0 "#PWR085" H 8250 6500 50  0001 C CNN
F 1 "GND" H 8250 6600 50  0000 C CNN
F 2 "" H 8250 6750 50  0001 C CNN
F 3 "" H 8250 6750 50  0001 C CNN
	1    8250 6750
	1    0    0    -1  
$EndComp
$Comp
L power:GND #PWR066
U 1 1 5DC5B48B
P 6500 1800
F 0 "#PWR066" H 6500 1550 50  0001 C CNN
F 1 "GND" H 6500 1650 50  0000 C CNN
F 2 "" H 6500 1800 50  0001 C CNN
F 3 "" H 6500 1800 50  0001 C CNN
	1    6500 1800
	1    0    0    -1  
$EndComp
$Comp
L Device:C_Small C48
U 1 1 5DC5B48C
P 7550 1650
F 0 "C48" H 7560 1720 50  0000 L CNN
F 1 "0.1uF" H 7560 1570 50  0000 L CNN
F 2 "Capacitor_SMD:C_0603_1608Metric" H 7550 1650 50  0001 C CNN
F 3 "" H 7550 1650 50  0001 C CNN
	1    7550 1650
	1    0    0    -1  
$EndComp
$Comp
L Device:C_Small C47
U 1 1 5DC5B48D
P 7200 1650
F 0 "C47" H 7210 1720 50  0000 L CNN
F 1 "0.1uF" H 7210 1570 50  0000 L CNN
F 2 "Capacitor_SMD:C_0603_1608Metric" H 7200 1650 50  0001 C CNN
F 3 "" H 7200 1650 50  0001 C CNN
	1    7200 1650
	1    0    0    -1  
$EndComp
$Comp
L Device:C_Small C46
U 1 1 5DC5B48E
P 6850 1650
F 0 "C46" H 6860 1720 50  0000 L CNN
F 1 "0.1uF" H 6860 1570 50  0000 L CNN
F 2 "Capacitor_SMD:C_0603_1608Metric" H 6850 1650 50  0001 C CNN
F 3 "" H 6850 1650 50  0001 C CNN
	1    6850 1650
	1    0    0    -1  
$EndComp
$Comp
L Device:C_Small C45
U 1 1 5DC5B48F
P 6500 1650
F 0 "C45" H 6510 1720 50  0000 L CNN
F 1 "4.7uF" H 6510 1570 50  0000 L CNN
F 2 "Capacitor_SMD:C_0805_2012Metric" H 6500 1650 50  0001 C CNN
F 3 "" H 6500 1650 50  0001 C CNN
	1    6500 1650
	1    0    0    -1  
$EndComp
$Comp
L power:GND #PWR067
U 1 1 5DC5B490
P 6850 1800
F 0 "#PWR067" H 6850 1550 50  0001 C CNN
F 1 "GND" H 6850 1650 50  0000 C CNN
F 2 "" H 6850 1800 50  0001 C CNN
F 3 "" H 6850 1800 50  0001 C CNN
	1    6850 1800
	1    0    0    -1  
$EndComp
$Comp
L power:GND #PWR068
U 1 1 5DC5B491
P 7200 1800
F 0 "#PWR068" H 7200 1550 50  0001 C CNN
F 1 "GND" H 7200 1650 50  0000 C CNN
F 2 "" H 7200 1800 50  0001 C CNN
F 3 "" H 7200 1800 50  0001 C CNN
	1    7200 1800
	1    0    0    -1  
$EndComp
$Comp
L power:GND #PWR069
U 1 1 5DC5B492
P 7550 1800
F 0 "#PWR069" H 7550 1550 50  0001 C CNN
F 1 "GND" H 7550 1650 50  0000 C CNN
F 2 "" H 7550 1800 50  0001 C CNN
F 3 "" H 7550 1800 50  0001 C CNN
	1    7550 1800
	1    0    0    -1  
$EndComp
$Comp
L Device:C_Small C49
U 1 1 5DC5B493
P 8400 1650
F 0 "C49" H 8410 1720 50  0000 L CNN
F 1 "10nF" H 8410 1570 50  0000 L CNN
F 2 "Capacitor_SMD:C_0603_1608Metric" H 8400 1650 50  0001 C CNN
F 3 "" H 8400 1650 50  0001 C CNN
	1    8400 1650
	1    0    0    -1  
$EndComp
$Comp
L power:GND #PWR070
U 1 1 5DC5B494
P 8400 1800
F 0 "#PWR070" H 8400 1550 50  0001 C CNN
F 1 "GND" H 8400 1650 50  0000 C CNN
F 2 "" H 8400 1800 50  0001 C CNN
F 3 "" H 8400 1800 50  0001 C CNN
	1    8400 1800
	1    0    0    -1  
$EndComp
$Comp
L power:+3V0 #PWR065
U 1 1 5DC5B495
P 5700 1500
F 0 "#PWR065" H 5700 1350 50  0001 C CNN
F 1 "+3V0" H 5700 1640 50  0000 C CNN
F 2 "" H 5700 1500 50  0000 C CNN
F 3 "" H 5700 1500 50  0000 C CNN
	1    5700 1500
	1    0    0    -1  
$EndComp
$Comp
L Device:Crystal_GND24 Y1
U 1 1 5DC5B496
P 3750 3350
F 0 "Y1" H 3875 3550 50  0000 L CNN
F 1 "16MHz" H 3875 3475 50  0000 L CNN
F 2 "Crystal:Crystal_SMD_TXC_7M-4Pin_3.2x2.5mm" H 3750 3350 50  0001 C CNN
F 3 "" H 3750 3350 50  0001 C CNN
	1    3750 3350
	1    0    0    -1  
$EndComp
$Comp
L Device:C_Small C53
U 1 1 5DC5B497
P 4050 3500
F 0 "C53" H 4060 3570 50  0000 L CNN
F 1 "10pF" H 4060 3420 50  0000 L CNN
F 2 "Capacitor_SMD:C_0603_1608Metric" H 4050 3500 50  0001 C CNN
F 3 "" H 4050 3500 50  0001 C CNN
	1    4050 3500
	1    0    0    -1  
$EndComp
$Comp
L power:GND #PWR078
U 1 1 5DC5B498
P 4050 3650
F 0 "#PWR078" H 4050 3400 50  0001 C CNN
F 1 "GND" H 4050 3500 50  0000 C CNN
F 2 "" H 4050 3650 50  0001 C CNN
F 3 "" H 4050 3650 50  0001 C CNN
	1    4050 3650
	1    0    0    -1  
$EndComp
$Comp
L power:GND #PWR074
U 1 1 5DC5B499
P 3500 3100
F 0 "#PWR074" H 3500 2850 50  0001 C CNN
F 1 "GND" H 3500 2950 50  0000 C CNN
F 2 "" H 3500 3100 50  0001 C CNN
F 3 "" H 3500 3100 50  0001 C CNN
	1    3500 3100
	1    0    0    -1  
$EndComp
$Comp
L power:GND #PWR077
U 1 1 5DC5B49A
P 3750 3650
F 0 "#PWR077" H 3750 3400 50  0001 C CNN
F 1 "GND" H 3750 3500 50  0000 C CNN
F 2 "" H 3750 3650 50  0001 C CNN
F 3 "" H 3750 3650 50  0001 C CNN
	1    3750 3650
	1    0    0    -1  
$EndComp
$Comp
L Device:C_Small C52
U 1 1 5DC5B49B
P 3350 3500
F 0 "C52" H 3360 3570 50  0000 L CNN
F 1 "10pF" H 3360 3420 50  0000 L CNN
F 2 "Capacitor_SMD:C_0603_1608Metric" H 3350 3500 50  0001 C CNN
F 3 "" H 3350 3500 50  0001 C CNN
	1    3350 3500
	1    0    0    -1  
$EndComp
$Comp
L power:GND #PWR076
U 1 1 5DC5B49C
P 3350 3650
F 0 "#PWR076" H 3350 3400 50  0001 C CNN
F 1 "GND" H 3350 3500 50  0000 C CNN
F 2 "" H 3350 3650 50  0001 C CNN
F 3 "" H 3350 3650 50  0001 C CNN
	1    3350 3650
	1    0    0    -1  
$EndComp
$Comp
L Connector:TestPoint_Alt TP37
U 1 1 5DC5B49E
P 4550 2550
F 0 "TP37" H 4550 2850 50  0000 C BNN
F 1 "TEST" H 4550 2800 50  0000 C CNN
F 2 "TestPoint:TestPoint_Pad_D1.0mm" H 4550 2550 50  0001 C CNN
F 3 "" H 4550 2550 50  0001 C CNN
	1    4550 2550
	1    0    0    -1  
$EndComp
$Comp
L Device:C_Small C50
U 1 1 5DC5B49F
P 8650 1650
F 0 "C50" H 8660 1720 50  0000 L CNN
F 1 "0.1uF" H 8660 1570 50  0000 L CNN
F 2 "Capacitor_SMD:C_0603_1608Metric" H 8650 1650 50  0001 C CNN
F 3 "" H 8650 1650 50  0001 C CNN
	1    8650 1650
	1    0    0    -1  
$EndComp
$Comp
L power:GND #PWR071
U 1 1 5DC5B4A0
P 8650 1800
F 0 "#PWR071" H 8650 1550 50  0001 C CNN
F 1 "GND" H 8650 1650 50  0000 C CNN
F 2 "" H 8650 1800 50  0001 C CNN
F 3 "" H 8650 1800 50  0001 C CNN
	1    8650 1800
	1    0    0    -1  
$EndComp
$Comp
L Device:R_Small R35
U 1 1 5DC5B4AF
P 8950 1000
F 0 "R35" H 8980 1020 50  0000 L CNN
F 1 "TBD_NM" H 8980 960 50  0000 L CNN
F 2 "Resistor_SMD:R_0603_1608Metric" H 8950 1000 50  0001 C CNN
F 3 "" H 8950 1000 50  0001 C CNN
	1    8950 1000
	-1   0    0    1   
$EndComp
$Comp
L power:GND #PWR072
U 1 1 5DC5B4B0
P 8950 1800
F 0 "#PWR072" H 8950 1550 50  0001 C CNN
F 1 "GND" H 8950 1650 50  0000 C CNN
F 2 "" H 8950 1800 50  0001 C CNN
F 3 "" H 8950 1800 50  0001 C CNN
	1    8950 1800
	1    0    0    -1  
$EndComp
$Comp
L Device:R_Small R36
U 1 1 5DC5B4B2
P 8100 1200
F 0 "R36" H 8130 1220 50  0000 L CNN
F 1 "0R_NM" H 8130 1160 50  0000 L CNN
F 2 "Resistor_SMD:R_0603_1608Metric" H 8100 1200 50  0001 C CNN
F 3 "" H 8100 1200 50  0001 C CNN
	1    8100 1200
	0    -1   -1   0   
$EndComp
$Comp
L power:GND #PWR075
U 1 1 5DC5B4BA
P 4500 2750
F 0 "#PWR075" H 4500 2500 50  0001 C CNN
F 1 "GND" H 4500 2600 50  0000 C CNN
F 2 "" H 4500 2750 50  0001 C CNN
F 3 "" H 4500 2750 50  0001 C CNN
	1    4500 2750
	1    0    0    -1  
$EndComp
$Comp
L power:GND #PWR080
U 1 1 5DC5B4BB
P 13200 3950
F 0 "#PWR080" H 13200 3700 50  0001 C CNN
F 1 "GND" H 13200 3800 50  0000 C CNN
F 2 "" H 13200 3950 50  0001 C CNN
F 3 "" H 13200 3950 50  0001 C CNN
	1    13200 3950
	1    0    0    -1  
$EndComp
$Comp
L Device:R_Small R47
U 1 1 5DC5B4BC
P 13000 3850
F 0 "R47" H 13030 3870 50  0000 L CNN
F 1 "100R" H 13030 3810 50  0000 L CNN
F 2 "Resistor_SMD:R_0603_1608Metric" H 13000 3850 50  0001 C CNN
F 3 "" H 13000 3850 50  0001 C CNN
	1    13000 3850
	0    -1   -1   0   
$EndComp
$Comp
L Device:R_Small R48
U 1 1 5DC5B4BD
P 13000 4200
F 0 "R48" H 13030 4220 50  0000 L CNN
F 1 "100R" H 13030 4160 50  0000 L CNN
F 2 "Resistor_SMD:R_0603_1608Metric" H 13000 4200 50  0001 C CNN
F 3 "" H 13000 4200 50  0001 C CNN
	1    13000 4200
	0    -1   -1   0   
$EndComp
$Comp
L Connector_Generic:Conn_01x03 J10
U 1 1 5DC5B4BE
P 14000 3950
F 0 "J10" H 14000 4150 50  0000 C CNN
F 1 "Conn_01x03" H 14000 3750 50  0001 C CNN
F 2 "Connector_PinHeader_2.54mm:PinHeader_1x03_P2.54mm_Horizontal" H 14000 3950 50  0001 C CNN
F 3 "" H 14000 3950 50  0001 C CNN
	1    14000 3950
	1    0    0    1   
$EndComp
$Comp
L Device:D_TVS D12
U 1 1 5DC5B4BF
P 12500 4450
F 0 "D12" H 12500 4550 50  0000 C CNN
F 1 "CGA0402MLC-05G" H 12500 4350 50  0001 C CNN
F 2 "Resistor_SMD:R_0402_1005Metric" H 12500 4450 50  0001 C CNN
F 3 "" H 12500 4450 50  0001 C CNN
	1    12500 4450
	0    1    1    0   
$EndComp
$Comp
L power:GND #PWR083
U 1 1 5DC5B4C0
P 12500 4650
F 0 "#PWR083" H 12500 4400 50  0001 C CNN
F 1 "GND" H 12500 4500 50  0000 C CNN
F 2 "" H 12500 4650 50  0001 C CNN
F 3 "" H 12500 4650 50  0001 C CNN
	1    12500 4650
	1    0    0    -1  
$EndComp
$Comp
L Device:D_TVS D13
U 1 1 5DC5B4C1
P 12800 4450
F 0 "D13" H 12800 4550 50  0000 C CNN
F 1 "CGA0402MLC-05G" H 12800 4350 50  0001 C CNN
F 2 "Resistor_SMD:R_0402_1005Metric" H 12800 4450 50  0001 C CNN
F 3 "" H 12800 4450 50  0001 C CNN
	1    12800 4450
	0    1    1    0   
$EndComp
$Comp
L power:GND #PWR084
U 1 1 5DC5B4C2
P 12800 4650
F 0 "#PWR084" H 12800 4400 50  0001 C CNN
F 1 "GND" H 12800 4500 50  0000 C CNN
F 2 "" H 12800 4650 50  0001 C CNN
F 3 "" H 12800 4650 50  0001 C CNN
	1    12800 4650
	1    0    0    -1  
$EndComp
Text Notes 13650 3800 0    60   ~ 0
SWD
Text Label 4500 2750 0    60   ~ 0
BOOT0
Text Label 4550 2550 0    60   ~ 0
NRST
Text Label 12400 3850 0    60   ~ 0
SWDIO
Text Label 12400 3950 0    60   ~ 0
SWCLK
$Comp
L Connector:TestPoint_Alt TP35
U 1 1 5DC5B4CB
P 8550 1150
F 0 "TP35" H 8550 1450 50  0000 C BNN
F 1 "TEST" H 8550 1400 50  0000 C CNN
F 2 "TestPoint:TestPoint_Pad_D1.0mm" H 8550 1150 50  0001 C CNN
F 3 "" H 8550 1150 50  0001 C CNN
	1    8550 1150
	1    0    0    -1  
$EndComp
$Comp
L Connector:TestPoint_Alt TP36
U 1 1 5DC5B4CC
P 6500 1450
F 0 "TP36" H 6500 1750 50  0000 C BNN
F 1 "TEST" H 6500 1700 50  0000 C CNN
F 2 "TestPoint:TestPoint_Pad_D1.0mm" H 6500 1450 50  0001 C CNN
F 3 "" H 6500 1450 50  0001 C CNN
	1    6500 1450
	1    0    0    -1  
$EndComp
$Comp
L Connector:TestPoint_Alt TP42
U 1 1 5DC5B4DD
P 13350 3800
F 0 "TP42" H 13350 4100 50  0000 C BNN
F 1 "TEST" H 13350 4050 50  0000 C CNN
F 2 "TestPoint:TestPoint_Pad_D1.0mm" H 13350 3800 50  0001 C CNN
F 3 "" H 13350 3800 50  0001 C CNN
	1    13350 3800
	1    0    0    -1  
$EndComp
$Comp
L Connector:TestPoint_Alt TP43
U 1 1 5DC5B4DE
P 13350 4250
F 0 "TP43" H 13350 4550 50  0000 C BNN
F 1 "TEST" H 13350 4500 50  0000 C CNN
F 2 "TestPoint:TestPoint_Pad_D1.0mm" H 13350 4250 50  0001 C CNN
F 3 "" H 13350 4250 50  0001 C CNN
	1    13350 4250
	-1   0    0    1   
$EndComp
Wire Wire Line
	3550 3850 4800 3850
Connection ~ 8550 1200
Wire Wire Line
	8550 1200 8550 1150
Wire Wire Line
	8050 6700 8150 6700
Connection ~ 12500 3850
Wire Wire Line
	12500 3850 12500 4300
Connection ~ 12800 4200
Wire Wire Line
	12800 4200 12800 4300
Wire Wire Line
	12800 4650 12800 4600
Wire Wire Line
	12500 4650 12500 4600
Wire Wire Line
	12750 3950 11300 3950
Wire Wire Line
	12750 4200 12750 3950
Wire Wire Line
	11300 3850 12500 3850
Wire Wire Line
	12750 4200 12800 4200
Wire Wire Line
	13350 4200 13100 4200
Wire Wire Line
	13350 4050 13350 4200
Wire Wire Line
	13100 3850 13350 3850
Wire Wire Line
	4500 2750 4800 2750
Connection ~ 8950 850 
Wire Wire Line
	8950 800  8950 850 
Wire Wire Line
	8950 1100 8950 1200
Wire Wire Line
	8650 1500 8650 1550
Wire Wire Line
	8650 1750 8650 1800
Connection ~ 8400 1500
Connection ~ 8150 6700
Wire Wire Line
	8050 6150 8050 6700
Wire Wire Line
	4550 2550 4800 2550
Connection ~ 8050 1500
Wire Wire Line
	8150 1500 8150 2050
Connection ~ 3550 3350
Wire Wire Line
	3550 3350 3550 3850
Wire Wire Line
	3350 3600 3350 3650
Wire Wire Line
	3350 3350 3550 3350
Wire Wire Line
	3350 3400 3350 3350
Wire Wire Line
	3750 3550 3750 3650
Wire Wire Line
	3500 3050 3500 3100
Wire Wire Line
	3750 3050 3500 3050
Wire Wire Line
	3750 3150 3750 3050
Wire Wire Line
	4050 3600 4050 3650
Connection ~ 4050 3350
Wire Wire Line
	4050 3350 4050 3400
Wire Wire Line
	3900 3350 4050 3350
Wire Wire Line
	4350 3350 4350 3750
Wire Wire Line
	4350 3750 4800 3750
Wire Wire Line
	8400 1800 8400 1750
Wire Wire Line
	8400 1500 8400 1550
Connection ~ 8250 1500
Wire Wire Line
	8250 1500 8400 1500
Connection ~ 7550 1500
Wire Wire Line
	7550 1500 7550 1550
Connection ~ 7200 1500
Wire Wire Line
	7200 1500 7200 1550
Connection ~ 6850 1500
Wire Wire Line
	6850 1500 6850 1550
Wire Wire Line
	6500 1800 6500 1750
Wire Wire Line
	6850 1800 6850 1750
Wire Wire Line
	7200 1800 7200 1750
Wire Wire Line
	7550 1800 7550 1750
Connection ~ 7950 1500
Wire Wire Line
	7950 1200 7950 1500
Wire Wire Line
	8050 1500 8050 2050
Connection ~ 6500 1500
Wire Wire Line
	6500 1450 6500 1500
Wire Wire Line
	5700 1500 6000 1500
Wire Wire Line
	8350 6700 8350 6550
Connection ~ 8250 6700
Wire Wire Line
	8250 6150 8250 6700
Wire Wire Line
	8150 6150 8150 6700
Wire Wire Line
	13350 3800 13350 3850
Connection ~ 13350 3850
Connection ~ 13350 4200
$Comp
L Device:R_Small R51
U 1 1 5DC5EE20
P 13000 8200
F 0 "R51" H 13030 8220 50  0000 L CNN
F 1 "10K" H 13030 8160 50  0000 L CNN
F 2 "Resistor_SMD:R_0603_1608Metric" H 13000 8200 50  0001 C CNN
F 3 "" H 13000 8200 50  0001 C CNN
	1    13000 8200
	-1   0    0    1   
$EndComp
Text Notes 13450 8700 0    60   ~ 0
NTC
$Comp
L Device:C_Small C59
U 1 1 5DC5EE3A
P 13800 8500
F 0 "C59" H 13810 8570 50  0000 L CNN
F 1 "0.1uF_NM" H 13810 8420 50  0000 L CNN
F 2 "Capacitor_SMD:C_0603_1608Metric" H 13800 8500 50  0001 C CNN
F 3 "" H 13800 8500 50  0001 C CNN
	1    13800 8500
	1    0    0    -1  
$EndComp
$Comp
L power:GND #PWR090
U 1 1 5DC5EE40
P 13800 8650
F 0 "#PWR090" H 13800 8400 50  0001 C CNN
F 1 "GND" H 13800 8500 50  0000 C CNN
F 2 "" H 13800 8650 50  0001 C CNN
F 3 "" H 13800 8650 50  0001 C CNN
	1    13800 8650
	1    0    0    -1  
$EndComp
Connection ~ 13000 8350
Wire Wire Line
	13000 8350 13800 8350
Wire Wire Line
	13000 8050 13000 8100
Wire Wire Line
	13800 8650 13800 8600
Wire Wire Line
	13800 8350 13800 8400
Connection ~ 13800 8350
$Comp
L Device:R_Small R52
U 1 1 5DC5F098
P 13000 8500
F 0 "R52" H 13030 8520 50  0000 L CNN
F 1 "10K_NTC" H 13030 8460 50  0000 L CNN
F 2 "Resistor_SMD:R_0603_1608Metric" H 13000 8500 50  0001 C CNN
F 3 "" H 13000 8500 50  0001 C CNN
	1    13000 8500
	-1   0    0    1   
$EndComp
Wire Wire Line
	13000 8850 13000 8600
Wire Wire Line
	13000 8300 13000 8350
$Comp
L power:VDDA #PWR064
U 1 1 5DC60509
P 8400 1150
F 0 "#PWR064" H 8400 1000 50  0001 C CNN
F 1 "VDDA" H 8400 1300 50  0000 C CNN
F 2 "" H 8400 1150 50  0001 C CNN
F 3 "" H 8400 1150 50  0001 C CNN
	1    8400 1150
	1    0    0    -1  
$EndComp
$Comp
L power:VDDA #PWR089
U 1 1 5DC60E9A
P 13000 8050
F 0 "#PWR089" H 13000 7900 50  0001 C CNN
F 1 "VDDA" H 13000 8200 50  0000 C CNN
F 2 "" H 13000 8050 50  0001 C CNN
F 3 "" H 13000 8050 50  0001 C CNN
	1    13000 8050
	1    0    0    -1  
$EndComp
$Comp
L Reference_Voltage:LM4040DBZ-3 U14
U 1 1 5DC73466
P 8950 1400
F 0 "U14" H 8950 1500 50  0000 C CNN
F 1 "LM4040CIM3-3.0" H 8950 1275 50  0000 C CNN
F 2 "Package_TO_SOT_SMD:SOT-23" H 8950 1200 50  0001 C CIN
F 3 "" H 8950 1400 50  0001 C CIN
	1    8950 1400
	0    -1   -1   0   
$EndComp
Wire Wire Line
	7950 1200 8000 1200
Wire Wire Line
	8200 1200 8250 1200
Wire Wire Line
	8250 1200 8250 1500
Wire Wire Line
	8950 1800 8950 1550
Connection ~ 8250 1200
Wire Wire Line
	8400 1150 8400 1200
Connection ~ 8400 1200
Connection ~ 8950 1200
$Comp
L Device:C_Small C51
U 1 1 5DC74DA4
P 9250 1650
F 0 "C51" H 9260 1720 50  0000 L CNN
F 1 "0.1uF" H 9260 1570 50  0000 L CNN
F 2 "Capacitor_SMD:C_0603_1608Metric" H 9250 1650 50  0001 C CNN
F 3 "" H 9250 1650 50  0001 C CNN
	1    9250 1650
	1    0    0    -1  
$EndComp
$Comp
L power:GND #PWR073
U 1 1 5DC74ED2
P 9250 1800
F 0 "#PWR073" H 9250 1550 50  0001 C CNN
F 1 "GND" H 9250 1650 50  0000 C CNN
F 2 "" H 9250 1800 50  0001 C CNN
F 3 "" H 9250 1800 50  0001 C CNN
	1    9250 1800
	1    0    0    -1  
$EndComp
Wire Wire Line
	9250 1800 9250 1750
Wire Wire Line
	9250 1550 9250 850 
Wire Wire Line
	9250 850  8950 850 
Text Notes 6550 850  0    60   ~ 0
use bandgap reference or +3V supply
$Comp
L Device:R_Small R49
U 1 1 5DC77DFC
P 8350 6450
F 0 "R49" H 8380 6470 50  0000 L CNN
F 1 "TBD_NM" H 8380 6410 50  0000 L CNN
F 2 "Resistor_SMD:R_0603_1608Metric" H 8350 6450 50  0001 C CNN
F 3 "" H 8350 6450 50  0001 C CNN
	1    8350 6450
	1    0    0    -1  
$EndComp
Wire Wire Line
	8350 6150 8350 6300
$Comp
L power:VSSA #PWR082
U 1 1 5DC786A3
P 8650 6300
F 0 "#PWR082" H 8650 6150 50  0001 C CNN
F 1 "VSSA" H 8650 6450 50  0000 C CNN
F 2 "" H 8650 6300 50  0001 C CNN
F 3 "" H 8650 6300 50  0001 C CNN
	1    8650 6300
	1    0    0    -1  
$EndComp
Wire Wire Line
	8650 6300 8350 6300
Connection ~ 8350 6300
Text HLabel 4800 5350 0    60   Input ~ 0
UartRx
Text HLabel 11300 3550 2    60   Input ~ 0
UsbRx
Text HLabel 4800 5250 0    60   Output ~ 0
UartTx
Text HLabel 11300 3450 2    60   Output ~ 0
UsbTx
Text HLabel 11300 3150 2    60   Input ~ 0
voltageMeas
Text Label 10050 7750 0    60   ~ 0
FrontPanelGpio4
Text Label 6100 7850 2    60   ~ 0
FrontPanelGpio5
Text Label 10050 7850 0    60   ~ 0
FrontPanelGpio6
Text Label 6100 7950 2    60   ~ 0
FrontPanelGpio7
Text Label 10050 7950 0    60   ~ 0
FrontPanelGpio8
Text Label 6100 7750 2    60   ~ 0
FrontPanelGpio3
Text Label 10050 7650 0    60   ~ 0
FrontPanelGpio2
Text Label 6100 7650 2    60   ~ 0
FrontPanelGpio1
Text Label 12550 5550 0    60   ~ 0
SCL
Text Label 12550 5650 0    60   ~ 0
SDA
$Comp
L power:+5V #PWR091
U 1 1 5DCB52B4
P 7700 7550
F 0 "#PWR091" H 7700 7400 50  0001 C CNN
F 1 "+5V" H 7700 7690 50  0000 C CNN
F 2 "" H 7700 7550 50  0001 C CNN
F 3 "" H 7700 7550 50  0001 C CNN
	1    7700 7550
	1    0    0    -1  
$EndComp
$Comp
L power:GND #PWR095
U 1 1 5DCB54B6
P 9400 8550
F 0 "#PWR095" H 9400 8300 50  0001 C CNN
F 1 "GND" H 9400 8400 50  0000 C CNN
F 2 "" H 9400 8550 50  0001 C CNN
F 3 "" H 9400 8550 50  0001 C CNN
	1    9400 8550
	1    0    0    -1  
$EndComp
Text Label 10050 8050 0    60   ~ 0
SCL
Text Label 6100 8050 2    60   ~ 0
SDA
$Comp
L Connector_Generic:Conn_02x07_Odd_Even J12
U 1 1 5DCB5AAA
P 7950 7850
F 0 "J12" H 8000 8250 50  0000 C CNN
F 1 "Conn_02x07_Odd_Even" H 8000 7450 50  0001 C CNN
F 2 "Connector_PinHeader_2.54mm:PinHeader_2x07_P2.54mm_Vertical" H 7950 7850 50  0001 C CNN
F 3 "" H 7950 7850 50  0001 C CNN
	1    7950 7850
	1    0    0    -1  
$EndComp
Wire Wire Line
	7750 7550 7700 7550
Wire Wire Line
	7750 7850 7000 7850
Wire Wire Line
	8250 8050 8400 8050
Wire Wire Line
	8250 7950 8800 7950
Wire Wire Line
	8250 7850 9050 7850
Wire Wire Line
	8250 7750 9300 7750
Wire Wire Line
	8250 7650 9550 7650
$Comp
L power:+3V0 #PWR092
U 1 1 5DCB83E8
P 8300 7550
F 0 "#PWR092" H 8300 7400 50  0001 C CNN
F 1 "+3V0" H 8300 7690 50  0000 C CNN
F 2 "" H 8300 7550 50  0000 C CNN
F 3 "" H 8300 7550 50  0000 C CNN
	1    8300 7550
	1    0    0    -1  
$EndComp
Wire Wire Line
	8300 7550 8250 7550
Text HLabel 4800 5450 0    60   Output ~ 0
DE~RE
Text Label 4800 4750 2    60   ~ 0
FrontPanelGpio1
Text Label 4800 4650 2    60   ~ 0
FrontPanelGpio2
Text Label 11300 4350 0    60   ~ 0
FrontPanelGpio3
Text Label 11300 4250 0    60   ~ 0
FrontPanelGpio4
Text Label 11300 5250 0    60   ~ 0
FrontPanelGpio5
Text Label 11300 4450 0    60   ~ 0
FrontPanelGpio6
Text Label 11300 5450 0    60   ~ 0
FrontPanelGpio7
Text Label 11300 5350 0    60   ~ 0
FrontPanelGpio8
NoConn ~ 4800 2950
Wire Wire Line
	8550 1200 8950 1200
Wire Wire Line
	12500 3850 12900 3850
Wire Wire Line
	12800 4200 12900 4200
Wire Wire Line
	8950 850  8950 900 
Wire Wire Line
	8400 1500 8650 1500
Wire Wire Line
	8150 6700 8250 6700
Wire Wire Line
	8050 1500 8150 1500
Wire Wire Line
	3550 3350 3600 3350
Wire Wire Line
	4050 3350 4350 3350
Wire Wire Line
	8250 1500 8250 2050
Wire Wire Line
	7550 1500 7950 1500
Wire Wire Line
	7200 1500 7550 1500
Wire Wire Line
	6850 1500 7200 1500
Wire Wire Line
	7950 1500 7950 2050
Wire Wire Line
	7950 1500 8050 1500
Wire Wire Line
	6500 1500 6500 1550
Wire Wire Line
	6500 1500 6850 1500
Wire Wire Line
	8250 6700 8250 6750
Wire Wire Line
	8250 6700 8350 6700
Wire Wire Line
	13350 4200 13350 4250
Wire Wire Line
	13000 8350 13000 8400
Wire Wire Line
	13800 8350 14000 8350
Wire Wire Line
	8250 1200 8400 1200
Wire Wire Line
	8400 1200 8550 1200
Wire Wire Line
	8950 1200 8950 1250
Wire Wire Line
	8350 6300 8350 6350
Text Label 4800 4250 2    60   ~ 0
NTC1
$Comp
L antaveiv:STM32L476RETx U15
U 1 1 5ED804F8
P 8150 4150
F 0 "U15" H 8050 6431 50  0000 C CNN
F 1 "STM32L412RBT6" H 8050 6340 50  0000 C CNN
F 2 "Package_QFP:LQFP-64_10x10mm_P0.5mm" H 11150 6275 50  0001 R TNN
F 3 "http://www.farnell.com/datasheets/2283396.pdf" H 8150 4150 50  0001 C CNN
	1    8150 4150
	1    0    0    -1  
$EndComp
Wire Wire Line
	8050 6700 7950 6700
Wire Wire Line
	7950 6700 7950 6150
Connection ~ 8050 6700
Text HLabel 11300 5050 2    50   Output ~ 0
range10A
Text HLabel 11300 4950 2    50   Output ~ 0
range1A
Text HLabel 11300 5150 2    50   Output ~ 0
notRange10A
Text HLabel 11300 4850 2    50   Output ~ 0
range100mA
Text HLabel 11300 4750 2    50   Output ~ 0
range10mA
Text HLabel 11300 4650 2    50   Output ~ 0
range1mA
Text HLabel 11300 4550 2    50   Output ~ 0
range100uA
Text HLabel 8800 6300 2    50   Output ~ 0
reference
Text HLabel 11300 2650 2    50   Input ~ 0
currentMeas1
Text HLabel 11300 2750 2    50   Output ~ 0
currentMeas2
Wire Wire Line
	8800 6300 8650 6300
Connection ~ 8650 6300
NoConn ~ 4800 4050
NoConn ~ 4800 4350
NoConn ~ 4800 4450
NoConn ~ 4800 4550
NoConn ~ 11300 3350
NoConn ~ 11300 3650
NoConn ~ 8350 2050
Text Notes 5000 6400 0    50   ~ 0
Using a different STM32 for its dual ADCs.\nWill use one exclusively for higher frequency \nsampling of current with analog watchdog for ranging.
$Comp
L Device:D_TVS D?
U 1 1 5F5CB86C
P 8900 8350
AR Path="/5E5681AD/5F5CB86C" Ref="D?"  Part="1" 
AR Path="/5E56828B/5F5CB86C" Ref="D22"  Part="1" 
F 0 "D22" V 8900 8271 50  0000 R CNN
F 1 "CGA0402MLC-05G" V 8855 8271 50  0001 R CNN
F 2 "Resistor_SMD:R_0402_1005Metric" H 8900 8350 50  0001 C CNN
F 3 "~" H 8900 8350 50  0001 C CNN
	1    8900 8350
	0    -1   -1   0   
$EndComp
$Comp
L Device:D_TVS D?
U 1 1 5F5CB872
P 9150 8350
AR Path="/5E5681AD/5F5CB872" Ref="D?"  Part="1" 
AR Path="/5E56828B/5F5CB872" Ref="D23"  Part="1" 
F 0 "D23" V 9150 8271 50  0000 R CNN
F 1 "CGA0402MLC-05G" V 9105 8271 50  0001 R CNN
F 2 "Resistor_SMD:R_0402_1005Metric" H 9150 8350 50  0001 C CNN
F 3 "~" H 9150 8350 50  0001 C CNN
	1    9150 8350
	0    -1   -1   0   
$EndComp
Wire Wire Line
	8900 8200 8900 8050
Connection ~ 8900 8050
Wire Wire Line
	8900 8050 10050 8050
Wire Wire Line
	9150 8200 9150 7950
Connection ~ 9150 7950
Wire Wire Line
	9150 7950 10050 7950
$Comp
L Device:D_TVS D?
U 1 1 5F61F038
P 9400 8350
AR Path="/5E5681AD/5F61F038" Ref="D?"  Part="1" 
AR Path="/5E56828B/5F61F038" Ref="D24"  Part="1" 
F 0 "D24" V 9400 8271 50  0000 R CNN
F 1 "CGA0402MLC-05G" V 9355 8271 50  0001 R CNN
F 2 "Resistor_SMD:R_0402_1005Metric" H 9400 8350 50  0001 C CNN
F 3 "~" H 9400 8350 50  0001 C CNN
	1    9400 8350
	0    -1   -1   0   
$EndComp
Wire Wire Line
	9400 8200 9400 7850
Connection ~ 9400 7850
Wire Wire Line
	9400 7850 10050 7850
$Comp
L Device:D_TVS D?
U 1 1 5F62D3EF
P 9650 8350
AR Path="/5E5681AD/5F62D3EF" Ref="D?"  Part="1" 
AR Path="/5E56828B/5F62D3EF" Ref="D25"  Part="1" 
F 0 "D25" V 9650 8271 50  0000 R CNN
F 1 "CGA0402MLC-05G" V 9605 8271 50  0001 R CNN
F 2 "Resistor_SMD:R_0402_1005Metric" H 9650 8350 50  0001 C CNN
F 3 "~" H 9650 8350 50  0001 C CNN
	1    9650 8350
	0    -1   -1   0   
$EndComp
Wire Wire Line
	9650 8200 9650 7750
Connection ~ 9650 7750
Wire Wire Line
	9650 7750 10050 7750
$Comp
L Device:D_TVS D?
U 1 1 5F63276F
P 9900 8350
AR Path="/5E5681AD/5F63276F" Ref="D?"  Part="1" 
AR Path="/5E56828B/5F63276F" Ref="D26"  Part="1" 
F 0 "D26" V 9900 8271 50  0000 R CNN
F 1 "CGA0402MLC-05G" V 9855 8271 50  0001 R CNN
F 2 "Resistor_SMD:R_0402_1005Metric" H 9900 8350 50  0001 C CNN
F 3 "~" H 9900 8350 50  0001 C CNN
	1    9900 8350
	0    -1   -1   0   
$EndComp
Wire Wire Line
	9900 8200 9900 7650
Connection ~ 9900 7650
Wire Wire Line
	9900 7650 10050 7650
Wire Wire Line
	9900 8500 9900 8550
Wire Wire Line
	9900 8550 9650 8550
Wire Wire Line
	8900 8500 8900 8550
Wire Wire Line
	9150 8500 9150 8550
Connection ~ 9150 8550
Wire Wire Line
	9150 8550 8900 8550
Wire Wire Line
	9400 8500 9400 8550
Connection ~ 9400 8550
Wire Wire Line
	9400 8550 9150 8550
Wire Wire Line
	9650 8500 9650 8550
Connection ~ 9650 8550
Wire Wire Line
	9650 8550 9400 8550
$Comp
L power:GND #PWR081
U 1 1 5F66586D
P 6650 8550
F 0 "#PWR081" H 6650 8300 50  0001 C CNN
F 1 "GND" H 6650 8400 50  0000 C CNN
F 2 "" H 6650 8550 50  0001 C CNN
F 3 "" H 6650 8550 50  0001 C CNN
	1    6650 8550
	1    0    0    -1  
$EndComp
$Comp
L Device:D_TVS D?
U 1 1 5F665877
P 6150 8300
AR Path="/5E5681AD/5F665877" Ref="D?"  Part="1" 
AR Path="/5E56828B/5F665877" Ref="D17"  Part="1" 
F 0 "D17" V 6150 8221 50  0000 R CNN
F 1 "CGA0402MLC-05G" V 6105 8221 50  0001 R CNN
F 2 "Resistor_SMD:R_0402_1005Metric" H 6150 8300 50  0001 C CNN
F 3 "~" H 6150 8300 50  0001 C CNN
	1    6150 8300
	0    -1   -1   0   
$EndComp
$Comp
L Device:D_TVS D?
U 1 1 5F665881
P 6400 8300
AR Path="/5E5681AD/5F665881" Ref="D?"  Part="1" 
AR Path="/5E56828B/5F665881" Ref="D18"  Part="1" 
F 0 "D18" V 6400 8221 50  0000 R CNN
F 1 "CGA0402MLC-05G" V 6355 8221 50  0001 R CNN
F 2 "Resistor_SMD:R_0402_1005Metric" H 6400 8300 50  0001 C CNN
F 3 "~" H 6400 8300 50  0001 C CNN
	1    6400 8300
	0    -1   -1   0   
$EndComp
$Comp
L Device:D_TVS D?
U 1 1 5F66588B
P 6650 8300
AR Path="/5E5681AD/5F66588B" Ref="D?"  Part="1" 
AR Path="/5E56828B/5F66588B" Ref="D19"  Part="1" 
F 0 "D19" V 6650 8221 50  0000 R CNN
F 1 "CGA0402MLC-05G" V 6605 8221 50  0001 R CNN
F 2 "Resistor_SMD:R_0402_1005Metric" H 6650 8300 50  0001 C CNN
F 3 "~" H 6650 8300 50  0001 C CNN
	1    6650 8300
	0    -1   -1   0   
$EndComp
$Comp
L Device:D_TVS D?
U 1 1 5F665895
P 6900 8300
AR Path="/5E5681AD/5F665895" Ref="D?"  Part="1" 
AR Path="/5E56828B/5F665895" Ref="D20"  Part="1" 
F 0 "D20" V 6900 8221 50  0000 R CNN
F 1 "CGA0402MLC-05G" V 6855 8221 50  0001 R CNN
F 2 "Resistor_SMD:R_0402_1005Metric" H 6900 8300 50  0001 C CNN
F 3 "~" H 6900 8300 50  0001 C CNN
	1    6900 8300
	0    -1   -1   0   
$EndComp
$Comp
L Device:D_TVS D?
U 1 1 5F66589F
P 7150 8300
AR Path="/5E5681AD/5F66589F" Ref="D?"  Part="1" 
AR Path="/5E56828B/5F66589F" Ref="D21"  Part="1" 
F 0 "D21" V 7150 8221 50  0000 R CNN
F 1 "CGA0402MLC-05G" V 7105 8221 50  0001 R CNN
F 2 "Resistor_SMD:R_0402_1005Metric" H 7150 8300 50  0001 C CNN
F 3 "~" H 7150 8300 50  0001 C CNN
	1    7150 8300
	0    -1   -1   0   
$EndComp
Wire Wire Line
	7150 8450 7150 8500
Wire Wire Line
	7150 8500 6900 8500
Wire Wire Line
	6150 8450 6150 8500
Wire Wire Line
	6400 8450 6400 8500
Connection ~ 6400 8500
Wire Wire Line
	6400 8500 6150 8500
Wire Wire Line
	6650 8450 6650 8500
Connection ~ 6650 8500
Wire Wire Line
	6650 8500 6400 8500
Wire Wire Line
	6900 8450 6900 8500
Connection ~ 6900 8500
Wire Wire Line
	6900 8500 6650 8500
$Comp
L Device:R_Small R9
U 1 1 5F6DACBE
P 6400 7650
F 0 "R9" H 6430 7670 50  0000 L CNN
F 1 "100R" H 6430 7610 50  0000 L CNN
F 2 "Resistor_SMD:R_0603_1608Metric" H 6400 7650 50  0001 C CNN
F 3 "" H 6400 7650 50  0001 C CNN
	1    6400 7650
	0    -1   -1   0   
$EndComp
Wire Wire Line
	6500 7650 7750 7650
$Comp
L Device:R_Small R42
U 1 1 5F6DC274
P 6650 7750
F 0 "R42" H 6680 7770 50  0000 L CNN
F 1 "100R" H 6680 7710 50  0000 L CNN
F 2 "Resistor_SMD:R_0603_1608Metric" H 6650 7750 50  0001 C CNN
F 3 "" H 6650 7750 50  0001 C CNN
	1    6650 7750
	0    -1   -1   0   
$EndComp
Wire Wire Line
	6750 7750 7750 7750
$Comp
L Device:R_Small R44
U 1 1 5F6DC6AB
P 6900 7850
F 0 "R44" H 6930 7870 50  0000 L CNN
F 1 "100R" H 6930 7810 50  0000 L CNN
F 2 "Resistor_SMD:R_0603_1608Metric" H 6900 7850 50  0001 C CNN
F 3 "" H 6900 7850 50  0001 C CNN
	1    6900 7850
	0    -1   -1   0   
$EndComp
$Comp
L Device:R_Small R46
U 1 1 5F6DCA33
P 7150 7950
F 0 "R46" H 7180 7970 50  0000 L CNN
F 1 "100R" H 7180 7910 50  0000 L CNN
F 2 "Resistor_SMD:R_0603_1608Metric" H 7150 7950 50  0001 C CNN
F 3 "" H 7150 7950 50  0001 C CNN
	1    7150 7950
	0    -1   -1   0   
$EndComp
Wire Wire Line
	7250 7950 7750 7950
$Comp
L Device:R_Small R60
U 1 1 5F6DCE8F
P 7350 8050
F 0 "R60" H 7380 8070 50  0000 L CNN
F 1 "100R" H 7380 8010 50  0000 L CNN
F 2 "Resistor_SMD:R_0603_1608Metric" H 7350 8050 50  0001 C CNN
F 3 "" H 7350 8050 50  0001 C CNN
	1    7350 8050
	0    -1   -1   0   
$EndComp
Wire Wire Line
	7450 8050 7600 8050
$Comp
L Device:R_Small R41
U 1 1 5F6DDB63
P 9650 7650
F 0 "R41" H 9680 7670 50  0000 L CNN
F 1 "100R" H 9680 7610 50  0000 L CNN
F 2 "Resistor_SMD:R_0603_1608Metric" H 9650 7650 50  0001 C CNN
F 3 "" H 9650 7650 50  0001 C CNN
	1    9650 7650
	0    -1   -1   0   
$EndComp
Wire Wire Line
	9750 7650 9900 7650
$Comp
L Device:R_Small R43
U 1 1 5F6E0287
P 9400 7750
F 0 "R43" H 9430 7770 50  0000 L CNN
F 1 "100R" H 9430 7710 50  0000 L CNN
F 2 "Resistor_SMD:R_0603_1608Metric" H 9400 7750 50  0001 C CNN
F 3 "" H 9400 7750 50  0001 C CNN
	1    9400 7750
	0    -1   -1   0   
$EndComp
Wire Wire Line
	9500 7750 9650 7750
$Comp
L Device:R_Small R45
U 1 1 5F6E0626
P 9150 7850
F 0 "R45" H 9180 7870 50  0000 L CNN
F 1 "100R" H 9180 7810 50  0000 L CNN
F 2 "Resistor_SMD:R_0603_1608Metric" H 9150 7850 50  0001 C CNN
F 3 "" H 9150 7850 50  0001 C CNN
	1    9150 7850
	0    -1   -1   0   
$EndComp
Wire Wire Line
	9250 7850 9400 7850
$Comp
L Device:R_Small R59
U 1 1 5F6E0A55
P 8900 7950
F 0 "R59" H 8930 7970 50  0000 L CNN
F 1 "100R" H 8930 7910 50  0000 L CNN
F 2 "Resistor_SMD:R_0603_1608Metric" H 8900 7950 50  0001 C CNN
F 3 "" H 8900 7950 50  0001 C CNN
	1    8900 7950
	0    -1   -1   0   
$EndComp
Wire Wire Line
	9000 7950 9150 7950
Wire Wire Line
	6100 8050 7150 8050
Wire Wire Line
	6100 7950 6900 7950
Wire Wire Line
	6100 7850 6650 7850
Wire Wire Line
	6100 7750 6400 7750
Wire Wire Line
	6100 7650 6150 7650
Wire Wire Line
	6150 8150 6150 7650
Connection ~ 6150 7650
Wire Wire Line
	6150 7650 6300 7650
Wire Wire Line
	6400 8150 6400 7750
Connection ~ 6400 7750
Wire Wire Line
	6400 7750 6550 7750
Wire Wire Line
	6650 8150 6650 7850
Connection ~ 6650 7850
Wire Wire Line
	6650 7850 6800 7850
Wire Wire Line
	6900 8150 6900 7950
Connection ~ 6900 7950
Wire Wire Line
	6900 7950 7050 7950
Wire Wire Line
	7150 8150 7150 8050
Connection ~ 7150 8050
Wire Wire Line
	7150 8050 7250 8050
$Comp
L Device:R_Small R61
U 1 1 5F768CA9
P 8650 8050
F 0 "R61" H 8680 8070 50  0000 L CNN
F 1 "100R" H 8680 8010 50  0000 L CNN
F 2 "Resistor_SMD:R_0603_1608Metric" H 8650 8050 50  0001 C CNN
F 3 "" H 8650 8050 50  0001 C CNN
	1    8650 8050
	0    -1   -1   0   
$EndComp
Wire Wire Line
	8750 8050 8900 8050
Wire Wire Line
	6650 8500 6650 8550
$Comp
L power:GND #PWR01
U 1 1 5F77AF6F
P 7700 8200
F 0 "#PWR01" H 7700 7950 50  0001 C CNN
F 1 "GND" H 7700 8050 50  0000 C CNN
F 2 "" H 7700 8200 50  0001 C CNN
F 3 "" H 7700 8200 50  0001 C CNN
	1    7700 8200
	1    0    0    -1  
$EndComp
$Comp
L power:GND #PWR079
U 1 1 5F77BFDB
P 8300 8200
F 0 "#PWR079" H 8300 7950 50  0001 C CNN
F 1 "GND" H 8300 8050 50  0000 C CNN
F 2 "" H 8300 8200 50  0001 C CNN
F 3 "" H 8300 8200 50  0001 C CNN
	1    8300 8200
	1    0    0    -1  
$EndComp
Wire Wire Line
	8250 8150 8300 8150
Wire Wire Line
	8300 8150 8300 8200
Wire Wire Line
	7750 8150 7700 8150
Wire Wire Line
	7700 8150 7700 8200
Wire Wire Line
	13350 4050 13800 4050
Wire Wire Line
	13200 3950 13800 3950
Wire Wire Line
	13350 3850 13800 3850
$Comp
L power:GND #PWR0133
U 1 1 5E0F200C
P 12050 3300
F 0 "#PWR0133" H 12050 3050 50  0001 C CNN
F 1 "GND" H 12050 3150 50  0000 C CNN
F 2 "" H 12050 3300 50  0001 C CNN
F 3 "" H 12050 3300 50  0001 C CNN
	1    12050 3300
	1    0    0    -1  
$EndComp
Wire Wire Line
	12050 3250 11300 3250
Wire Wire Line
	12050 3300 12050 3250
Wire Wire Line
	12050 3250 12050 3050
Wire Wire Line
	12050 3050 11300 3050
Connection ~ 12050 3250
Text Notes 7800 7300 0    50   ~ 0
front panel
Text Notes 7250 10250 0    50   ~ 0
direct OLED display connector for debugging
Wire Wire Line
	7300 9700 7300 9750
Connection ~ 7300 9700
Wire Wire Line
	8000 9700 8000 9500
Wire Wire Line
	7300 9700 8000 9700
Wire Wire Line
	7300 9650 7300 9700
Connection ~ 7300 9400
Wire Wire Line
	7300 9450 7300 9400
Wire Wire Line
	7300 9350 7300 9400
$Comp
L Device:C_Small C75
U 1 1 5E152F3E
P 7300 9550
F 0 "C75" H 7310 9620 50  0000 L CNN
F 1 "0.1uF" H 7310 9470 50  0000 L CNN
F 2 "Capacitor_SMD:C_0603_1608Metric" H 7300 9550 50  0001 C CNN
F 3 "" H 7300 9550 50  0001 C CNN
	1    7300 9550
	1    0    0    -1  
$EndComp
$Comp
L power:GND #PWR0135
U 1 1 5E152934
P 7300 9750
F 0 "#PWR0135" H 7300 9500 50  0001 C CNN
F 1 "GND" H 7300 9600 50  0000 C CNN
F 2 "" H 7300 9750 50  0001 C CNN
F 3 "" H 7300 9750 50  0001 C CNN
	1    7300 9750
	1    0    0    -1  
$EndComp
Wire Wire Line
	7300 9400 8000 9400
$Comp
L power:+5V #PWR0134
U 1 1 5E148CD4
P 7300 9350
F 0 "#PWR0134" H 7300 9200 50  0001 C CNN
F 1 "+5V" H 7300 9490 50  0000 C CNN
F 2 "" H 7300 9350 50  0001 C CNN
F 3 "" H 7300 9350 50  0001 C CNN
	1    7300 9350
	1    0    0    -1  
$EndComp
$Comp
L Connector_Generic:Conn_01x04 J15
U 1 1 5E148AE8
P 8200 9400
F 0 "J15" H 8118 8975 50  0000 C CNN
F 1 "Conn_01x04" H 8118 9066 50  0000 C CNN
F 2 "Connector_PinHeader_2.54mm:PinHeader_1x04_P2.54mm_Vertical" H 8200 9400 50  0001 C CNN
F 3 "~" H 8200 9400 50  0001 C CNN
	1    8200 9400
	1    0    0    1   
$EndComp
Wire Wire Line
	8000 9200 7600 9200
Wire Wire Line
	7600 9200 7600 8050
Connection ~ 7600 8050
Wire Wire Line
	7600 8050 7750 8050
Wire Wire Line
	8000 9300 7850 9300
Wire Wire Line
	7850 9300 7850 8700
Wire Wire Line
	7850 8700 8400 8700
Wire Wire Line
	8400 8700 8400 8050
Connection ~ 8400 8050
Wire Wire Line
	8400 8050 8550 8050
$Comp
L power:+5V #PWR0136
U 1 1 5E222DB5
P 8950 800
F 0 "#PWR0136" H 8950 650 50  0001 C CNN
F 1 "+5V" H 8965 973 50  0000 C CNN
F 2 "" H 8950 800 50  0001 C CNN
F 3 "" H 8950 800 50  0001 C CNN
	1    8950 800 
	1    0    0    -1  
$EndComp
Text Label 14000 8350 0    60   ~ 0
NTC1
NoConn ~ 4800 5550
NoConn ~ 4800 5650
NoConn ~ 4800 5750
NoConn ~ 11300 5750
NoConn ~ 11300 2950
NoConn ~ 11300 2550
$Comp
L power:GND #PWR0137
U 1 1 5E26937B
P 13000 8850
F 0 "#PWR0137" H 13000 8600 50  0001 C CNN
F 1 "GND" H 13000 8700 50  0000 C CNN
F 2 "" H 13000 8850 50  0001 C CNN
F 3 "" H 13000 8850 50  0001 C CNN
	1    13000 8850
	1    0    0    -1  
$EndComp
$Comp
L Memory_EEPROM:AT24CS01-SSHM U19
U 1 1 5E0DFE22
P 13500 6850
F 0 "U19" H 13500 7331 50  0000 C CNN
F 1 "AT24CS01-SSHM" H 13500 7240 50  0000 C CNN
F 2 "Package_SO:SOIC-8_3.9x4.9mm_P1.27mm" H 13500 6850 50  0001 C CNN
F 3 "http://ww1.microchip.com/downloads/en/DeviceDoc/Atmel-8815-SEEPROM-AT24CS01-02-Datasheet.pdf" H 13500 6850 50  0001 C CNN
	1    13500 6850
	1    0    0    -1  
$EndComp
$Comp
L power:+3V0 #PWR063
U 1 1 5E0E31B1
P 13500 6150
F 0 "#PWR063" H 13500 6000 50  0001 C CNN
F 1 "+3V0" H 13500 6290 50  0000 C CNN
F 2 "" H 13500 6150 50  0000 C CNN
F 3 "" H 13500 6150 50  0000 C CNN
	1    13500 6150
	1    0    0    -1  
$EndComp
$Comp
L power:GND #PWR093
U 1 1 5E0E60C1
P 13500 7200
F 0 "#PWR093" H 13500 6950 50  0001 C CNN
F 1 "GND" H 13500 7050 50  0000 C CNN
F 2 "" H 13500 7200 50  0001 C CNN
F 3 "" H 13500 7200 50  0001 C CNN
	1    13500 7200
	1    0    0    -1  
$EndComp
$Comp
L Device:C_Small C79
U 1 1 5E0E8C94
P 14000 6300
F 0 "C79" H 14010 6370 50  0000 L CNN
F 1 "0.1uF" H 14010 6220 50  0000 L CNN
F 2 "Capacitor_SMD:C_0603_1608Metric" H 14000 6300 50  0001 C CNN
F 3 "" H 14000 6300 50  0001 C CNN
	1    14000 6300
	1    0    0    -1  
$EndComp
$Comp
L power:GND #PWR086
U 1 1 5E0EB869
P 14000 6450
F 0 "#PWR086" H 14000 6200 50  0001 C CNN
F 1 "GND" H 14000 6300 50  0000 C CNN
F 2 "" H 14000 6450 50  0001 C CNN
F 3 "" H 14000 6450 50  0001 C CNN
	1    14000 6450
	1    0    0    -1  
$EndComp
Wire Wire Line
	13500 6200 14000 6200
Wire Wire Line
	14000 6400 14000 6450
Wire Wire Line
	13500 6550 13500 6200
Connection ~ 13500 6200
Wire Wire Line
	13500 6150 13500 6200
Text Label 14450 6850 0    60   ~ 0
SCL
Text Label 14450 6750 0    60   ~ 0
SDA
Wire Wire Line
	14450 6750 14350 6750
Wire Wire Line
	14450 6850 14350 6850
$Comp
L power:GND #PWR088
U 1 1 5E12B007
P 13950 6950
F 0 "#PWR088" H 13950 6700 50  0001 C CNN
F 1 "GND" H 13950 6800 50  0000 C CNN
F 2 "" H 13950 6950 50  0001 C CNN
F 3 "" H 13950 6950 50  0001 C CNN
	1    13950 6950
	1    0    0    -1  
$EndComp
Wire Wire Line
	13950 6950 13900 6950
Wire Wire Line
	13500 7200 13500 7150
$Comp
L Device:R_Small R50
U 1 1 5E140C3C
P 12950 6750
F 0 "R50" H 12980 6770 50  0000 L CNN
F 1 "100R" H 12980 6710 50  0000 L CNN
F 2 "Resistor_SMD:R_0603_1608Metric" H 12950 6750 50  0001 C CNN
F 3 "" H 12950 6750 50  0001 C CNN
	1    12950 6750
	0    -1   -1   0   
$EndComp
$Comp
L Device:R_Small R62
U 1 1 5E141A46
P 12950 6850
F 0 "R62" H 12980 6870 50  0000 L CNN
F 1 "100R" H 12980 6810 50  0000 L CNN
F 2 "Resistor_SMD:R_0603_1608Metric" H 12950 6850 50  0001 C CNN
F 3 "" H 12950 6850 50  0001 C CNN
	1    12950 6850
	0    -1   -1   0   
$EndComp
$Comp
L Device:R_Small R63
U 1 1 5E141D25
P 12950 6950
F 0 "R63" H 12980 6970 50  0000 L CNN
F 1 "100R" H 12980 6910 50  0000 L CNN
F 2 "Resistor_SMD:R_0603_1608Metric" H 12950 6950 50  0001 C CNN
F 3 "" H 12950 6950 50  0001 C CNN
	1    12950 6950
	0    -1   -1   0   
$EndComp
$Comp
L power:+3V0 #PWR087
U 1 1 5E141F63
P 12750 6700
F 0 "#PWR087" H 12750 6550 50  0001 C CNN
F 1 "+3V0" H 12750 6840 50  0000 C CNN
F 2 "" H 12750 6700 50  0000 C CNN
F 3 "" H 12750 6700 50  0000 C CNN
	1    12750 6700
	1    0    0    -1  
$EndComp
Wire Wire Line
	12750 6700 12750 6750
Wire Wire Line
	12750 6750 12850 6750
Wire Wire Line
	12750 6750 12750 6850
Wire Wire Line
	12750 6850 12850 6850
Connection ~ 12750 6750
Wire Wire Line
	12750 6850 12750 6950
Wire Wire Line
	12750 6950 12850 6950
Connection ~ 12750 6850
Wire Wire Line
	13050 6950 13100 6950
Wire Wire Line
	13050 6850 13100 6850
Wire Wire Line
	13050 6750 13100 6750
Text Notes 13300 7500 0    50   ~ 0
EEPROM
$Comp
L Connector:TestPoint_Alt TP40
U 1 1 5E1B8682
P 14350 6700
F 0 "TP40" H 14350 7000 50  0000 C BNN
F 1 "TEST" H 14350 6950 50  0000 C CNN
F 2 "TestPoint:TestPoint_Pad_D1.0mm" H 14350 6700 50  0001 C CNN
F 3 "" H 14350 6700 50  0001 C CNN
	1    14350 6700
	1    0    0    -1  
$EndComp
Wire Wire Line
	14350 6700 14350 6750
Connection ~ 14350 6750
Wire Wire Line
	14350 6750 13900 6750
$Comp
L Connector:TestPoint_Alt TP41
U 1 1 5E1C40E3
P 14350 6900
F 0 "TP41" H 14350 7200 50  0000 C BNN
F 1 "TEST" H 14350 7150 50  0000 C CNN
F 2 "TestPoint:TestPoint_Pad_D1.0mm" H 14350 6900 50  0001 C CNN
F 3 "" H 14350 6900 50  0001 C CNN
	1    14350 6900
	-1   0    0    1   
$EndComp
Wire Wire Line
	14350 6900 14350 6850
Connection ~ 14350 6850
Wire Wire Line
	14350 6850 13900 6850
$Comp
L power:+3V0 #PWR094
U 1 1 5E1E82F3
P 12350 5200
F 0 "#PWR094" H 12350 5050 50  0001 C CNN
F 1 "+3V0" H 12350 5340 50  0000 C CNN
F 2 "" H 12350 5200 50  0000 C CNN
F 3 "" H 12350 5200 50  0000 C CNN
	1    12350 5200
	1    0    0    -1  
$EndComp
$Comp
L Device:R_Small R65
U 1 1 5E1E9A87
P 12400 5400
F 0 "R65" H 12430 5420 50  0000 L CNN
F 1 "4K7" H 12430 5360 50  0000 L CNN
F 2 "Resistor_SMD:R_0603_1608Metric" H 12400 5400 50  0001 C CNN
F 3 "" H 12400 5400 50  0001 C CNN
	1    12400 5400
	1    0    0    -1  
$EndComp
$Comp
L Device:R_Small R64
U 1 1 5E1EEE35
P 12300 5400
F 0 "R64" H 12330 5420 50  0000 L CNN
F 1 "4K7" H 12330 5360 50  0000 L CNN
F 2 "Resistor_SMD:R_0603_1608Metric" H 12300 5400 50  0001 C CNN
F 3 "" H 12300 5400 50  0001 C CNN
	1    12300 5400
	-1   0    0    1   
$EndComp
Wire Wire Line
	12350 5200 12350 5250
Wire Wire Line
	12350 5250 12400 5250
Wire Wire Line
	12400 5250 12400 5300
Wire Wire Line
	12350 5250 12300 5250
Wire Wire Line
	12300 5250 12300 5300
Connection ~ 12350 5250
Wire Wire Line
	12550 5550 12400 5550
Wire Wire Line
	11300 5650 12300 5650
Wire Wire Line
	12400 5500 12400 5550
Connection ~ 12400 5550
Wire Wire Line
	12400 5550 11300 5550
Wire Wire Line
	12300 5500 12300 5650
Connection ~ 12300 5650
Wire Wire Line
	12300 5650 12550 5650
$Comp
L Device:CP C?
U 1 1 5E154B40
P 6000 1700
AR Path="/5E564C74/5E154B40" Ref="C?"  Part="1" 
AR Path="/5E56828B/5E154B40" Ref="C80"  Part="1" 
F 0 "C80" H 6025 1800 50  0000 L CNN
F 1 "10uF 50V" H 6025 1600 50  0000 L CNN
F 2 "Capacitor_SMD:CP_Elec_5x5.8" H 6038 1550 50  0001 C CNN
F 3 "" H 6000 1700 50  0001 C CNN
	1    6000 1700
	1    0    0    -1  
$EndComp
Connection ~ 6000 1500
Wire Wire Line
	6000 1500 6500 1500
Wire Wire Line
	6000 1550 6000 1500
$Comp
L power:GND #PWR0148
U 1 1 5E16FDE1
P 6000 1900
F 0 "#PWR0148" H 6000 1650 50  0001 C CNN
F 1 "GND" H 6000 1750 50  0000 C CNN
F 2 "" H 6000 1900 50  0001 C CNN
F 3 "" H 6000 1900 50  0001 C CNN
	1    6000 1900
	1    0    0    -1  
$EndComp
Wire Wire Line
	6000 1850 6000 1900
Text HLabel 11300 4050 2    50   Input ~ 0
TriggerIn
NoConn ~ 11300 2850
$Comp
L Device:LED D?
U 1 1 5E35D0D5
P 2200 6800
AR Path="/5E564C74/5E35D0D5" Ref="D?"  Part="1" 
AR Path="/5E56828B/5E35D0D5" Ref="D31"  Part="1" 
F 0 "D31" V 2239 6683 50  0000 R CNN
F 1 "LED" V 2148 6683 50  0000 R CNN
F 2 "LED_SMD:LED_0603_1608Metric" H 2200 6800 50  0001 C CNN
F 3 "~" H 2200 6800 50  0001 C CNN
	1    2200 6800
	0    -1   -1   0   
$EndComp
$Comp
L power:GND #PWR?
U 1 1 5E35D0DB
P 2200 6950
AR Path="/5E564C74/5E35D0DB" Ref="#PWR?"  Part="1" 
AR Path="/5E56828B/5E35D0DB" Ref="#PWR097"  Part="1" 
F 0 "#PWR097" H 2200 6700 50  0001 C CNN
F 1 "GND" H 2200 6800 50  0000 C CNN
F 2 "" H 2200 6950 50  0001 C CNN
F 3 "" H 2200 6950 50  0001 C CNN
	1    2200 6950
	1    0    0    -1  
$EndComp
$Comp
L Device:R_Small R?
U 1 1 5E35D0E1
P 2200 6350
AR Path="/5E564C74/5E35D0E1" Ref="R?"  Part="1" 
AR Path="/5E56828B/5E35D0E1" Ref="R74"  Part="1" 
F 0 "R74" V 2280 6350 50  0000 C CNN
F 1 "3K" V 2200 6350 50  0000 C CNN
F 2 "Resistor_SMD:R_0603_1608Metric" V 2130 6350 50  0001 C CNN
F 3 "" H 2200 6350 50  0001 C CNN
	1    2200 6350
	1    0    0    -1  
$EndComp
Wire Wire Line
	2200 6250 2200 6200
Wire Wire Line
	2200 6450 2200 6650
$Comp
L Device:LED D?
U 1 1 5E36A83D
P 2550 6800
AR Path="/5E564C74/5E36A83D" Ref="D?"  Part="1" 
AR Path="/5E56828B/5E36A83D" Ref="D32"  Part="1" 
F 0 "D32" V 2589 6683 50  0000 R CNN
F 1 "LED" V 2498 6683 50  0000 R CNN
F 2 "LED_SMD:LED_0603_1608Metric" H 2550 6800 50  0001 C CNN
F 3 "~" H 2550 6800 50  0001 C CNN
	1    2550 6800
	0    -1   -1   0   
$EndComp
$Comp
L power:GND #PWR?
U 1 1 5E36A843
P 2550 6950
AR Path="/5E564C74/5E36A843" Ref="#PWR?"  Part="1" 
AR Path="/5E56828B/5E36A843" Ref="#PWR098"  Part="1" 
F 0 "#PWR098" H 2550 6700 50  0001 C CNN
F 1 "GND" H 2550 6800 50  0000 C CNN
F 2 "" H 2550 6950 50  0001 C CNN
F 3 "" H 2550 6950 50  0001 C CNN
	1    2550 6950
	1    0    0    -1  
$EndComp
$Comp
L Device:R_Small R?
U 1 1 5E36A849
P 2550 6350
AR Path="/5E564C74/5E36A849" Ref="R?"  Part="1" 
AR Path="/5E56828B/5E36A849" Ref="R75"  Part="1" 
F 0 "R75" V 2630 6350 50  0000 C CNN
F 1 "3K" V 2550 6350 50  0000 C CNN
F 2 "Resistor_SMD:R_0603_1608Metric" V 2480 6350 50  0001 C CNN
F 3 "" H 2550 6350 50  0001 C CNN
	1    2550 6350
	1    0    0    -1  
$EndComp
Wire Wire Line
	2550 6250 2550 6200
Wire Wire Line
	2550 6450 2550 6650
$Comp
L Device:LED D?
U 1 1 5E37840D
P 2900 6800
AR Path="/5E564C74/5E37840D" Ref="D?"  Part="1" 
AR Path="/5E56828B/5E37840D" Ref="D33"  Part="1" 
F 0 "D33" V 2939 6683 50  0000 R CNN
F 1 "LED" V 2848 6683 50  0000 R CNN
F 2 "LED_SMD:LED_0603_1608Metric" H 2900 6800 50  0001 C CNN
F 3 "~" H 2900 6800 50  0001 C CNN
	1    2900 6800
	0    -1   -1   0   
$EndComp
$Comp
L power:GND #PWR?
U 1 1 5E378413
P 2900 6950
AR Path="/5E564C74/5E378413" Ref="#PWR?"  Part="1" 
AR Path="/5E56828B/5E378413" Ref="#PWR099"  Part="1" 
F 0 "#PWR099" H 2900 6700 50  0001 C CNN
F 1 "GND" H 2900 6800 50  0000 C CNN
F 2 "" H 2900 6950 50  0001 C CNN
F 3 "" H 2900 6950 50  0001 C CNN
	1    2900 6950
	1    0    0    -1  
$EndComp
$Comp
L Device:R_Small R?
U 1 1 5E378419
P 2900 6350
AR Path="/5E564C74/5E378419" Ref="R?"  Part="1" 
AR Path="/5E56828B/5E378419" Ref="R76"  Part="1" 
F 0 "R76" V 2980 6350 50  0000 C CNN
F 1 "3K" V 2900 6350 50  0000 C CNN
F 2 "Resistor_SMD:R_0603_1608Metric" V 2830 6350 50  0001 C CNN
F 3 "" H 2900 6350 50  0001 C CNN
	1    2900 6350
	1    0    0    -1  
$EndComp
Wire Wire Line
	2900 6250 2900 6200
Wire Wire Line
	2900 6450 2900 6650
$Comp
L Connector:TestPoint_Alt TP44
U 1 1 5E388049
P 2150 6200
F 0 "TP44" H 2150 6500 50  0000 C BNN
F 1 "TEST" H 2150 6450 50  0000 C CNN
F 2 "TestPoint:TestPoint_Pad_D1.0mm" H 2150 6200 50  0001 C CNN
F 3 "" H 2150 6200 50  0001 C CNN
	1    2150 6200
	1    0    0    -1  
$EndComp
Wire Wire Line
	2150 6200 2200 6200
Connection ~ 2200 6200
Wire Wire Line
	2200 6200 2200 6050
$Comp
L Connector:TestPoint_Alt TP45
U 1 1 5E396598
P 2500 6200
F 0 "TP45" H 2500 6500 50  0000 C BNN
F 1 "TEST" H 2500 6450 50  0000 C CNN
F 2 "TestPoint:TestPoint_Pad_D1.0mm" H 2500 6200 50  0001 C CNN
F 3 "" H 2500 6200 50  0001 C CNN
	1    2500 6200
	1    0    0    -1  
$EndComp
Wire Wire Line
	2500 6200 2550 6200
Connection ~ 2550 6200
Wire Wire Line
	2550 6200 2550 6050
$Comp
L Connector:TestPoint_Alt TP46
U 1 1 5E3A4A3B
P 2850 6200
F 0 "TP46" H 2850 6500 50  0000 C BNN
F 1 "TEST" H 2850 6450 50  0000 C CNN
F 2 "TestPoint:TestPoint_Pad_D1.0mm" H 2850 6200 50  0001 C CNN
F 3 "" H 2850 6200 50  0001 C CNN
	1    2850 6200
	1    0    0    -1  
$EndComp
Wire Wire Line
	2850 6200 2900 6200
Connection ~ 2900 6200
Wire Wire Line
	2900 6200 2900 6050
Text Label 2200 6050 0    50   ~ 0
LED1
Text Label 2550 6050 0    50   ~ 0
LED2
Text Label 2900 6050 0    50   ~ 0
LED3
Text Label 4800 5050 2    50   ~ 0
LED2
Text Label 4800 4850 2    50   ~ 0
LED3
Text Label 11300 3750 0    50   ~ 0
LED1
NoConn ~ 4800 4950
NoConn ~ 4800 5150
$EndSCHEMATC
