EESchema Schematic File Version 4
EELAYER 30 0
EELAYER END
$Descr A4 11693 8268
encoding utf-8
Sheet 8 8
Title ""
Date ""
Rev ""
Comp ""
Comment1 ""
Comment2 ""
Comment3 ""
Comment4 ""
$EndDescr
$Comp
L Connector:TestPoint_Alt TP58
U 1 1 5E171371
P 7050 3400
F 0 "TP58" H 7050 3700 50  0000 C BNN
F 1 "TEST" H 7050 3650 50  0000 C CNN
F 2 "TestPoint:TestPoint_Pad_D1.0mm" H 7050 3400 50  0001 C CNN
F 3 "" H 7050 3400 50  0001 C CNN
	1    7050 3400
	1    0    0    -1  
$EndComp
$Comp
L antaveiv:TCM829 U22
U 1 1 5E171377
P 4550 3700
F 0 "U22" H 4550 4175 50  0000 C CNN
F 1 "TCM829" H 4550 4084 50  0000 C CNN
F 2 "Package_TO_SOT_SMD:SOT-23-5" H 4600 3200 50  0001 C CNN
F 3 "" H 4250 3950 50  0001 C CNN
	1    4550 3700
	1    0    0    -1  
$EndComp
$Comp
L Device:Ferrite_Bead FB5
U 1 1 5E17137D
P 3900 3450
F 0 "FB5" V 3750 3475 50  0000 C CNN
F 1 "Ferrite_Bead" V 4050 3450 50  0000 C CNN
F 2 "Resistor_SMD:R_0603_1608Metric" V 3830 3450 50  0001 C CNN
F 3 "" H 3900 3450 50  0001 C CNN
	1    3900 3450
	0    1    1    0   
$EndComp
$Comp
L Device:Ferrite_Bead FB6
U 1 1 5E171383
P 5900 3450
F 0 "FB6" V 5750 3475 50  0000 C CNN
F 1 "Ferrite_Bead" V 6050 3450 50  0000 C CNN
F 2 "Resistor_SMD:R_0603_1608Metric" V 5830 3450 50  0001 C CNN
F 3 "" H 5900 3450 50  0001 C CNN
	1    5900 3450
	0    1    1    0   
$EndComp
$Comp
L Device:C C85
U 1 1 5E171389
P 4950 3800
F 0 "C85" H 4975 3900 50  0000 L CNN
F 1 "4.7uF" H 4975 3700 50  0000 L CNN
F 2 "Capacitor_SMD:C_0805_2012Metric" H 4988 3650 50  0001 C CNN
F 3 "" H 4950 3800 50  0001 C CNN
	1    4950 3800
	1    0    0    -1  
$EndComp
$Comp
L power:GND #PWR0163
U 1 1 5E17138F
P 4400 4150
F 0 "#PWR0163" H 4400 3900 50  0001 C CNN
F 1 "GND" H 4400 4000 50  0000 C CNN
F 2 "" H 4400 4150 50  0001 C CNN
F 3 "" H 4400 4150 50  0001 C CNN
	1    4400 4150
	1    0    0    -1  
$EndComp
Wire Wire Line
	4400 4100 4400 4150
Wire Wire Line
	4850 3600 4950 3600
Wire Wire Line
	4950 3600 4950 3650
$Comp
L Device:C C86
U 1 1 5E171398
P 5350 3650
F 0 "C86" H 5375 3750 50  0000 L CNN
F 1 "4.7uF" H 5375 3550 50  0000 L CNN
F 2 "Capacitor_SMD:C_0805_2012Metric" H 5388 3500 50  0001 C CNN
F 3 "" H 5350 3650 50  0001 C CNN
	1    5350 3650
	1    0    0    -1  
$EndComp
Wire Wire Line
	4850 3950 4950 3950
$Comp
L power:GND #PWR0164
U 1 1 5E17139F
P 5350 3850
F 0 "#PWR0164" H 5350 3600 50  0001 C CNN
F 1 "GND" H 5350 3700 50  0000 C CNN
F 2 "" H 5350 3850 50  0001 C CNN
F 3 "" H 5350 3850 50  0001 C CNN
	1    5350 3850
	1    0    0    -1  
$EndComp
Wire Wire Line
	4850 3450 5350 3450
Wire Wire Line
	5350 3500 5350 3450
Connection ~ 5350 3450
Wire Wire Line
	5350 3450 5750 3450
Wire Wire Line
	4250 3450 4050 3450
$Comp
L power:+5V #PWR0165
U 1 1 5E1713AA
P 3750 3400
F 0 "#PWR0165" H 3750 3250 50  0001 C CNN
F 1 "+5V" H 3750 3540 50  0000 C CNN
F 2 "" H 3750 3400 50  0001 C CNN
F 3 "" H 3750 3400 50  0001 C CNN
	1    3750 3400
	1    0    0    -1  
$EndComp
Wire Wire Line
	3750 3400 3750 3450
Wire Wire Line
	5350 3800 5350 3850
$Comp
L Device:C C88
U 1 1 5E1713B2
P 6750 3650
F 0 "C88" H 6775 3750 50  0000 L CNN
F 1 "1uF" H 6775 3550 50  0000 L CNN
F 2 "Capacitor_SMD:C_0603_1608Metric" H 6788 3500 50  0001 C CNN
F 3 "" H 6750 3650 50  0001 C CNN
	1    6750 3650
	1    0    0    -1  
$EndComp
$Comp
L Device:C C?
U 1 1 5E1713B8
P 7050 3650
AR Path="/5E564C74/5E1713B8" Ref="C?"  Part="1" 
AR Path="/5E16FCC2/5E1713B8" Ref="C89"  Part="1" 
F 0 "C89" H 7075 3750 50  0000 L CNN
F 1 "0.1uF" H 7075 3550 50  0000 L CNN
F 2 "Capacitor_SMD:C_0603_1608Metric" H 7088 3500 50  0001 C CNN
F 3 "" H 7050 3650 50  0001 C CNN
	1    7050 3650
	1    0    0    -1  
$EndComp
Wire Wire Line
	6050 3450 6300 3450
Wire Wire Line
	6750 3500 6750 3450
Connection ~ 6750 3450
Wire Wire Line
	6750 3450 7050 3450
Wire Wire Line
	7050 3500 7050 3450
Connection ~ 7050 3450
Wire Wire Line
	7050 3450 7400 3450
Wire Wire Line
	7050 3400 7050 3450
$Comp
L power:GND #PWR0166
U 1 1 5E1713C6
P 6750 3850
F 0 "#PWR0166" H 6750 3600 50  0001 C CNN
F 1 "GND" H 6750 3700 50  0000 C CNN
F 2 "" H 6750 3850 50  0001 C CNN
F 3 "" H 6750 3850 50  0001 C CNN
	1    6750 3850
	1    0    0    -1  
$EndComp
$Comp
L power:GND #PWR?
U 1 1 5E1713CC
P 7050 3850
AR Path="/5E564C74/5E1713CC" Ref="#PWR?"  Part="1" 
AR Path="/5E16FCC2/5E1713CC" Ref="#PWR0167"  Part="1" 
F 0 "#PWR0167" H 7050 3600 50  0001 C CNN
F 1 "GND" H 7050 3700 50  0000 C CNN
F 2 "" H 7050 3850 50  0001 C CNN
F 3 "" H 7050 3850 50  0001 C CNN
	1    7050 3850
	1    0    0    -1  
$EndComp
Wire Wire Line
	7050 3800 7050 3850
Wire Wire Line
	6750 3800 6750 3850
$Comp
L power:-5V #PWR?
U 1 1 5E1713D4
P 7600 3450
AR Path="/5E564C74/5E1713D4" Ref="#PWR?"  Part="1" 
AR Path="/5E16FCC2/5E1713D4" Ref="#PWR0168"  Part="1" 
F 0 "#PWR0168" H 7600 3550 50  0001 C CNN
F 1 "-5V" H 7600 3600 50  0000 C CNN
F 2 "" H 7600 3450 50  0001 C CNN
F 3 "" H 7600 3450 50  0001 C CNN
	1    7600 3450
	1    0    0    -1  
$EndComp
$Comp
L Device:CP C87
U 1 1 5E1713DA
P 6300 3650
F 0 "C87" H 6325 3750 50  0000 L CNN
F 1 "10uF 50V" H 6325 3550 50  0000 L CNN
F 2 "Capacitor_SMD:CP_Elec_5x5.8" H 6338 3500 50  0001 C CNN
F 3 "" H 6300 3650 50  0001 C CNN
	1    6300 3650
	1    0    0    -1  
$EndComp
$Comp
L power:GND #PWR0169
U 1 1 5E1713E0
P 6300 3850
F 0 "#PWR0169" H 6300 3600 50  0001 C CNN
F 1 "GND" H 6300 3700 50  0000 C CNN
F 2 "" H 6300 3850 50  0001 C CNN
F 3 "" H 6300 3850 50  0001 C CNN
	1    6300 3850
	1    0    0    -1  
$EndComp
Wire Wire Line
	6300 3800 6300 3850
Wire Wire Line
	6300 3500 6300 3450
Connection ~ 6300 3450
Wire Wire Line
	6300 3450 6750 3450
$Comp
L Device:C C?
U 1 1 5E172906
P 7400 3650
AR Path="/5E564C74/5E172906" Ref="C?"  Part="1" 
AR Path="/5E16FCC2/5E172906" Ref="C90"  Part="1" 
F 0 "C90" H 7425 3750 50  0000 L CNN
F 1 "10nF" H 7425 3550 50  0000 L CNN
F 2 "Capacitor_SMD:C_0603_1608Metric" H 7438 3500 50  0001 C CNN
F 3 "" H 7400 3650 50  0001 C CNN
	1    7400 3650
	1    0    0    -1  
$EndComp
$Comp
L power:GND #PWR?
U 1 1 5E172C0F
P 7400 3850
AR Path="/5E564C74/5E172C0F" Ref="#PWR?"  Part="1" 
AR Path="/5E16FCC2/5E172C0F" Ref="#PWR0170"  Part="1" 
F 0 "#PWR0170" H 7400 3600 50  0001 C CNN
F 1 "GND" H 7400 3700 50  0000 C CNN
F 2 "" H 7400 3850 50  0001 C CNN
F 3 "" H 7400 3850 50  0001 C CNN
	1    7400 3850
	1    0    0    -1  
$EndComp
Wire Wire Line
	7400 3850 7400 3800
Wire Wire Line
	7400 3500 7400 3450
Connection ~ 7400 3450
Wire Wire Line
	7400 3450 7600 3450
$EndSCHEMATC
