EESchema Schematic File Version 4
EELAYER 30 0
EELAYER END
$Descr A4 8268 11693 portrait
encoding utf-8
Sheet 7 8
Title ""
Date ""
Rev ""
Comp ""
Comment1 ""
Comment2 ""
Comment3 ""
Comment4 ""
$EndDescr
Text HLabel 6950 3450 2    50   Output ~ 0
voltageMeas
Text Notes 2650 1100 0    50   ~ 0
buffer for eliminating DUT current draw
Text HLabel 2500 4600 0    50   Input ~ 0
EXT-
Text HLabel 2550 2300 0    50   Input ~ 0
EXT+
$Comp
L Amplifier_Operational:MCP6001-OT U?
U 1 1 5E1B54A4
P 5700 3450
AR Path="/5DFD1AFA/5E1B54A4" Ref="U?"  Part="1" 
AR Path="/5E5C5B96/5E1B54A4" Ref="U21"  Part="1" 
F 0 "U21" H 5700 3931 50  0000 C CNN
F 1 "TS321AILT" H 5700 3840 50  0000 C CNN
F 2 "Package_TO_SOT_SMD:SOT-23-5" H 5600 3250 50  0001 L CNN
F 3 "http://ww1.microchip.com/downloads/en/DeviceDoc/21733j.pdf" H 5700 3650 50  0001 C CNN
	1    5700 3450
	1    0    0    -1  
$EndComp
$Comp
L power:-5V #PWR?
U 1 1 5E1B54AE
P 5600 4100
AR Path="/5DFD1AFA/5E1B54AE" Ref="#PWR?"  Part="1" 
AR Path="/5E5C5B96/5E1B54AE" Ref="#PWR0149"  Part="1" 
F 0 "#PWR0149" H 5600 4200 50  0001 C CNN
F 1 "-5V" H 5615 4273 50  0000 C CNN
F 2 "" H 5600 4100 50  0001 C CNN
F 3 "" H 5600 4100 50  0001 C CNN
	1    5600 4100
	1    0    0    1   
$EndComp
$Comp
L Device:C C?
U 1 1 5E1B54B8
P 5850 4000
AR Path="/5DFD1AFA/5E1B54B8" Ref="C?"  Part="1" 
AR Path="/5E5C5B96/5E1B54B8" Ref="C40"  Part="1" 
F 0 "C40" H 5965 4046 50  0000 L CNN
F 1 "0.1uF" H 5965 3955 50  0000 L CNN
F 2 "Capacitor_SMD:C_0603_1608Metric" H 5888 3850 50  0001 C CNN
F 3 "~" H 5850 4000 50  0001 C CNN
	1    5850 4000
	-1   0    0    -1  
$EndComp
$Comp
L Device:C C?
U 1 1 5E1B54C2
P 6200 4000
AR Path="/5DFD1AFA/5E1B54C2" Ref="C?"  Part="1" 
AR Path="/5E5C5B96/5E1B54C2" Ref="C82"  Part="1" 
F 0 "C82" H 6315 4046 50  0000 L CNN
F 1 "1uF" H 6315 3955 50  0000 L CNN
F 2 "Capacitor_SMD:C_0603_1608Metric" H 6238 3850 50  0001 C CNN
F 3 "~" H 6200 4000 50  0001 C CNN
	1    6200 4000
	-1   0    0    -1  
$EndComp
Wire Wire Line
	5600 3750 5600 3800
Wire Wire Line
	5600 3800 5850 3800
Wire Wire Line
	6200 3800 6200 3850
Wire Wire Line
	5850 3850 5850 3800
Connection ~ 5850 3800
Wire Wire Line
	5850 3800 6200 3800
Wire Wire Line
	5600 4100 5600 3800
Connection ~ 5600 3800
$Comp
L power:GND #PWR?
U 1 1 5E1B54D4
P 5850 4250
AR Path="/5DFD1AFA/5E1B54D4" Ref="#PWR?"  Part="1" 
AR Path="/5E5C5B96/5E1B54D4" Ref="#PWR0150"  Part="1" 
F 0 "#PWR0150" H 5850 4000 50  0001 C CNN
F 1 "GND" H 5855 4077 50  0000 C CNN
F 2 "" H 5850 4250 50  0001 C CNN
F 3 "" H 5850 4250 50  0001 C CNN
	1    5850 4250
	-1   0    0    -1  
$EndComp
Wire Wire Line
	5850 4200 6200 4200
Wire Wire Line
	6200 4200 6200 4150
Wire Wire Line
	5850 4250 5850 4200
Wire Wire Line
	5850 4200 5850 4150
Connection ~ 5850 4200
Wire Wire Line
	6350 4500 6350 3450
Wire Wire Line
	6350 3450 6000 3450
$Comp
L Device:R R?
U 1 1 5E1B54E5
P 6550 3450
AR Path="/5DFD1AFA/5E1B54E5" Ref="R?"  Part="1" 
AR Path="/5E5C5B96/5E1B54E5" Ref="R72"  Part="1" 
F 0 "R72" V 6757 3450 50  0000 C CNN
F 1 "TBD" V 6666 3450 50  0000 C CNN
F 2 "Resistor_SMD:R_0603_1608Metric" V 6480 3450 50  0001 C CNN
F 3 "~" H 6550 3450 50  0001 C CNN
	1    6550 3450
	0    1    -1   0   
$EndComp
$Comp
L Device:C C?
U 1 1 5E1B54EF
P 6800 3650
AR Path="/5DFD1AFA/5E1B54EF" Ref="C?"  Part="1" 
AR Path="/5E5C5B96/5E1B54EF" Ref="C84"  Part="1" 
F 0 "C84" H 6915 3696 50  0000 L CNN
F 1 "TBD" H 6915 3605 50  0000 L CNN
F 2 "Capacitor_SMD:C_0603_1608Metric" H 6838 3500 50  0001 C CNN
F 3 "~" H 6800 3650 50  0001 C CNN
	1    6800 3650
	-1   0    0    -1  
$EndComp
$Comp
L power:GND #PWR?
U 1 1 5E1B54F9
P 6800 3850
AR Path="/5DFD1AFA/5E1B54F9" Ref="#PWR?"  Part="1" 
AR Path="/5E5C5B96/5E1B54F9" Ref="#PWR0151"  Part="1" 
F 0 "#PWR0151" H 6800 3600 50  0001 C CNN
F 1 "GND" H 6805 3677 50  0000 C CNN
F 2 "" H 6800 3850 50  0001 C CNN
F 3 "" H 6800 3850 50  0001 C CNN
	1    6800 3850
	-1   0    0    -1  
$EndComp
Wire Wire Line
	6400 3450 6350 3450
Connection ~ 6350 3450
Wire Wire Line
	6700 3450 6800 3450
Wire Wire Line
	6800 3500 6800 3450
Connection ~ 6800 3450
Wire Wire Line
	6800 3850 6800 3800
$Comp
L Device:C C?
U 1 1 5E1B550A
P 6350 2800
AR Path="/5DFD1AFA/5E1B550A" Ref="C?"  Part="1" 
AR Path="/5E5C5B96/5E1B550A" Ref="C83"  Part="1" 
F 0 "C83" H 6465 2846 50  0000 L CNN
F 1 "0.1uF" H 6465 2755 50  0000 L CNN
F 2 "Capacitor_SMD:C_0603_1608Metric" H 6388 2650 50  0001 C CNN
F 3 "~" H 6350 2800 50  0001 C CNN
	1    6350 2800
	-1   0    0    -1  
$EndComp
$Comp
L Device:C C?
U 1 1 5E1B5514
P 5900 2800
AR Path="/5DFD1AFA/5E1B5514" Ref="C?"  Part="1" 
AR Path="/5E5C5B96/5E1B5514" Ref="C81"  Part="1" 
F 0 "C81" H 6015 2846 50  0000 L CNN
F 1 "1uF" H 6015 2755 50  0000 L CNN
F 2 "Capacitor_SMD:C_0603_1608Metric" H 5938 2650 50  0001 C CNN
F 3 "~" H 5900 2800 50  0001 C CNN
	1    5900 2800
	-1   0    0    -1  
$EndComp
$Comp
L power:GND #PWR?
U 1 1 5E1B551E
P 6350 3050
AR Path="/5DFD1AFA/5E1B551E" Ref="#PWR?"  Part="1" 
AR Path="/5E5C5B96/5E1B551E" Ref="#PWR0152"  Part="1" 
F 0 "#PWR0152" H 6350 2800 50  0001 C CNN
F 1 "GND" H 6355 2877 50  0000 C CNN
F 2 "" H 6350 3050 50  0001 C CNN
F 3 "" H 6350 3050 50  0001 C CNN
	1    6350 3050
	-1   0    0    -1  
$EndComp
Wire Wire Line
	5900 3000 6350 3000
Wire Wire Line
	6350 3000 6350 2950
Wire Wire Line
	5900 3000 5900 2950
Wire Wire Line
	5900 2650 5900 2600
Wire Wire Line
	5900 2600 6350 2600
Wire Wire Line
	6350 2600 6350 2650
Wire Wire Line
	5400 3350 5250 3350
$Comp
L Connector:TestPoint_Alt TP?
U 1 1 5E1B552F
P 6800 3400
AR Path="/5DFD1AFA/5E1B552F" Ref="TP?"  Part="1" 
AR Path="/5E5C5B96/5E1B552F" Ref="TP57"  Part="1" 
F 0 "TP57" H 6858 3472 50  0000 L CNN
F 1 "TestPoint_Alt" H 6858 3427 50  0001 L CNN
F 2 "TestPoint:TestPoint_Pad_D1.0mm" H 7000 3400 50  0001 C CNN
F 3 "~" H 7000 3400 50  0001 C CNN
	1    6800 3400
	-1   0    0    -1  
$EndComp
Wire Wire Line
	6800 3400 6800 3450
$Comp
L power:VSSA #PWR0153
U 1 1 5E1B553A
P 5250 2850
F 0 "#PWR0153" H 5250 2700 50  0001 C CNN
F 1 "VSSA" H 5267 3023 50  0000 C CNN
F 2 "" H 5250 2850 50  0001 C CNN
F 3 "" H 5250 2850 50  0001 C CNN
	1    5250 2850
	1    0    0    -1  
$EndComp
$Comp
L Device:R R70
U 1 1 5E1B5544
P 5250 3100
F 0 "R70" H 5320 3146 50  0000 L CNN
F 1 "1K" H 5320 3055 50  0000 L CNN
F 2 "Resistor_SMD:R_0603_1608Metric" V 5180 3100 50  0001 C CNN
F 3 "~" H 5250 3100 50  0001 C CNN
	1    5250 3100
	1    0    0    -1  
$EndComp
$Comp
L Device:R R68
U 1 1 5E1B554E
P 5000 3350
F 0 "R68" V 4793 3350 50  0000 C CNN
F 1 "10K" V 4884 3350 50  0000 C CNN
F 2 "Resistor_SMD:R_0603_1608Metric" V 4930 3350 50  0001 C CNN
F 3 "~" H 5000 3350 50  0001 C CNN
	1    5000 3350
	0    1    1    0   
$EndComp
$Comp
L Device:R R69
U 1 1 5E1B5558
P 5000 3550
F 0 "R69" V 4793 3550 50  0000 C CNN
F 1 "10K" V 4884 3550 50  0000 C CNN
F 2 "Resistor_SMD:R_0603_1608Metric" V 4930 3550 50  0001 C CNN
F 3 "~" H 5000 3550 50  0001 C CNN
	1    5000 3550
	0    1    1    0   
$EndComp
$Comp
L Device:R R71
U 1 1 5E1B5562
P 5250 3950
F 0 "R71" H 5180 3904 50  0000 R CNN
F 1 "1K" H 5180 3995 50  0000 R CNN
F 2 "Resistor_SMD:R_0603_1608Metric" V 5180 3950 50  0001 C CNN
F 3 "~" H 5250 3950 50  0001 C CNN
	1    5250 3950
	-1   0    0    1   
$EndComp
Wire Wire Line
	5250 4100 5250 4500
Wire Wire Line
	5250 4500 6350 4500
Wire Wire Line
	5250 3800 5250 3550
Wire Wire Line
	5250 3550 5400 3550
Wire Wire Line
	5250 2850 5250 2950
Wire Wire Line
	5250 3250 5250 3350
Connection ~ 5250 3350
Wire Wire Line
	5250 3350 5150 3350
Wire Wire Line
	5150 3550 5250 3550
Connection ~ 5250 3550
Text Notes 4750 2200 0    50   ~ 0
differential amplifier with gain of 0.1
Wire Wire Line
	4850 3350 4650 3350
$Comp
L Connector:TestPoint_Alt TP?
U 1 1 5E1B5591
P 4650 3300
AR Path="/5DFD1AFA/5E1B5591" Ref="TP?"  Part="1" 
AR Path="/5E5C5B96/5E1B5591" Ref="TP50"  Part="1" 
F 0 "TP50" H 4708 3372 50  0000 L CNN
F 1 "TestPoint_Alt" H 4708 3327 50  0001 L CNN
F 2 "TestPoint:TestPoint_Pad_D1.0mm" H 4850 3300 50  0001 C CNN
F 3 "~" H 4850 3300 50  0001 C CNN
	1    4650 3300
	-1   0    0    -1  
$EndComp
Wire Wire Line
	4650 3350 4650 3300
Connection ~ 4650 3350
$Comp
L Connector:TestPoint_Alt TP?
U 1 1 5E1B559D
P 4650 3600
AR Path="/5DFD1AFA/5E1B559D" Ref="TP?"  Part="1" 
AR Path="/5E5C5B96/5E1B559D" Ref="TP56"  Part="1" 
F 0 "TP56" H 4708 3672 50  0000 L CNN
F 1 "TestPoint_Alt" H 4708 3627 50  0001 L CNN
F 2 "TestPoint:TestPoint_Pad_D1.0mm" H 4850 3600 50  0001 C CNN
F 3 "~" H 4850 3600 50  0001 C CNN
	1    4650 3600
	1    0    0    1   
$EndComp
Wire Wire Line
	4650 3600 4650 3550
Wire Wire Line
	4650 3550 4850 3550
Connection ~ 4650 3550
Wire Wire Line
	5600 2500 5600 2600
Wire Wire Line
	5900 2600 5600 2600
Connection ~ 5900 2600
Connection ~ 5600 2600
Wire Wire Line
	5600 2600 5600 3150
Wire Wire Line
	6350 3050 6350 3000
Connection ~ 6350 3000
$Comp
L Amplifier_Operational:MCP6001-OT U?
U 1 1 5E1B55B2
P 3400 2400
AR Path="/5DFD1AFA/5E1B55B2" Ref="U?"  Part="1" 
AR Path="/5E5C5B96/5E1B55B2" Ref="U10"  Part="1" 
F 0 "U10" H 3400 2881 50  0000 C CNN
F 1 "TS321AILT" H 3400 2790 50  0000 C CNN
F 2 "Package_TO_SOT_SMD:SOT-23-5" H 3300 2200 50  0001 L CNN
F 3 "http://ww1.microchip.com/downloads/en/DeviceDoc/21733j.pdf" H 3400 2600 50  0001 C CNN
	1    3400 2400
	1    0    0    -1  
$EndComp
$Comp
L power:GND #PWR?
U 1 1 5E1B55BC
P 3750 1900
AR Path="/5DFD1AFA/5E1B55BC" Ref="#PWR?"  Part="1" 
AR Path="/5E5C5B96/5E1B55BC" Ref="#PWR0154"  Part="1" 
F 0 "#PWR0154" H 3750 1650 50  0001 C CNN
F 1 "GND" H 3755 1727 50  0000 C CNN
F 2 "" H 3750 1900 50  0001 C CNN
F 3 "" H 3750 1900 50  0001 C CNN
	1    3750 1900
	-1   0    0    -1  
$EndComp
$Comp
L power:+24V #PWR0155
U 1 1 5E1B55C6
P 3300 1450
F 0 "#PWR0155" H 3300 1300 50  0001 C CNN
F 1 "+24V" H 3315 1623 50  0000 C CNN
F 2 "" H 3300 1450 50  0001 C CNN
F 3 "" H 3300 1450 50  0001 C CNN
	1    3300 1450
	1    0    0    -1  
$EndComp
$Comp
L Device:C C?
U 1 1 5E1B55D0
P 3700 2900
AR Path="/5DFD1AFA/5E1B55D0" Ref="C?"  Part="1" 
AR Path="/5E5C5B96/5E1B55D0" Ref="C36"  Part="1" 
F 0 "C36" H 3815 2946 50  0000 L CNN
F 1 "0.1uF" H 3815 2855 50  0000 L CNN
F 2 "Capacitor_SMD:C_0603_1608Metric" H 3738 2750 50  0001 C CNN
F 3 "~" H 3700 2900 50  0001 C CNN
	1    3700 2900
	-1   0    0    -1  
$EndComp
$Comp
L power:-5V #PWR?
U 1 1 5E1B55DA
P 3300 3100
AR Path="/5DFD1AFA/5E1B55DA" Ref="#PWR?"  Part="1" 
AR Path="/5E5C5B96/5E1B55DA" Ref="#PWR0156"  Part="1" 
F 0 "#PWR0156" H 3300 3200 50  0001 C CNN
F 1 "-5V" H 3315 3273 50  0000 C CNN
F 2 "" H 3300 3100 50  0001 C CNN
F 3 "" H 3300 3100 50  0001 C CNN
	1    3300 3100
	1    0    0    1   
$EndComp
$Comp
L power:GND #PWR?
U 1 1 5E1B55E4
P 3700 3100
AR Path="/5DFD1AFA/5E1B55E4" Ref="#PWR?"  Part="1" 
AR Path="/5E5C5B96/5E1B55E4" Ref="#PWR0157"  Part="1" 
F 0 "#PWR0157" H 3700 2850 50  0001 C CNN
F 1 "GND" H 3705 2927 50  0000 C CNN
F 2 "" H 3700 3100 50  0001 C CNN
F 3 "" H 3700 3100 50  0001 C CNN
	1    3700 3100
	-1   0    0    -1  
$EndComp
Wire Wire Line
	3700 3100 3700 3050
Wire Wire Line
	3700 2750 3300 2750
Wire Wire Line
	3300 2750 3300 2700
Wire Wire Line
	3300 3100 3300 2750
Connection ~ 3300 2750
$Comp
L Device:C C?
U 1 1 5E1B55F3
P 3750 1700
AR Path="/5DFD1AFA/5E1B55F3" Ref="C?"  Part="1" 
AR Path="/5E5C5B96/5E1B55F3" Ref="C38"  Part="1" 
F 0 "C38" H 3865 1746 50  0000 L CNN
F 1 "0.1uF" H 3865 1655 50  0000 L CNN
F 2 "Capacitor_SMD:C_0603_1608Metric" H 3788 1550 50  0001 C CNN
F 3 "~" H 3750 1700 50  0001 C CNN
	1    3750 1700
	-1   0    0    -1  
$EndComp
Wire Wire Line
	3300 1450 3300 1550
Wire Wire Line
	3750 1550 3300 1550
Connection ~ 3300 1550
Wire Wire Line
	3300 1550 3300 2100
Wire Wire Line
	3750 1850 3750 1900
Wire Wire Line
	3700 2400 3950 2400
Wire Wire Line
	3950 2400 3950 3350
Wire Wire Line
	3950 3350 3000 3350
Wire Wire Line
	3000 3350 3000 2500
Wire Wire Line
	3000 2500 3100 2500
Wire Wire Line
	3950 3350 4650 3350
Connection ~ 3950 3350
$Comp
L Amplifier_Operational:MCP6001-OT U?
U 1 1 5E1B5609
P 3400 4700
AR Path="/5DFD1AFA/5E1B5609" Ref="U?"  Part="1" 
AR Path="/5E5C5B96/5E1B5609" Ref="U20"  Part="1" 
F 0 "U20" H 3400 5181 50  0000 C CNN
F 1 "TS321AILT" H 3400 5090 50  0000 C CNN
F 2 "Package_TO_SOT_SMD:SOT-23-5" H 3300 4500 50  0001 L CNN
F 3 "http://ww1.microchip.com/downloads/en/DeviceDoc/21733j.pdf" H 3400 4900 50  0001 C CNN
	1    3400 4700
	1    0    0    -1  
$EndComp
$Comp
L power:GND #PWR?
U 1 1 5E1B5613
P 3750 4200
AR Path="/5DFD1AFA/5E1B5613" Ref="#PWR?"  Part="1" 
AR Path="/5E5C5B96/5E1B5613" Ref="#PWR0158"  Part="1" 
F 0 "#PWR0158" H 3750 3950 50  0001 C CNN
F 1 "GND" H 3755 4027 50  0000 C CNN
F 2 "" H 3750 4200 50  0001 C CNN
F 3 "" H 3750 4200 50  0001 C CNN
	1    3750 4200
	-1   0    0    -1  
$EndComp
$Comp
L power:+24V #PWR0159
U 1 1 5E1B561D
P 3300 3750
F 0 "#PWR0159" H 3300 3600 50  0001 C CNN
F 1 "+24V" H 3315 3923 50  0000 C CNN
F 2 "" H 3300 3750 50  0001 C CNN
F 3 "" H 3300 3750 50  0001 C CNN
	1    3300 3750
	1    0    0    -1  
$EndComp
$Comp
L Device:C C?
U 1 1 5E1B5627
P 3700 5200
AR Path="/5DFD1AFA/5E1B5627" Ref="C?"  Part="1" 
AR Path="/5E5C5B96/5E1B5627" Ref="C37"  Part="1" 
F 0 "C37" H 3815 5246 50  0000 L CNN
F 1 "0.1uF" H 3815 5155 50  0000 L CNN
F 2 "Capacitor_SMD:C_0603_1608Metric" H 3738 5050 50  0001 C CNN
F 3 "~" H 3700 5200 50  0001 C CNN
	1    3700 5200
	-1   0    0    -1  
$EndComp
$Comp
L power:-5V #PWR?
U 1 1 5E1B5631
P 3300 5400
AR Path="/5DFD1AFA/5E1B5631" Ref="#PWR?"  Part="1" 
AR Path="/5E5C5B96/5E1B5631" Ref="#PWR0160"  Part="1" 
F 0 "#PWR0160" H 3300 5500 50  0001 C CNN
F 1 "-5V" H 3315 5573 50  0000 C CNN
F 2 "" H 3300 5400 50  0001 C CNN
F 3 "" H 3300 5400 50  0001 C CNN
	1    3300 5400
	1    0    0    1   
$EndComp
$Comp
L power:GND #PWR?
U 1 1 5E1B563B
P 3700 5400
AR Path="/5DFD1AFA/5E1B563B" Ref="#PWR?"  Part="1" 
AR Path="/5E5C5B96/5E1B563B" Ref="#PWR0161"  Part="1" 
F 0 "#PWR0161" H 3700 5150 50  0001 C CNN
F 1 "GND" H 3705 5227 50  0000 C CNN
F 2 "" H 3700 5400 50  0001 C CNN
F 3 "" H 3700 5400 50  0001 C CNN
	1    3700 5400
	-1   0    0    -1  
$EndComp
Wire Wire Line
	3700 5400 3700 5350
Wire Wire Line
	3700 5050 3300 5050
Wire Wire Line
	3300 5050 3300 5000
Wire Wire Line
	3300 5400 3300 5050
Connection ~ 3300 5050
$Comp
L Device:C C?
U 1 1 5E1B564A
P 3750 4000
AR Path="/5DFD1AFA/5E1B564A" Ref="C?"  Part="1" 
AR Path="/5E5C5B96/5E1B564A" Ref="C39"  Part="1" 
F 0 "C39" H 3865 4046 50  0000 L CNN
F 1 "0.1uF" H 3865 3955 50  0000 L CNN
F 2 "Capacitor_SMD:C_0603_1608Metric" H 3788 3850 50  0001 C CNN
F 3 "~" H 3750 4000 50  0001 C CNN
	1    3750 4000
	-1   0    0    -1  
$EndComp
Wire Wire Line
	3300 3750 3300 3850
Wire Wire Line
	3750 3850 3300 3850
Connection ~ 3300 3850
Wire Wire Line
	3300 3850 3300 4400
Wire Wire Line
	3750 4150 3750 4200
Wire Wire Line
	3700 4700 3950 4700
Wire Wire Line
	3950 4700 3950 5650
Wire Wire Line
	3950 5650 3000 5650
Wire Wire Line
	3000 5650 3000 4800
Wire Wire Line
	3000 4800 3100 4800
Wire Wire Line
	2550 2300 2800 2300
Wire Wire Line
	2500 4600 2900 4600
Wire Wire Line
	3950 3550 3950 4700
Wire Wire Line
	3950 3550 4650 3550
Connection ~ 3950 4700
$Comp
L Connector:TestPoint_Alt TP?
U 1 1 5E1B5663
P 2800 2250
AR Path="/5DFD1AFA/5E1B5663" Ref="TP?"  Part="1" 
AR Path="/5E5C5B96/5E1B5663" Ref="TP23"  Part="1" 
F 0 "TP23" H 2858 2322 50  0000 L CNN
F 1 "TestPoint_Alt" H 2858 2277 50  0001 L CNN
F 2 "TestPoint:TestPoint_Pad_D1.0mm" H 3000 2250 50  0001 C CNN
F 3 "~" H 3000 2250 50  0001 C CNN
	1    2800 2250
	-1   0    0    -1  
$EndComp
Wire Wire Line
	2800 2250 2800 2300
Connection ~ 2800 2300
Wire Wire Line
	2800 2300 3100 2300
$Comp
L Connector:TestPoint_Alt TP?
U 1 1 5E1B5670
P 2900 4550
AR Path="/5DFD1AFA/5E1B5670" Ref="TP?"  Part="1" 
AR Path="/5E5C5B96/5E1B5670" Ref="TP49"  Part="1" 
F 0 "TP49" H 2958 4622 50  0000 L CNN
F 1 "TestPoint_Alt" H 2958 4577 50  0001 L CNN
F 2 "TestPoint:TestPoint_Pad_D1.0mm" H 3100 4550 50  0001 C CNN
F 3 "~" H 3100 4550 50  0001 C CNN
	1    2900 4550
	-1   0    0    -1  
$EndComp
Wire Wire Line
	2900 4550 2900 4600
Connection ~ 2900 4600
Wire Wire Line
	2900 4600 3100 4600
$Comp
L power:+5V #PWR0162
U 1 1 5E1B567D
P 5600 2500
F 0 "#PWR0162" H 5600 2350 50  0001 C CNN
F 1 "+5V" H 5615 2673 50  0000 C CNN
F 2 "" H 5600 2500 50  0001 C CNN
F 3 "" H 5600 2500 50  0001 C CNN
	1    5600 2500
	1    0    0    -1  
$EndComp
Wire Wire Line
	6800 3450 6950 3450
$EndSCHEMATC
