M48
; DRILL file {KiCad 5.1.5-52549c5~84~ubuntu18.04.1} date 2020 m. sausio 26 d. 23:41:26
; FORMAT={-:-/ absolute / inch / decimal}
; #@! TF.CreationDate,2020-01-26T23:41:26+02:00
; #@! TF.GenerationSoftware,Kicad,Pcbnew,5.1.5-52549c5~84~ubuntu18.04.1
; #@! TF.FileFunction,Plated,1,2,PTH
FMAT,2
INCH
T1C0.0157
T2C0.0197
T3C0.0217
T4C0.0315
T5C0.0394
T6C0.0591
T7C0.0598
%
G90
G05
T1
X2.4843Y-5.248
X2.7244Y-3.0335
X2.815Y-3.0531
X2.8701Y-3.1909
X2.9173Y-3.8031
X2.92Y-2.93
X2.9272Y-3.189
X2.9439Y-3.1496
X2.9843Y-2.874
X2.9843Y-3.1988
X3.04Y-2.68
X3.0512Y-2.874
X3.063Y-3.0453
X3.1024Y-4.7874
X3.1358Y-2.7953
X3.1378Y-4.5709
X3.1417Y-4.7874
X3.1732Y-3.3346
X3.1732Y-3.9016
X3.2283Y-3.0709
X3.315Y-3.2165
X3.315Y-3.3937
X3.315Y-3.5906
X3.315Y-3.7913
X3.3622Y-4.0787
X3.3622Y-4.248
X3.378Y-3.0472
X3.3839Y-2.9213
X3.4764Y-3.2165
X3.4764Y-3.3937
X3.4764Y-3.5906
X3.48Y-2.94
X3.48Y-2.98
X3.4803Y-3.7362
X3.5256Y-2.9783
X3.5394Y-4.5984
X3.5531Y-3.0433
X3.5748Y-2.8031
X3.5866Y-4.6378
X3.5906Y-2.9094
X3.6299Y-2.9016
X3.6339Y-2.9803
X3.6358Y-3.2638
X3.65Y-3.04
X3.6535Y-4.7874
X3.6752Y-3.27
X3.7Y-3.04
X3.7Y-3.14
X3.7024Y-3.912
X3.7043Y-3.8303
X3.7087Y-4.2205
X3.7165Y-4.3937
X3.7165Y-4.5276
X3.7234Y-3.3652
X3.7283Y-2.9134
X3.7283Y-4.7441
X3.73Y-3.27
X3.7402Y-3.2136
X3.748Y-3.8386
X3.7598Y-4.0787
X3.77Y-3.36
X3.7756Y-4.6339
X3.7795Y-2.5866
X3.815Y-4.3976
X3.8189Y-4.1969
X3.8228Y-4.6693
X3.8268Y-2.5866
X3.8268Y-2.9055
X3.8346Y-4.0827
X3.84Y-2.96
X3.8543Y-2.378
X3.874Y-4.2598
X3.874Y-4.3425
X3.874Y-4.5709
X3.878Y-4.0945
X3.8898Y-3.0224
X3.9094Y-3.6348
X3.9289Y-2.4409
X3.9291Y-2.378
X3.94Y-4.26
X3.94Y-4.34
X4.0276Y-3.5
X4.0276Y-3.5433
X4.0276Y-3.5787
X4.0276Y-4.2175
X4.0433Y-2.5866
X4.0433Y-2.9055
X4.0472Y-4.6929
X4.0551Y-5.3543
X4.0591Y-4.937
X4.0591Y-5.0049
X4.1043Y-4.2165
X4.1142Y-2.9055
X4.1201Y-4.8287
X4.122Y-3.6614
X4.1417Y-4.5354
X4.1535Y-2.8425
X4.1693Y-3.7638
X4.1762Y-3.4065
X4.1781Y-5.5128
X4.19Y-5.11
X4.1969Y-2.6339
X4.1995Y-2.5817
X4.21Y-3.83
X4.2155Y-3.4055
X4.2288Y-4.7446
X4.2402Y-3.9016
X4.2402Y-4.1024
X4.2421Y-3.5167
X4.2461Y-4.4449
X4.25Y-4.39
X4.252Y-5.3425
X4.2638Y-2.6811
X4.2717Y-2.5827
X4.2756Y-5.2835
X4.3Y-4.39
X4.3268Y-4.6575
X4.3268Y-4.7165
X4.3307Y-4.9291
X4.3307Y-4.9882
X4.3809Y-3.8406
X4.4134Y-5.3307
X4.4173Y-4.9331
X4.4252Y-5.1929
X4.4449Y-2.811
X4.4449Y-4.3583
X4.4803Y-4.6654
X4.4843Y-2.6772
X4.4961Y-4.3583
X4.497Y-3.8396
X4.5Y-5.1929
X4.5079Y-4.8543
X4.5433Y-5.3268
X4.5787Y-2.3898
X4.5896Y-3.7805
X4.59Y-3.83
X4.5906Y-4.5984
X4.6299Y-3.3307
X4.6339Y-3.5787
X4.6378Y-3.626
X4.6496Y-3.7805
X4.6496Y-5.3228
X4.65Y-3.83
X4.6614Y-4.4606
X4.6614Y-4.8661
X4.6693Y-4.5354
X4.6772Y-2.8346
X4.6929Y-3.2992
X4.7008Y-4.3583
X4.7047Y-4.6614
X4.7165Y-4.8622
X4.7559Y-5.3307
X4.7598Y-2.6772
X4.7638Y-4.3976
X4.7638Y-4.6575
X4.77Y-4.6
X4.7835Y-3.2717
X4.7874Y-3.5984
X4.84Y-4.6
X4.8425Y-3.378
X4.8447Y-5.1502
X4.8465Y-5.0748
X4.88Y-4.65
X4.88Y-5.51
X4.8858Y-4.7598
X4.8858Y-4.8346
X4.8976Y-5.2913
X4.9055Y-3.2717
X4.9134Y-3.3332
X4.9262Y-4.25
X4.9262Y-4.3248
X4.94Y-4.1
X4.9409Y-2.1969
X4.9409Y-2.3858
X4.9567Y-3.3337
X4.9567Y-5.2913
X4.9616Y-5.7598
X4.9646Y-5.6024
X4.97Y-4.08
X4.98Y-4.84
X5.02Y-4.37
X5.0276Y-4.9134
X5.0276Y-4.9724
X5.03Y-4.84
X5.0413Y-4.0246
X5.0512Y-3.2717
X5.0817Y-4.3927
X5.1102Y-3.1535
X5.1102Y-3.2126
X5.1181Y-5.3199
X5.126Y-3.0866
X5.17Y-3.18
X5.176Y-4.5083
X5.19Y-3.11
X5.1926Y-5.2252
X5.23Y-3.97
X5.2343Y-4.1398
X5.2362Y-4.2362
X5.252Y-5.2372
X5.2559Y-4.0453
X5.2795Y-2.7953
X5.2825Y-3.9754
X5.2835Y-4.378
X5.3091Y-4.8366
X5.311Y-5.2687
X5.3622Y-4.7874
X5.378Y-5.2844
X5.39Y-4.64
X5.3976Y-2.8504
X5.4114Y-3.7618
X5.4331Y-4.2136
X5.4395Y-4.5874
X5.44Y-4.64
X5.45Y-3.9524
X5.4705Y-4.4065
X5.4708Y-4.0823
X5.4764Y-4.3602
X5.4803Y-5.2844
X5.4921Y-4.6604
X5.5295Y-4.0817
X5.5433Y-4.7362
X5.5472Y-5.2687
X5.59Y-4.12
X5.6102Y-5.2372
X5.6142Y-5.4685
X5.65Y-4.12
X5.6732Y-5.2254
X5.7087Y-2.2441
X5.71Y-4.12
X5.7264Y-4.4055
X5.7421Y-4.5295
X5.7441Y-2.4803
X5.748Y-4.8701
X5.75Y-4.2677
X5.75Y-4.311
X5.752Y-2.2874
X5.7589Y-3.0659
X5.7638Y-5.372
X5.7677Y-4.7638
X5.7687Y-4.1152
X5.7707Y-5.3199
X5.78Y-4.71
X5.79Y-4.65
X5.7953Y-4.6043
X5.83Y-4.65
X5.8406Y-4.5571
X5.8583Y-4.8465
X5.8622Y-4.4469
X5.8642Y-4.0571
X5.8768Y-3.8846
X5.8858Y-2.5118
X5.8878Y-4.1634
X5.91Y-5.02
X5.9134Y-4.5669
X5.93Y-4.98
X5.9311Y-4.2461
X5.9685Y-4.4862
X5.9724Y-3.6024
X5.9882Y-4.9252
X5.9921Y-4.0374
X5.9956Y-2.4365
X6.01Y-3.13
X6.0138Y-4.2756
X6.0433Y-2.437
X6.0463Y-4.4154
X6.0709Y-3.2047
X6.1024Y-4.3819
X6.1063Y-3.6417
X6.1319Y-4.7618
X6.1378Y-3.5669
X6.1693Y-3.0669
X6.189Y-3.7874
X6.2265Y-4.569
T5
X5.8701Y-3.3071
X5.9701Y-3.3071
X6.0701Y-3.3071
X5.1142Y-5.6598
X5.1142Y-5.7598
X5.2142Y-5.6598
X5.2142Y-5.7598
X5.3142Y-5.6598
X5.3142Y-5.7598
X5.4142Y-5.6598
X5.4142Y-5.7598
X5.5142Y-5.6598
X5.5142Y-5.7598
X5.6142Y-5.6598
X5.6142Y-5.7598
X5.7142Y-5.6598
X5.7142Y-5.7598
X3.4724Y-2.6614
X6.0945Y-4.9311
X6.0945Y-5.0311
X6.0945Y-5.1311
X6.0945Y-5.2311
X4.5591Y-2.5906
X4.5591Y-2.6906
X4.5591Y-2.7906
X4.5591Y-2.8906
X4.1185Y-5.7953
X4.2185Y-5.7953
X5.1378Y-2.3622
X5.2378Y-2.3622
X5.3378Y-2.3622
X5.2923Y-3.3819
X3.8728Y-3.1614
X3.9728Y-3.1614
X4.0728Y-3.1614
X4.1165Y-5.622
X4.2165Y-5.622
X4.0177Y-5.2028
X4.9764Y-2.5906
X4.9764Y-2.6906
X4.9764Y-2.7906
X4.9764Y-2.8906
X4.0315Y-2.2835
X4.1315Y-2.2835
X4.2315Y-2.2835
X4.3315Y-2.2835
X4.4315Y-2.2835
X4.5315Y-2.2835
X4.0315Y-2.126
X4.1315Y-2.126
X4.2315Y-2.126
X4.3315Y-2.126
X4.4315Y-2.126
X4.5315Y-2.126
T6
X2.6024Y-3.7717
X2.6024Y-3.9862
X2.6024Y-4.2008
X2.6024Y-4.4331
X2.6024Y-4.6476
X2.6024Y-4.8622
T7
X3.1732Y-5.7087
X3.3732Y-5.7087
X4.4299Y-5.7087
X4.6299Y-5.7087
X3.6504Y-5.7087
X3.8504Y-5.7087
T2
G00X5.5709Y-2.0207
M15
G01X5.5709Y-2.0463
M16
G05
G00X5.8465Y-2.0207
M15
G01X5.8465Y-2.0463
M16
G05
T3
G00X5.6161Y-2.1398
M15
G01X5.6043Y-2.1398
M16
G05
G00X5.813Y-2.1398
M15
G01X5.8012Y-2.1398
M16
G05
T4
G00X3.3425Y-2.311
M15
G01X3.3425Y-2.3976
M16
G05
G00X3.5748Y-2.2441
M15
G01X3.4882Y-2.2441
M16
G05
G00X3.5827Y-2.4724
M15
G01X3.4803Y-2.4724
M16
G05
T0
M30
